<?xml version="1.0" encoding="utf-8" standalone="no"?>
<!DOCTYPE svg PUBLIC "-//W3C//DTD SVG 1.1//EN"
  "http://www.w3.org/Graphics/SVG/1.1/DTD/svg11.dtd">
<!-- Created with matplotlib (https://matplotlib.org/) -->
<svg height="345.6pt" version="1.1" viewBox="0 0 460.8 345.6" width="460.8pt" xmlns="http://www.w3.org/2000/svg" xmlns:xlink="http://www.w3.org/1999/xlink">
 <metadata>
  <rdf:RDF xmlns:cc="http://creativecommons.org/ns#" xmlns:dc="http://purl.org/dc/elements/1.1/" xmlns:rdf="http://www.w3.org/1999/02/22-rdf-syntax-ns#">
   <cc:Work>
    <dc:type rdf:resource="http://purl.org/dc/dcmitype/StillImage"/>
    <dc:date>2022-05-02T10:17:58.322428</dc:date>
    <dc:format>image/svg+xml</dc:format>
    <dc:creator>
     <cc:Agent>
      <dc:title>Matplotlib v3.3.2, https://matplotlib.org/</dc:title>
     </cc:Agent>
    </dc:creator>
   </cc:Work>
  </rdf:RDF>
 </metadata>
 <defs>
  <style type="text/css">*{stroke-linecap:butt;stroke-linejoin:round;}</style>
 </defs>
 <g id="figure_1">
  <g id="patch_1">
   <path d="M 0 345.6 
L 460.8 345.6 
L 460.8 0 
L 0 0 
z
" style="fill:#ffffff;"/>
  </g>
  <g id="axes_1">
   <g id="patch_2">
    <path d="M 57.6 307.584 
L 414.72 307.584 
L 414.72 41.472 
L 57.6 41.472 
z
" style="fill:#ffffff;"/>
   </g>
   <g id="PolyCollection_1">
    <path clip-path="url(#pa40a009b1b)" d="M 73.832727 94.60921 
L 73.832727 307.584 
L 89.292468 307.584 
L 104.752208 307.584 
L 120.211948 307.584 
L 135.671688 307.584 
L 151.131429 307.584 
L 166.591169 307.584 
L 182.050909 307.584 
L 197.510649 307.584 
L 212.97039 307.584 
L 228.43013 307.584 
L 243.88987 307.584 
L 259.34961 307.584 
L 274.809351 307.584 
L 290.269091 307.584 
L 305.728831 307.584 
L 321.188571 307.584 
L 336.648312 307.584 
L 352.108052 307.584 
L 367.567792 307.584 
L 383.027532 307.584 
L 398.487273 307.584 
L 398.487273 294.805513 
L 398.487273 294.805513 
L 383.027532 303.324504 
L 367.567792 303.324504 
L 352.108052 275.637782 
L 336.648312 303.324504 
L 321.188571 303.324504 
L 305.728831 303.324504 
L 290.269091 303.324504 
L 274.809351 305.454252 
L 259.34961 254.340303 
L 243.88987 277.767529 
L 228.43013 243.691563 
L 212.97039 294.805513 
L 197.510649 282.027025 
L 182.050909 277.767529 
L 166.591169 239.432067 
L 151.131429 288.416269 
L 135.671688 252.210555 
L 120.211948 162.761143 
L 104.752208 96.738958 
L 89.292468 94.60921 
L 73.832727 94.60921 
z
" style="fill:#1f77b4;"/>
   </g>
   <g id="PolyCollection_2">
    <path clip-path="url(#pa40a009b1b)" d="M 73.832727 94.60921 
L 73.832727 94.60921 
L 89.292468 94.60921 
L 104.752208 96.738958 
L 120.211948 162.761143 
L 135.671688 252.210555 
L 151.131429 288.416269 
L 166.591169 239.432067 
L 182.050909 277.767529 
L 197.510649 282.027025 
L 212.97039 294.805513 
L 228.43013 243.691563 
L 243.88987 277.767529 
L 259.34961 254.340303 
L 274.809351 305.454252 
L 290.269091 303.324504 
L 305.728831 303.324504 
L 321.188571 303.324504 
L 336.648312 303.324504 
L 352.108052 275.637782 
L 367.567792 303.324504 
L 383.027532 303.324504 
L 398.487273 294.805513 
L 398.487273 290.546017 
L 398.487273 290.546017 
L 383.027532 299.065008 
L 367.567792 299.065008 
L 352.108052 271.378286 
L 336.648312 299.065008 
L 321.188571 299.065008 
L 305.728831 299.065008 
L 290.269091 299.065008 
L 274.809351 301.194756 
L 259.34961 250.080807 
L 243.88987 273.508034 
L 228.43013 239.432067 
L 212.97039 290.546017 
L 197.510649 277.767529 
L 182.050909 271.378286 
L 166.591169 235.172571 
L 151.131429 282.027025 
L 135.671688 241.561815 
L 120.211948 154.242151 
L 104.752208 94.60921 
L 89.292468 94.60921 
L 73.832727 94.60921 
z
" style="fill:#ff7f0e;"/>
   </g>
   <g id="PolyCollection_3">
    <path clip-path="url(#pa40a009b1b)" d="M 73.832727 94.60921 
L 73.832727 94.60921 
L 89.292468 94.60921 
L 104.752208 94.60921 
L 120.211948 154.242151 
L 135.671688 241.561815 
L 151.131429 282.027025 
L 166.591169 235.172571 
L 182.050909 271.378286 
L 197.510649 277.767529 
L 212.97039 290.546017 
L 228.43013 239.432067 
L 243.88987 273.508034 
L 259.34961 250.080807 
L 274.809351 301.194756 
L 290.269091 299.065008 
L 305.728831 299.065008 
L 321.188571 299.065008 
L 336.648312 299.065008 
L 352.108052 271.378286 
L 367.567792 299.065008 
L 383.027532 299.065008 
L 398.487273 290.546017 
L 398.487273 256.47005 
L 398.487273 256.47005 
L 383.027532 290.546017 
L 367.567792 252.210555 
L 352.108052 258.599798 
L 336.648312 275.637782 
L 321.188571 247.951059 
L 305.728831 267.11879 
L 290.269091 254.340303 
L 274.809351 247.951059 
L 259.34961 226.65358 
L 243.88987 213.875092 
L 228.43013 220.264336 
L 212.97039 241.561815 
L 197.510649 247.951059 
L 182.050909 207.485849 
L 166.591169 192.577613 
L 151.131429 235.172571 
L 135.671688 196.837109 
L 120.211948 147.852908 
L 104.752208 94.60921 
L 89.292468 94.60921 
L 73.832727 94.60921 
z
" style="fill:#2ca02c;"/>
   </g>
   <g id="PolyCollection_4">
    <path clip-path="url(#pa40a009b1b)" d="M 73.832727 94.60921 
L 73.832727 94.60921 
L 89.292468 94.60921 
L 104.752208 94.60921 
L 120.211948 147.852908 
L 135.671688 196.837109 
L 151.131429 235.172571 
L 166.591169 192.577613 
L 182.050909 207.485849 
L 197.510649 247.951059 
L 212.97039 241.561815 
L 228.43013 220.264336 
L 243.88987 213.875092 
L 259.34961 226.65358 
L 274.809351 247.951059 
L 290.269091 254.340303 
L 305.728831 267.11879 
L 321.188571 247.951059 
L 336.648312 275.637782 
L 352.108052 258.599798 
L 367.567792 252.210555 
L 383.027532 290.546017 
L 398.487273 256.47005 
L 398.487273 252.210555 
L 398.487273 252.210555 
L 383.027532 286.286521 
L 367.567792 247.951059 
L 352.108052 254.340303 
L 336.648312 271.378286 
L 321.188571 237.302319 
L 305.728831 245.821311 
L 290.269091 203.226353 
L 274.809351 228.783328 
L 259.34961 218.134588 
L 243.88987 196.837109 
L 228.43013 213.875092 
L 212.97039 237.302319 
L 197.510649 241.561815 
L 182.050909 198.966857 
L 166.591169 186.18837 
L 151.131429 226.65358 
L 135.671688 184.058622 
L 120.211948 139.333916 
L 104.752208 94.60921 
L 89.292468 94.60921 
L 73.832727 94.60921 
z
" style="fill:#d62728;"/>
   </g>
   <g id="PolyCollection_5">
    <path clip-path="url(#pa40a009b1b)" d="M 73.832727 94.60921 
L 73.832727 94.60921 
L 89.292468 94.60921 
L 104.752208 94.60921 
L 120.211948 139.333916 
L 135.671688 184.058622 
L 151.131429 226.65358 
L 166.591169 186.18837 
L 182.050909 198.966857 
L 197.510649 241.561815 
L 212.97039 237.302319 
L 228.43013 213.875092 
L 243.88987 196.837109 
L 259.34961 218.134588 
L 274.809351 228.783328 
L 290.269091 203.226353 
L 305.728831 245.821311 
L 321.188571 237.302319 
L 336.648312 271.378286 
L 352.108052 254.340303 
L 367.567792 247.951059 
L 383.027532 286.286521 
L 398.487273 252.210555 
L 398.487273 247.951059 
L 398.487273 247.951059 
L 383.027532 282.027025 
L 367.567792 243.691563 
L 352.108052 250.080807 
L 336.648312 267.11879 
L 321.188571 233.042824 
L 305.728831 241.561815 
L 290.269091 198.966857 
L 274.809351 224.523832 
L 259.34961 213.875092 
L 243.88987 192.577613 
L 228.43013 209.615597 
L 212.97039 233.042824 
L 197.510649 237.302319 
L 182.050909 194.707361 
L 166.591169 181.928874 
L 151.131429 224.523832 
L 135.671688 179.799126 
L 120.211948 130.814924 
L 104.752208 94.60921 
L 89.292468 94.60921 
L 73.832727 94.60921 
z
" style="fill:#9467bd;"/>
   </g>
   <g id="PolyCollection_6">
    <path clip-path="url(#pa40a009b1b)" d="M 73.832727 94.60921 
L 73.832727 94.60921 
L 89.292468 94.60921 
L 104.752208 94.60921 
L 120.211948 130.814924 
L 135.671688 179.799126 
L 151.131429 224.523832 
L 166.591169 181.928874 
L 182.050909 194.707361 
L 197.510649 237.302319 
L 212.97039 233.042824 
L 228.43013 209.615597 
L 243.88987 192.577613 
L 259.34961 213.875092 
L 274.809351 224.523832 
L 290.269091 198.966857 
L 305.728831 241.561815 
L 321.188571 233.042824 
L 336.648312 267.11879 
L 352.108052 250.080807 
L 367.567792 243.691563 
L 383.027532 282.027025 
L 398.487273 247.951059 
L 398.487273 243.691563 
L 398.487273 243.691563 
L 383.027532 277.767529 
L 367.567792 239.432067 
L 352.108052 245.821311 
L 336.648312 262.859294 
L 321.188571 228.783328 
L 305.728831 237.302319 
L 290.269091 194.707361 
L 274.809351 220.264336 
L 259.34961 209.615597 
L 243.88987 188.318118 
L 228.43013 205.356101 
L 212.97039 226.65358 
L 197.510649 233.042824 
L 182.050909 190.447866 
L 166.591169 175.53963 
L 151.131429 207.485849 
L 135.671688 162.761143 
L 120.211948 126.555429 
L 104.752208 94.60921 
L 89.292468 94.60921 
L 73.832727 94.60921 
z
" style="fill:#8c564b;"/>
   </g>
   <g id="PolyCollection_7">
    <path clip-path="url(#pa40a009b1b)" d="M 73.832727 94.60921 
L 73.832727 94.60921 
L 89.292468 94.60921 
L 104.752208 94.60921 
L 120.211948 126.555429 
L 135.671688 162.761143 
L 151.131429 207.485849 
L 166.591169 175.53963 
L 182.050909 190.447866 
L 197.510649 233.042824 
L 212.97039 226.65358 
L 228.43013 205.356101 
L 243.88987 188.318118 
L 259.34961 209.615597 
L 274.809351 220.264336 
L 290.269091 194.707361 
L 305.728831 237.302319 
L 321.188571 228.783328 
L 336.648312 262.859294 
L 352.108052 245.821311 
L 367.567792 239.432067 
L 383.027532 277.767529 
L 398.487273 243.691563 
L 398.487273 239.432067 
L 398.487273 239.432067 
L 383.027532 273.508034 
L 367.567792 235.172571 
L 352.108052 241.561815 
L 336.648312 258.599798 
L 321.188571 224.523832 
L 305.728831 233.042824 
L 290.269091 190.447866 
L 274.809351 216.00484 
L 259.34961 205.356101 
L 243.88987 184.058622 
L 228.43013 201.096605 
L 212.97039 222.394084 
L 197.510649 226.65358 
L 182.050909 186.18837 
L 166.591169 171.280134 
L 151.131429 201.096605 
L 135.671688 154.242151 
L 120.211948 120.166185 
L 104.752208 94.60921 
L 89.292468 94.60921 
L 73.832727 94.60921 
z
" style="fill:#e377c2;"/>
   </g>
   <g id="PolyCollection_8">
    <path clip-path="url(#pa40a009b1b)" d="M 73.832727 94.60921 
L 73.832727 94.60921 
L 89.292468 94.60921 
L 104.752208 94.60921 
L 120.211948 120.166185 
L 135.671688 154.242151 
L 151.131429 201.096605 
L 166.591169 171.280134 
L 182.050909 186.18837 
L 197.510649 226.65358 
L 212.97039 222.394084 
L 228.43013 201.096605 
L 243.88987 184.058622 
L 259.34961 205.356101 
L 274.809351 216.00484 
L 290.269091 190.447866 
L 305.728831 233.042824 
L 321.188571 224.523832 
L 336.648312 258.599798 
L 352.108052 241.561815 
L 367.567792 235.172571 
L 383.027532 273.508034 
L 398.487273 239.432067 
L 398.487273 235.172571 
L 398.487273 235.172571 
L 383.027532 269.248538 
L 367.567792 230.913076 
L 352.108052 237.302319 
L 336.648312 254.340303 
L 321.188571 220.264336 
L 305.728831 228.783328 
L 290.269091 186.18837 
L 274.809351 211.745345 
L 259.34961 201.096605 
L 243.88987 179.799126 
L 228.43013 196.837109 
L 212.97039 216.00484 
L 197.510649 222.394084 
L 182.050909 179.799126 
L 166.591169 167.020639 
L 151.131429 194.707361 
L 135.671688 145.72316 
L 120.211948 118.036437 
L 104.752208 94.60921 
L 89.292468 94.60921 
L 73.832727 94.60921 
z
" style="fill:#7f7f7f;"/>
   </g>
   <g id="PolyCollection_9">
    <path clip-path="url(#pa40a009b1b)" d="M 73.832727 94.60921 
L 73.832727 94.60921 
L 89.292468 94.60921 
L 104.752208 94.60921 
L 120.211948 118.036437 
L 135.671688 145.72316 
L 151.131429 194.707361 
L 166.591169 167.020639 
L 182.050909 179.799126 
L 197.510649 222.394084 
L 212.97039 216.00484 
L 228.43013 196.837109 
L 243.88987 179.799126 
L 259.34961 201.096605 
L 274.809351 211.745345 
L 290.269091 186.18837 
L 305.728831 228.783328 
L 321.188571 220.264336 
L 336.648312 254.340303 
L 352.108052 237.302319 
L 367.567792 230.913076 
L 383.027532 269.248538 
L 398.487273 235.172571 
L 398.487273 230.913076 
L 398.487273 230.913076 
L 383.027532 264.989042 
L 367.567792 228.783328 
L 352.108052 233.042824 
L 336.648312 250.080807 
L 321.188571 216.00484 
L 305.728831 224.523832 
L 290.269091 181.928874 
L 274.809351 207.485849 
L 259.34961 196.837109 
L 243.88987 175.53963 
L 228.43013 192.577613 
L 212.97039 211.745345 
L 197.510649 218.134588 
L 182.050909 173.409882 
L 166.591169 162.761143 
L 151.131429 188.318118 
L 135.671688 137.204168 
L 120.211948 115.906689 
L 104.752208 94.60921 
L 89.292468 94.60921 
L 73.832727 94.60921 
z
" style="fill:#bcbd22;"/>
   </g>
   <g id="PolyCollection_10">
    <path clip-path="url(#pa40a009b1b)" d="M 73.832727 94.60921 
L 73.832727 94.60921 
L 89.292468 94.60921 
L 104.752208 94.60921 
L 120.211948 115.906689 
L 135.671688 137.204168 
L 151.131429 188.318118 
L 166.591169 162.761143 
L 182.050909 173.409882 
L 197.510649 218.134588 
L 212.97039 211.745345 
L 228.43013 192.577613 
L 243.88987 175.53963 
L 259.34961 196.837109 
L 274.809351 207.485849 
L 290.269091 181.928874 
L 305.728831 224.523832 
L 321.188571 216.00484 
L 336.648312 250.080807 
L 352.108052 233.042824 
L 367.567792 228.783328 
L 383.027532 264.989042 
L 398.487273 230.913076 
L 398.487273 226.65358 
L 398.487273 226.65358 
L 383.027532 260.729546 
L 367.567792 224.523832 
L 352.108052 228.783328 
L 336.648312 245.821311 
L 321.188571 211.745345 
L 305.728831 220.264336 
L 290.269091 177.669378 
L 274.809351 203.226353 
L 259.34961 192.577613 
L 243.88987 171.280134 
L 228.43013 188.318118 
L 212.97039 207.485849 
L 197.510649 213.875092 
L 182.050909 169.150387 
L 166.591169 158.501647 
L 151.131429 184.058622 
L 135.671688 126.555429 
L 120.211948 103.128202 
L 104.752208 94.60921 
L 89.292468 94.60921 
L 73.832727 94.60921 
z
" style="fill:#17becf;"/>
   </g>
   <g id="PolyCollection_11">
    <path clip-path="url(#pa40a009b1b)" d="M 73.832727 94.60921 
L 73.832727 94.60921 
L 89.292468 94.60921 
L 104.752208 94.60921 
L 120.211948 103.128202 
L 135.671688 126.555429 
L 151.131429 184.058622 
L 166.591169 158.501647 
L 182.050909 169.150387 
L 197.510649 213.875092 
L 212.97039 207.485849 
L 228.43013 188.318118 
L 243.88987 171.280134 
L 259.34961 192.577613 
L 274.809351 203.226353 
L 290.269091 177.669378 
L 305.728831 220.264336 
L 321.188571 211.745345 
L 336.648312 245.821311 
L 352.108052 228.783328 
L 367.567792 224.523832 
L 383.027532 260.729546 
L 398.487273 226.65358 
L 398.487273 222.394084 
L 398.487273 222.394084 
L 383.027532 256.47005 
L 367.567792 220.264336 
L 352.108052 224.523832 
L 336.648312 241.561815 
L 321.188571 207.485849 
L 305.728831 216.00484 
L 290.269091 173.409882 
L 274.809351 198.966857 
L 259.34961 188.318118 
L 243.88987 167.020639 
L 228.43013 184.058622 
L 212.97039 203.226353 
L 197.510649 209.615597 
L 182.050909 164.890891 
L 166.591169 152.112403 
L 151.131429 175.53963 
L 135.671688 113.776941 
L 120.211948 98.868706 
L 104.752208 94.60921 
L 89.292468 94.60921 
L 73.832727 94.60921 
z
" style="fill:#1f77b4;"/>
   </g>
   <g id="PolyCollection_12">
    <path clip-path="url(#pa40a009b1b)" d="M 73.832727 94.60921 
L 73.832727 94.60921 
L 89.292468 94.60921 
L 104.752208 94.60921 
L 120.211948 98.868706 
L 135.671688 113.776941 
L 151.131429 175.53963 
L 166.591169 152.112403 
L 182.050909 164.890891 
L 197.510649 209.615597 
L 212.97039 203.226353 
L 228.43013 184.058622 
L 243.88987 167.020639 
L 259.34961 188.318118 
L 274.809351 198.966857 
L 290.269091 173.409882 
L 305.728831 216.00484 
L 321.188571 207.485849 
L 336.648312 241.561815 
L 352.108052 224.523832 
L 367.567792 220.264336 
L 383.027532 256.47005 
L 398.487273 222.394084 
L 398.487273 218.134588 
L 398.487273 218.134588 
L 383.027532 252.210555 
L 367.567792 216.00484 
L 352.108052 220.264336 
L 336.648312 237.302319 
L 321.188571 203.226353 
L 305.728831 211.745345 
L 290.269091 169.150387 
L 274.809351 194.707361 
L 259.34961 184.058622 
L 243.88987 162.761143 
L 228.43013 179.799126 
L 212.97039 198.966857 
L 197.510649 205.356101 
L 182.050909 160.631395 
L 166.591169 149.982655 
L 151.131429 169.150387 
L 135.671688 111.647193 
L 120.211948 94.60921 
L 104.752208 94.60921 
L 89.292468 94.60921 
L 73.832727 94.60921 
z
" style="fill:#ff7f0e;"/>
   </g>
   <g id="PolyCollection_13">
    <path clip-path="url(#pa40a009b1b)" d="M 73.832727 94.60921 
L 73.832727 94.60921 
L 89.292468 94.60921 
L 104.752208 94.60921 
L 120.211948 94.60921 
L 135.671688 111.647193 
L 151.131429 169.150387 
L 166.591169 149.982655 
L 182.050909 160.631395 
L 197.510649 205.356101 
L 212.97039 198.966857 
L 228.43013 179.799126 
L 243.88987 162.761143 
L 259.34961 184.058622 
L 274.809351 194.707361 
L 290.269091 169.150387 
L 305.728831 211.745345 
L 321.188571 203.226353 
L 336.648312 237.302319 
L 352.108052 220.264336 
L 367.567792 216.00484 
L 383.027532 252.210555 
L 398.487273 218.134588 
L 398.487273 213.875092 
L 398.487273 213.875092 
L 383.027532 247.951059 
L 367.567792 211.745345 
L 352.108052 216.00484 
L 336.648312 233.042824 
L 321.188571 198.966857 
L 305.728831 207.485849 
L 290.269091 164.890891 
L 274.809351 190.447866 
L 259.34961 179.799126 
L 243.88987 158.501647 
L 228.43013 175.53963 
L 212.97039 194.707361 
L 197.510649 201.096605 
L 182.050909 154.242151 
L 166.591169 145.72316 
L 151.131429 164.890891 
L 135.671688 105.25795 
L 120.211948 94.60921 
L 104.752208 94.60921 
L 89.292468 94.60921 
L 73.832727 94.60921 
z
" style="fill:#2ca02c;"/>
   </g>
   <g id="PolyCollection_14">
    <path clip-path="url(#pa40a009b1b)" d="M 73.832727 94.60921 
L 73.832727 94.60921 
L 89.292468 94.60921 
L 104.752208 94.60921 
L 120.211948 94.60921 
L 135.671688 105.25795 
L 151.131429 164.890891 
L 166.591169 145.72316 
L 182.050909 154.242151 
L 197.510649 201.096605 
L 212.97039 194.707361 
L 228.43013 175.53963 
L 243.88987 158.501647 
L 259.34961 179.799126 
L 274.809351 190.447866 
L 290.269091 164.890891 
L 305.728831 207.485849 
L 321.188571 198.966857 
L 336.648312 233.042824 
L 352.108052 216.00484 
L 367.567792 211.745345 
L 383.027532 247.951059 
L 398.487273 213.875092 
L 398.487273 209.615597 
L 398.487273 209.615597 
L 383.027532 243.691563 
L 367.567792 207.485849 
L 352.108052 211.745345 
L 336.648312 228.783328 
L 321.188571 194.707361 
L 305.728831 203.226353 
L 290.269091 160.631395 
L 274.809351 186.18837 
L 259.34961 175.53963 
L 243.88987 154.242151 
L 228.43013 171.280134 
L 212.97039 190.447866 
L 197.510649 196.837109 
L 182.050909 147.852908 
L 166.591169 141.463664 
L 151.131429 160.631395 
L 135.671688 98.868706 
L 120.211948 94.60921 
L 104.752208 94.60921 
L 89.292468 94.60921 
L 73.832727 94.60921 
z
" style="fill:#d62728;"/>
   </g>
   <g id="PolyCollection_15">
    <path clip-path="url(#pa40a009b1b)" d="M 73.832727 94.60921 
L 73.832727 94.60921 
L 89.292468 94.60921 
L 104.752208 94.60921 
L 120.211948 94.60921 
L 135.671688 98.868706 
L 151.131429 160.631395 
L 166.591169 141.463664 
L 182.050909 147.852908 
L 197.510649 196.837109 
L 212.97039 190.447866 
L 228.43013 171.280134 
L 243.88987 154.242151 
L 259.34961 175.53963 
L 274.809351 186.18837 
L 290.269091 160.631395 
L 305.728831 203.226353 
L 321.188571 194.707361 
L 336.648312 228.783328 
L 352.108052 211.745345 
L 367.567792 207.485849 
L 383.027532 243.691563 
L 398.487273 209.615597 
L 398.487273 205.356101 
L 398.487273 205.356101 
L 383.027532 239.432067 
L 367.567792 203.226353 
L 352.108052 207.485849 
L 336.648312 224.523832 
L 321.188571 190.447866 
L 305.728831 198.966857 
L 290.269091 156.371899 
L 274.809351 181.928874 
L 259.34961 171.280134 
L 243.88987 149.982655 
L 228.43013 167.020639 
L 212.97039 186.18837 
L 197.510649 192.577613 
L 182.050909 141.463664 
L 166.591169 137.204168 
L 151.131429 154.242151 
L 135.671688 94.60921 
L 120.211948 94.60921 
L 104.752208 94.60921 
L 89.292468 94.60921 
L 73.832727 94.60921 
z
" style="fill:#9467bd;"/>
   </g>
   <g id="PolyCollection_16">
    <path clip-path="url(#pa40a009b1b)" d="M 73.832727 94.60921 
L 73.832727 94.60921 
L 89.292468 94.60921 
L 104.752208 94.60921 
L 120.211948 94.60921 
L 135.671688 94.60921 
L 151.131429 154.242151 
L 166.591169 137.204168 
L 182.050909 141.463664 
L 197.510649 192.577613 
L 212.97039 186.18837 
L 228.43013 167.020639 
L 243.88987 149.982655 
L 259.34961 171.280134 
L 274.809351 181.928874 
L 290.269091 156.371899 
L 305.728831 198.966857 
L 321.188571 190.447866 
L 336.648312 224.523832 
L 352.108052 207.485849 
L 367.567792 203.226353 
L 383.027532 239.432067 
L 398.487273 205.356101 
L 398.487273 201.096605 
L 398.487273 201.096605 
L 383.027532 235.172571 
L 367.567792 198.966857 
L 352.108052 203.226353 
L 336.648312 220.264336 
L 321.188571 186.18837 
L 305.728831 194.707361 
L 290.269091 152.112403 
L 274.809351 177.669378 
L 259.34961 167.020639 
L 243.88987 145.72316 
L 228.43013 162.761143 
L 212.97039 181.928874 
L 197.510649 188.318118 
L 182.050909 137.204168 
L 166.591169 132.944672 
L 151.131429 149.982655 
L 135.671688 94.60921 
L 120.211948 94.60921 
L 104.752208 94.60921 
L 89.292468 94.60921 
L 73.832727 94.60921 
z
" style="fill:#8c564b;"/>
   </g>
   <g id="PolyCollection_17">
    <path clip-path="url(#pa40a009b1b)" d="M 73.832727 94.60921 
L 73.832727 94.60921 
L 89.292468 94.60921 
L 104.752208 94.60921 
L 120.211948 94.60921 
L 135.671688 94.60921 
L 151.131429 149.982655 
L 166.591169 132.944672 
L 182.050909 137.204168 
L 197.510649 188.318118 
L 212.97039 181.928874 
L 228.43013 162.761143 
L 243.88987 145.72316 
L 259.34961 167.020639 
L 274.809351 177.669378 
L 290.269091 152.112403 
L 305.728831 194.707361 
L 321.188571 186.18837 
L 336.648312 220.264336 
L 352.108052 203.226353 
L 367.567792 198.966857 
L 383.027532 235.172571 
L 398.487273 201.096605 
L 398.487273 196.837109 
L 398.487273 196.837109 
L 383.027532 230.913076 
L 367.567792 194.707361 
L 352.108052 198.966857 
L 336.648312 216.00484 
L 321.188571 181.928874 
L 305.728831 190.447866 
L 290.269091 147.852908 
L 274.809351 173.409882 
L 259.34961 162.761143 
L 243.88987 141.463664 
L 228.43013 158.501647 
L 212.97039 177.669378 
L 197.510649 184.058622 
L 182.050909 132.944672 
L 166.591169 128.685176 
L 151.131429 143.593412 
L 135.671688 94.60921 
L 120.211948 94.60921 
L 104.752208 94.60921 
L 89.292468 94.60921 
L 73.832727 94.60921 
z
" style="fill:#e377c2;"/>
   </g>
   <g id="PolyCollection_18">
    <path clip-path="url(#pa40a009b1b)" d="M 73.832727 94.60921 
L 73.832727 94.60921 
L 89.292468 94.60921 
L 104.752208 94.60921 
L 120.211948 94.60921 
L 135.671688 94.60921 
L 151.131429 143.593412 
L 166.591169 128.685176 
L 182.050909 132.944672 
L 197.510649 184.058622 
L 212.97039 177.669378 
L 228.43013 158.501647 
L 243.88987 141.463664 
L 259.34961 162.761143 
L 274.809351 173.409882 
L 290.269091 147.852908 
L 305.728831 190.447866 
L 321.188571 181.928874 
L 336.648312 216.00484 
L 352.108052 198.966857 
L 367.567792 194.707361 
L 383.027532 230.913076 
L 398.487273 196.837109 
L 398.487273 192.577613 
L 398.487273 192.577613 
L 383.027532 226.65358 
L 367.567792 190.447866 
L 352.108052 188.318118 
L 336.648312 211.745345 
L 321.188571 173.409882 
L 305.728831 186.18837 
L 290.269091 139.333916 
L 274.809351 156.371899 
L 259.34961 158.501647 
L 243.88987 135.07442 
L 228.43013 145.72316 
L 212.97039 158.501647 
L 197.510649 179.799126 
L 182.050909 128.685176 
L 166.591169 113.776941 
L 151.131429 120.166185 
L 135.671688 94.60921 
L 120.211948 94.60921 
L 104.752208 94.60921 
L 89.292468 94.60921 
L 73.832727 94.60921 
z
" style="fill:#7f7f7f;"/>
   </g>
   <g id="PolyCollection_19">
    <path clip-path="url(#pa40a009b1b)" d="M 73.832727 94.60921 
L 73.832727 94.60921 
L 89.292468 94.60921 
L 104.752208 94.60921 
L 120.211948 94.60921 
L 135.671688 94.60921 
L 151.131429 120.166185 
L 166.591169 113.776941 
L 182.050909 128.685176 
L 197.510649 179.799126 
L 212.97039 158.501647 
L 228.43013 145.72316 
L 243.88987 135.07442 
L 259.34961 158.501647 
L 274.809351 156.371899 
L 290.269091 139.333916 
L 305.728831 186.18837 
L 321.188571 173.409882 
L 336.648312 211.745345 
L 352.108052 188.318118 
L 367.567792 190.447866 
L 383.027532 226.65358 
L 398.487273 192.577613 
L 398.487273 184.058622 
L 398.487273 184.058622 
L 383.027532 218.134588 
L 367.567792 177.669378 
L 352.108052 175.53963 
L 336.648312 196.837109 
L 321.188571 169.150387 
L 305.728831 181.928874 
L 290.269091 130.814924 
L 274.809351 143.593412 
L 259.34961 130.814924 
L 243.88987 126.555429 
L 228.43013 130.814924 
L 212.97039 135.07442 
L 197.510649 113.776941 
L 182.050909 124.425681 
L 166.591169 109.517445 
L 151.131429 115.906689 
L 135.671688 94.60921 
L 120.211948 94.60921 
L 104.752208 94.60921 
L 89.292468 94.60921 
L 73.832727 94.60921 
z
" style="fill:#bcbd22;"/>
   </g>
   <g id="PolyCollection_20">
    <path clip-path="url(#pa40a009b1b)" d="M 73.832727 94.60921 
L 73.832727 94.60921 
L 89.292468 94.60921 
L 104.752208 94.60921 
L 120.211948 94.60921 
L 135.671688 94.60921 
L 151.131429 115.906689 
L 166.591169 109.517445 
L 182.050909 124.425681 
L 197.510649 113.776941 
L 212.97039 135.07442 
L 228.43013 130.814924 
L 243.88987 126.555429 
L 259.34961 130.814924 
L 274.809351 143.593412 
L 290.269091 130.814924 
L 305.728831 181.928874 
L 321.188571 169.150387 
L 336.648312 196.837109 
L 352.108052 175.53963 
L 367.567792 177.669378 
L 383.027532 218.134588 
L 398.487273 184.058622 
L 398.487273 179.799126 
L 398.487273 179.799126 
L 383.027532 213.875092 
L 367.567792 173.409882 
L 352.108052 171.280134 
L 336.648312 192.577613 
L 321.188571 164.890891 
L 305.728831 177.669378 
L 290.269091 126.555429 
L 274.809351 139.333916 
L 259.34961 126.555429 
L 243.88987 122.295933 
L 228.43013 126.555429 
L 212.97039 130.814924 
L 197.510649 109.517445 
L 182.050909 118.036437 
L 166.591169 105.25795 
L 151.131429 113.776941 
L 135.671688 94.60921 
L 120.211948 94.60921 
L 104.752208 94.60921 
L 89.292468 94.60921 
L 73.832727 94.60921 
z
" style="fill:#17becf;"/>
   </g>
   <g id="PolyCollection_21">
    <path clip-path="url(#pa40a009b1b)" d="M 73.832727 94.60921 
L 73.832727 94.60921 
L 89.292468 94.60921 
L 104.752208 94.60921 
L 120.211948 94.60921 
L 135.671688 94.60921 
L 151.131429 113.776941 
L 166.591169 105.25795 
L 182.050909 118.036437 
L 197.510649 109.517445 
L 212.97039 130.814924 
L 228.43013 126.555429 
L 243.88987 122.295933 
L 259.34961 126.555429 
L 274.809351 139.333916 
L 290.269091 126.555429 
L 305.728831 177.669378 
L 321.188571 164.890891 
L 336.648312 192.577613 
L 352.108052 171.280134 
L 367.567792 173.409882 
L 383.027532 213.875092 
L 398.487273 179.799126 
L 398.487273 175.53963 
L 398.487273 175.53963 
L 383.027532 209.615597 
L 367.567792 167.020639 
L 352.108052 145.72316 
L 336.648312 135.07442 
L 321.188571 158.501647 
L 305.728831 173.409882 
L 290.269091 122.295933 
L 274.809351 132.944672 
L 259.34961 113.776941 
L 243.88987 118.036437 
L 228.43013 120.166185 
L 212.97039 126.555429 
L 197.510649 103.128202 
L 182.050909 105.25795 
L 166.591169 98.868706 
L 151.131429 105.25795 
L 135.671688 94.60921 
L 120.211948 94.60921 
L 104.752208 94.60921 
L 89.292468 94.60921 
L 73.832727 94.60921 
z
" style="fill:#1f77b4;"/>
   </g>
   <g id="PolyCollection_22">
    <path clip-path="url(#pa40a009b1b)" d="M 73.832727 94.60921 
L 73.832727 94.60921 
L 89.292468 94.60921 
L 104.752208 94.60921 
L 120.211948 94.60921 
L 135.671688 94.60921 
L 151.131429 105.25795 
L 166.591169 98.868706 
L 182.050909 105.25795 
L 197.510649 103.128202 
L 212.97039 126.555429 
L 228.43013 120.166185 
L 243.88987 118.036437 
L 259.34961 113.776941 
L 274.809351 132.944672 
L 290.269091 122.295933 
L 305.728831 173.409882 
L 321.188571 158.501647 
L 336.648312 135.07442 
L 352.108052 145.72316 
L 367.567792 167.020639 
L 383.027532 209.615597 
L 398.487273 175.53963 
L 398.487273 171.280134 
L 398.487273 171.280134 
L 383.027532 205.356101 
L 367.567792 162.761143 
L 352.108052 141.463664 
L 336.648312 130.814924 
L 321.188571 154.242151 
L 305.728831 169.150387 
L 290.269091 118.036437 
L 274.809351 126.555429 
L 259.34961 109.517445 
L 243.88987 113.776941 
L 228.43013 115.906689 
L 212.97039 122.295933 
L 197.510649 98.868706 
L 182.050909 98.868706 
L 166.591169 94.60921 
L 151.131429 100.998454 
L 135.671688 94.60921 
L 120.211948 94.60921 
L 104.752208 94.60921 
L 89.292468 94.60921 
L 73.832727 94.60921 
z
" style="fill:#ff7f0e;"/>
   </g>
   <g id="PolyCollection_23">
    <path clip-path="url(#pa40a009b1b)" d="M 73.832727 94.60921 
L 73.832727 94.60921 
L 89.292468 94.60921 
L 104.752208 94.60921 
L 120.211948 94.60921 
L 135.671688 94.60921 
L 151.131429 100.998454 
L 166.591169 94.60921 
L 182.050909 98.868706 
L 197.510649 98.868706 
L 212.97039 122.295933 
L 228.43013 115.906689 
L 243.88987 113.776941 
L 259.34961 109.517445 
L 274.809351 126.555429 
L 290.269091 118.036437 
L 305.728831 169.150387 
L 321.188571 154.242151 
L 336.648312 130.814924 
L 352.108052 141.463664 
L 367.567792 162.761143 
L 383.027532 205.356101 
L 398.487273 171.280134 
L 398.487273 167.020639 
L 398.487273 167.020639 
L 383.027532 201.096605 
L 367.567792 158.501647 
L 352.108052 137.204168 
L 336.648312 126.555429 
L 321.188571 149.982655 
L 305.728831 164.890891 
L 290.269091 113.776941 
L 274.809351 120.166185 
L 259.34961 105.25795 
L 243.88987 109.517445 
L 228.43013 109.517445 
L 212.97039 118.036437 
L 197.510649 94.60921 
L 182.050909 94.60921 
L 166.591169 88.219966 
L 151.131429 92.479462 
L 135.671688 94.60921 
L 120.211948 94.60921 
L 104.752208 94.60921 
L 89.292468 94.60921 
L 73.832727 94.60921 
z
" style="fill:#2ca02c;"/>
   </g>
   <g id="PolyCollection_24">
    <path clip-path="url(#pa40a009b1b)" d="M 73.832727 94.60921 
L 73.832727 94.60921 
L 89.292468 94.60921 
L 104.752208 94.60921 
L 120.211948 94.60921 
L 135.671688 94.60921 
L 151.131429 92.479462 
L 166.591169 88.219966 
L 182.050909 94.60921 
L 197.510649 94.60921 
L 212.97039 118.036437 
L 228.43013 109.517445 
L 243.88987 109.517445 
L 259.34961 105.25795 
L 274.809351 120.166185 
L 290.269091 113.776941 
L 305.728831 164.890891 
L 321.188571 149.982655 
L 336.648312 126.555429 
L 352.108052 137.204168 
L 367.567792 158.501647 
L 383.027532 201.096605 
L 398.487273 167.020639 
L 398.487273 162.761143 
L 398.487273 162.761143 
L 383.027532 196.837109 
L 367.567792 154.242151 
L 352.108052 132.944672 
L 336.648312 122.295933 
L 321.188571 145.72316 
L 305.728831 160.631395 
L 290.269091 109.517445 
L 274.809351 113.776941 
L 259.34961 100.998454 
L 243.88987 105.25795 
L 228.43013 105.25795 
L 212.97039 113.776941 
L 197.510649 90.349714 
L 182.050909 90.349714 
L 166.591169 83.960471 
L 151.131429 90.349714 
L 135.671688 94.60921 
L 120.211948 94.60921 
L 104.752208 94.60921 
L 89.292468 94.60921 
L 73.832727 94.60921 
z
" style="fill:#d62728;"/>
   </g>
   <g id="PolyCollection_25">
    <path clip-path="url(#pa40a009b1b)" d="M 73.832727 94.60921 
L 73.832727 94.60921 
L 89.292468 94.60921 
L 104.752208 94.60921 
L 120.211948 94.60921 
L 135.671688 94.60921 
L 151.131429 90.349714 
L 166.591169 83.960471 
L 182.050909 90.349714 
L 197.510649 90.349714 
L 212.97039 113.776941 
L 228.43013 105.25795 
L 243.88987 105.25795 
L 259.34961 100.998454 
L 274.809351 113.776941 
L 290.269091 109.517445 
L 305.728831 160.631395 
L 321.188571 145.72316 
L 336.648312 122.295933 
L 352.108052 132.944672 
L 367.567792 154.242151 
L 383.027532 196.837109 
L 398.487273 162.761143 
L 398.487273 158.501647 
L 398.487273 158.501647 
L 383.027532 192.577613 
L 367.567792 149.982655 
L 352.108052 122.295933 
L 336.648312 118.036437 
L 321.188571 137.204168 
L 305.728831 145.72316 
L 290.269091 105.25795 
L 274.809351 109.517445 
L 259.34961 96.738958 
L 243.88987 100.998454 
L 228.43013 100.998454 
L 212.97039 109.517445 
L 197.510649 86.090218 
L 182.050909 83.960471 
L 166.591169 83.960471 
L 151.131429 90.349714 
L 135.671688 94.60921 
L 120.211948 94.60921 
L 104.752208 94.60921 
L 89.292468 94.60921 
L 73.832727 94.60921 
z
" style="fill:#9467bd;"/>
   </g>
   <g id="PolyCollection_26">
    <path clip-path="url(#pa40a009b1b)" d="M 73.832727 94.60921 
L 73.832727 94.60921 
L 89.292468 94.60921 
L 104.752208 94.60921 
L 120.211948 94.60921 
L 135.671688 94.60921 
L 151.131429 90.349714 
L 166.591169 83.960471 
L 182.050909 83.960471 
L 197.510649 86.090218 
L 212.97039 109.517445 
L 228.43013 100.998454 
L 243.88987 100.998454 
L 259.34961 96.738958 
L 274.809351 109.517445 
L 290.269091 105.25795 
L 305.728831 145.72316 
L 321.188571 137.204168 
L 336.648312 118.036437 
L 352.108052 122.295933 
L 367.567792 149.982655 
L 383.027532 192.577613 
L 398.487273 158.501647 
L 398.487273 154.242151 
L 398.487273 154.242151 
L 383.027532 188.318118 
L 367.567792 145.72316 
L 352.108052 118.036437 
L 336.648312 113.776941 
L 321.188571 132.944672 
L 305.728831 141.463664 
L 290.269091 100.998454 
L 274.809351 105.25795 
L 259.34961 92.479462 
L 243.88987 96.738958 
L 228.43013 96.738958 
L 212.97039 105.25795 
L 197.510649 83.960471 
L 182.050909 83.960471 
L 166.591169 83.960471 
L 151.131429 90.349714 
L 135.671688 94.60921 
L 120.211948 94.60921 
L 104.752208 94.60921 
L 89.292468 94.60921 
L 73.832727 94.60921 
z
" style="fill:#8c564b;"/>
   </g>
   <g id="PolyCollection_27">
    <path clip-path="url(#pa40a009b1b)" d="M 73.832727 94.60921 
L 73.832727 94.60921 
L 89.292468 94.60921 
L 104.752208 94.60921 
L 120.211948 94.60921 
L 135.671688 94.60921 
L 151.131429 90.349714 
L 166.591169 83.960471 
L 182.050909 83.960471 
L 197.510649 83.960471 
L 212.97039 105.25795 
L 228.43013 96.738958 
L 243.88987 96.738958 
L 259.34961 92.479462 
L 274.809351 105.25795 
L 290.269091 100.998454 
L 305.728831 141.463664 
L 321.188571 132.944672 
L 336.648312 113.776941 
L 352.108052 118.036437 
L 367.567792 145.72316 
L 383.027532 188.318118 
L 398.487273 154.242151 
L 398.487273 149.982655 
L 398.487273 149.982655 
L 383.027532 184.058622 
L 367.567792 141.463664 
L 352.108052 113.776941 
L 336.648312 109.517445 
L 321.188571 128.685176 
L 305.728831 137.204168 
L 290.269091 96.738958 
L 274.809351 100.998454 
L 259.34961 88.219966 
L 243.88987 92.479462 
L 228.43013 92.479462 
L 212.97039 96.738958 
L 197.510649 83.960471 
L 182.050909 83.960471 
L 166.591169 83.960471 
L 151.131429 90.349714 
L 135.671688 94.60921 
L 120.211948 94.60921 
L 104.752208 94.60921 
L 89.292468 94.60921 
L 73.832727 94.60921 
z
" style="fill:#e377c2;"/>
   </g>
   <g id="PolyCollection_28">
    <path clip-path="url(#pa40a009b1b)" d="M 73.832727 94.60921 
L 73.832727 94.60921 
L 89.292468 94.60921 
L 104.752208 94.60921 
L 120.211948 94.60921 
L 135.671688 94.60921 
L 151.131429 90.349714 
L 166.591169 83.960471 
L 182.050909 83.960471 
L 197.510649 83.960471 
L 212.97039 96.738958 
L 228.43013 92.479462 
L 243.88987 92.479462 
L 259.34961 88.219966 
L 274.809351 100.998454 
L 290.269091 96.738958 
L 305.728831 137.204168 
L 321.188571 128.685176 
L 336.648312 109.517445 
L 352.108052 113.776941 
L 367.567792 141.463664 
L 383.027532 184.058622 
L 398.487273 149.982655 
L 398.487273 145.72316 
L 398.487273 145.72316 
L 383.027532 179.799126 
L 367.567792 137.204168 
L 352.108052 109.517445 
L 336.648312 107.387697 
L 321.188571 111.647193 
L 305.728831 96.738958 
L 290.269091 92.479462 
L 274.809351 96.738958 
L 259.34961 83.960471 
L 243.88987 88.219966 
L 228.43013 88.219966 
L 212.97039 79.700975 
L 197.510649 83.960471 
L 182.050909 83.960471 
L 166.591169 83.960471 
L 151.131429 90.349714 
L 135.671688 94.60921 
L 120.211948 94.60921 
L 104.752208 94.60921 
L 89.292468 94.60921 
L 73.832727 94.60921 
z
" style="fill:#7f7f7f;"/>
   </g>
   <g id="PolyCollection_29">
    <path clip-path="url(#pa40a009b1b)" d="M 73.832727 94.60921 
L 73.832727 94.60921 
L 89.292468 94.60921 
L 104.752208 94.60921 
L 120.211948 94.60921 
L 135.671688 94.60921 
L 151.131429 90.349714 
L 166.591169 83.960471 
L 182.050909 83.960471 
L 197.510649 83.960471 
L 212.97039 79.700975 
L 228.43013 88.219966 
L 243.88987 88.219966 
L 259.34961 83.960471 
L 274.809351 96.738958 
L 290.269091 92.479462 
L 305.728831 96.738958 
L 321.188571 111.647193 
L 336.648312 107.387697 
L 352.108052 109.517445 
L 367.567792 137.204168 
L 383.027532 179.799126 
L 398.487273 145.72316 
L 398.487273 141.463664 
L 398.487273 141.463664 
L 383.027532 175.53963 
L 367.567792 132.944672 
L 352.108052 105.25795 
L 336.648312 103.128202 
L 321.188571 107.387697 
L 305.728831 92.479462 
L 290.269091 88.219966 
L 274.809351 92.479462 
L 259.34961 81.830723 
L 243.88987 83.960471 
L 228.43013 83.960471 
L 212.97039 79.700975 
L 197.510649 83.960471 
L 182.050909 83.960471 
L 166.591169 83.960471 
L 151.131429 90.349714 
L 135.671688 94.60921 
L 120.211948 94.60921 
L 104.752208 94.60921 
L 89.292468 94.60921 
L 73.832727 94.60921 
z
" style="fill:#bcbd22;"/>
   </g>
   <g id="PolyCollection_30">
    <path clip-path="url(#pa40a009b1b)" d="M 73.832727 94.60921 
L 73.832727 94.60921 
L 89.292468 94.60921 
L 104.752208 94.60921 
L 120.211948 94.60921 
L 135.671688 94.60921 
L 151.131429 90.349714 
L 166.591169 83.960471 
L 182.050909 83.960471 
L 197.510649 83.960471 
L 212.97039 79.700975 
L 228.43013 83.960471 
L 243.88987 83.960471 
L 259.34961 81.830723 
L 274.809351 92.479462 
L 290.269091 88.219966 
L 305.728831 92.479462 
L 321.188571 107.387697 
L 336.648312 103.128202 
L 352.108052 105.25795 
L 367.567792 132.944672 
L 383.027532 175.53963 
L 398.487273 141.463664 
L 398.487273 137.204168 
L 398.487273 137.204168 
L 383.027532 171.280134 
L 367.567792 128.685176 
L 352.108052 100.998454 
L 336.648312 98.868706 
L 321.188571 103.128202 
L 305.728831 88.219966 
L 290.269091 83.960471 
L 274.809351 88.219966 
L 259.34961 77.571227 
L 243.88987 81.830723 
L 228.43013 83.960471 
L 212.97039 79.700975 
L 197.510649 83.960471 
L 182.050909 83.960471 
L 166.591169 83.960471 
L 151.131429 90.349714 
L 135.671688 94.60921 
L 120.211948 94.60921 
L 104.752208 94.60921 
L 89.292468 94.60921 
L 73.832727 94.60921 
z
" style="fill:#17becf;"/>
   </g>
   <g id="PolyCollection_31">
    <path clip-path="url(#pa40a009b1b)" d="M 73.832727 94.60921 
L 73.832727 94.60921 
L 89.292468 94.60921 
L 104.752208 94.60921 
L 120.211948 94.60921 
L 135.671688 94.60921 
L 151.131429 90.349714 
L 166.591169 83.960471 
L 182.050909 83.960471 
L 197.510649 83.960471 
L 212.97039 79.700975 
L 228.43013 83.960471 
L 243.88987 81.830723 
L 259.34961 77.571227 
L 274.809351 88.219966 
L 290.269091 83.960471 
L 305.728831 88.219966 
L 321.188571 103.128202 
L 336.648312 98.868706 
L 352.108052 100.998454 
L 367.567792 128.685176 
L 383.027532 171.280134 
L 398.487273 137.204168 
L 398.487273 132.944672 
L 398.487273 132.944672 
L 383.027532 167.020639 
L 367.567792 124.425681 
L 352.108052 96.738958 
L 336.648312 94.60921 
L 321.188571 98.868706 
L 305.728831 83.960471 
L 290.269091 79.700975 
L 274.809351 83.960471 
L 259.34961 75.441479 
L 243.88987 81.830723 
L 228.43013 83.960471 
L 212.97039 79.700975 
L 197.510649 83.960471 
L 182.050909 83.960471 
L 166.591169 83.960471 
L 151.131429 90.349714 
L 135.671688 94.60921 
L 120.211948 94.60921 
L 104.752208 94.60921 
L 89.292468 94.60921 
L 73.832727 94.60921 
z
" style="fill:#1f77b4;"/>
   </g>
   <g id="PolyCollection_32">
    <path clip-path="url(#pa40a009b1b)" d="M 73.832727 94.60921 
L 73.832727 94.60921 
L 89.292468 94.60921 
L 104.752208 94.60921 
L 120.211948 94.60921 
L 135.671688 94.60921 
L 151.131429 90.349714 
L 166.591169 83.960471 
L 182.050909 83.960471 
L 197.510649 83.960471 
L 212.97039 79.700975 
L 228.43013 83.960471 
L 243.88987 81.830723 
L 259.34961 75.441479 
L 274.809351 83.960471 
L 290.269091 79.700975 
L 305.728831 83.960471 
L 321.188571 98.868706 
L 336.648312 94.60921 
L 352.108052 96.738958 
L 367.567792 124.425681 
L 383.027532 167.020639 
L 398.487273 132.944672 
L 398.487273 128.685176 
L 398.487273 128.685176 
L 383.027532 162.761143 
L 367.567792 120.166185 
L 352.108052 92.479462 
L 336.648312 90.349714 
L 321.188571 94.60921 
L 305.728831 79.700975 
L 290.269091 75.441479 
L 274.809351 81.830723 
L 259.34961 75.441479 
L 243.88987 81.830723 
L 228.43013 83.960471 
L 212.97039 79.700975 
L 197.510649 83.960471 
L 182.050909 83.960471 
L 166.591169 83.960471 
L 151.131429 90.349714 
L 135.671688 94.60921 
L 120.211948 94.60921 
L 104.752208 94.60921 
L 89.292468 94.60921 
L 73.832727 94.60921 
z
" style="fill:#ff7f0e;"/>
   </g>
   <g id="PolyCollection_33">
    <path clip-path="url(#pa40a009b1b)" d="M 73.832727 94.60921 
L 73.832727 94.60921 
L 89.292468 94.60921 
L 104.752208 94.60921 
L 120.211948 94.60921 
L 135.671688 94.60921 
L 151.131429 90.349714 
L 166.591169 83.960471 
L 182.050909 83.960471 
L 197.510649 83.960471 
L 212.97039 79.700975 
L 228.43013 83.960471 
L 243.88987 81.830723 
L 259.34961 75.441479 
L 274.809351 81.830723 
L 290.269091 75.441479 
L 305.728831 79.700975 
L 321.188571 94.60921 
L 336.648312 90.349714 
L 352.108052 92.479462 
L 367.567792 120.166185 
L 383.027532 162.761143 
L 398.487273 128.685176 
L 398.487273 124.425681 
L 398.487273 124.425681 
L 383.027532 158.501647 
L 367.567792 115.906689 
L 352.108052 88.219966 
L 336.648312 86.090218 
L 321.188571 90.349714 
L 305.728831 75.441479 
L 290.269091 71.181983 
L 274.809351 77.571227 
L 259.34961 75.441479 
L 243.88987 81.830723 
L 228.43013 83.960471 
L 212.97039 79.700975 
L 197.510649 83.960471 
L 182.050909 83.960471 
L 166.591169 83.960471 
L 151.131429 90.349714 
L 135.671688 94.60921 
L 120.211948 94.60921 
L 104.752208 94.60921 
L 89.292468 94.60921 
L 73.832727 94.60921 
z
" style="fill:#2ca02c;"/>
   </g>
   <g id="PolyCollection_34">
    <path clip-path="url(#pa40a009b1b)" d="M 73.832727 94.60921 
L 73.832727 94.60921 
L 89.292468 94.60921 
L 104.752208 94.60921 
L 120.211948 94.60921 
L 135.671688 94.60921 
L 151.131429 90.349714 
L 166.591169 83.960471 
L 182.050909 83.960471 
L 197.510649 83.960471 
L 212.97039 79.700975 
L 228.43013 83.960471 
L 243.88987 81.830723 
L 259.34961 75.441479 
L 274.809351 77.571227 
L 290.269091 71.181983 
L 305.728831 75.441479 
L 321.188571 90.349714 
L 336.648312 86.090218 
L 352.108052 88.219966 
L 367.567792 115.906689 
L 383.027532 158.501647 
L 398.487273 124.425681 
L 398.487273 105.25795 
L 398.487273 105.25795 
L 383.027532 107.387697 
L 367.567792 103.128202 
L 352.108052 75.441479 
L 336.648312 75.441479 
L 321.188571 88.219966 
L 305.728831 75.441479 
L 290.269091 71.181983 
L 274.809351 77.571227 
L 259.34961 75.441479 
L 243.88987 81.830723 
L 228.43013 83.960471 
L 212.97039 79.700975 
L 197.510649 83.960471 
L 182.050909 83.960471 
L 166.591169 83.960471 
L 151.131429 90.349714 
L 135.671688 94.60921 
L 120.211948 94.60921 
L 104.752208 94.60921 
L 89.292468 94.60921 
L 73.832727 94.60921 
z
" style="fill:#d62728;"/>
   </g>
   <g id="PolyCollection_35">
    <path clip-path="url(#pa40a009b1b)" d="M 73.832727 94.60921 
L 73.832727 94.60921 
L 89.292468 94.60921 
L 104.752208 94.60921 
L 120.211948 94.60921 
L 135.671688 94.60921 
L 151.131429 90.349714 
L 166.591169 83.960471 
L 182.050909 83.960471 
L 197.510649 83.960471 
L 212.97039 79.700975 
L 228.43013 83.960471 
L 243.88987 81.830723 
L 259.34961 75.441479 
L 274.809351 77.571227 
L 290.269091 71.181983 
L 305.728831 75.441479 
L 321.188571 88.219966 
L 336.648312 75.441479 
L 352.108052 75.441479 
L 367.567792 103.128202 
L 383.027532 107.387697 
L 398.487273 105.25795 
L 398.487273 100.998454 
L 398.487273 100.998454 
L 383.027532 103.128202 
L 367.567792 98.868706 
L 352.108052 71.181983 
L 336.648312 69.052235 
L 321.188571 71.181983 
L 305.728831 75.441479 
L 290.269091 71.181983 
L 274.809351 77.571227 
L 259.34961 75.441479 
L 243.88987 81.830723 
L 228.43013 83.960471 
L 212.97039 79.700975 
L 197.510649 83.960471 
L 182.050909 83.960471 
L 166.591169 83.960471 
L 151.131429 90.349714 
L 135.671688 94.60921 
L 120.211948 94.60921 
L 104.752208 94.60921 
L 89.292468 94.60921 
L 73.832727 94.60921 
z
" style="fill:#9467bd;"/>
   </g>
   <g id="PolyCollection_36">
    <path clip-path="url(#pa40a009b1b)" d="M 73.832727 94.60921 
L 73.832727 94.60921 
L 89.292468 94.60921 
L 104.752208 94.60921 
L 120.211948 94.60921 
L 135.671688 94.60921 
L 151.131429 90.349714 
L 166.591169 83.960471 
L 182.050909 83.960471 
L 197.510649 83.960471 
L 212.97039 79.700975 
L 228.43013 83.960471 
L 243.88987 81.830723 
L 259.34961 75.441479 
L 274.809351 77.571227 
L 290.269091 71.181983 
L 305.728831 75.441479 
L 321.188571 71.181983 
L 336.648312 69.052235 
L 352.108052 71.181983 
L 367.567792 98.868706 
L 383.027532 103.128202 
L 398.487273 100.998454 
L 398.487273 96.738958 
L 398.487273 96.738958 
L 383.027532 98.868706 
L 367.567792 94.60921 
L 352.108052 66.922487 
L 336.648312 66.922487 
L 321.188571 71.181983 
L 305.728831 75.441479 
L 290.269091 71.181983 
L 274.809351 77.571227 
L 259.34961 75.441479 
L 243.88987 81.830723 
L 228.43013 83.960471 
L 212.97039 79.700975 
L 197.510649 83.960471 
L 182.050909 83.960471 
L 166.591169 83.960471 
L 151.131429 90.349714 
L 135.671688 94.60921 
L 120.211948 94.60921 
L 104.752208 94.60921 
L 89.292468 94.60921 
L 73.832727 94.60921 
z
" style="fill:#8c564b;"/>
   </g>
   <g id="PolyCollection_37">
    <path clip-path="url(#pa40a009b1b)" d="M 73.832727 94.60921 
L 73.832727 94.60921 
L 89.292468 94.60921 
L 104.752208 94.60921 
L 120.211948 94.60921 
L 135.671688 94.60921 
L 151.131429 90.349714 
L 166.591169 83.960471 
L 182.050909 83.960471 
L 197.510649 83.960471 
L 212.97039 79.700975 
L 228.43013 83.960471 
L 243.88987 81.830723 
L 259.34961 75.441479 
L 274.809351 77.571227 
L 290.269091 71.181983 
L 305.728831 75.441479 
L 321.188571 71.181983 
L 336.648312 66.922487 
L 352.108052 66.922487 
L 367.567792 94.60921 
L 383.027532 98.868706 
L 398.487273 96.738958 
L 398.487273 92.479462 
L 398.487273 92.479462 
L 383.027532 88.219966 
L 367.567792 71.181983 
L 352.108052 66.922487 
L 336.648312 66.922487 
L 321.188571 71.181983 
L 305.728831 75.441479 
L 290.269091 71.181983 
L 274.809351 77.571227 
L 259.34961 75.441479 
L 243.88987 81.830723 
L 228.43013 83.960471 
L 212.97039 79.700975 
L 197.510649 83.960471 
L 182.050909 83.960471 
L 166.591169 83.960471 
L 151.131429 90.349714 
L 135.671688 94.60921 
L 120.211948 94.60921 
L 104.752208 94.60921 
L 89.292468 94.60921 
L 73.832727 94.60921 
z
" style="fill:#e377c2;"/>
   </g>
   <g id="PolyCollection_38">
    <path clip-path="url(#pa40a009b1b)" d="M 73.832727 94.60921 
L 73.832727 94.60921 
L 89.292468 94.60921 
L 104.752208 94.60921 
L 120.211948 94.60921 
L 135.671688 94.60921 
L 151.131429 90.349714 
L 166.591169 83.960471 
L 182.050909 83.960471 
L 197.510649 83.960471 
L 212.97039 79.700975 
L 228.43013 83.960471 
L 243.88987 81.830723 
L 259.34961 75.441479 
L 274.809351 77.571227 
L 290.269091 71.181983 
L 305.728831 75.441479 
L 321.188571 71.181983 
L 336.648312 66.922487 
L 352.108052 66.922487 
L 367.567792 71.181983 
L 383.027532 88.219966 
L 398.487273 92.479462 
L 398.487273 88.219966 
L 398.487273 88.219966 
L 383.027532 83.960471 
L 367.567792 69.052235 
L 352.108052 66.922487 
L 336.648312 66.922487 
L 321.188571 71.181983 
L 305.728831 75.441479 
L 290.269091 71.181983 
L 274.809351 77.571227 
L 259.34961 75.441479 
L 243.88987 81.830723 
L 228.43013 83.960471 
L 212.97039 79.700975 
L 197.510649 83.960471 
L 182.050909 83.960471 
L 166.591169 83.960471 
L 151.131429 90.349714 
L 135.671688 94.60921 
L 120.211948 94.60921 
L 104.752208 94.60921 
L 89.292468 94.60921 
L 73.832727 94.60921 
z
" style="fill:#7f7f7f;"/>
   </g>
   <g id="PolyCollection_39">
    <path clip-path="url(#pa40a009b1b)" d="M 73.832727 94.60921 
L 73.832727 94.60921 
L 89.292468 94.60921 
L 104.752208 94.60921 
L 120.211948 94.60921 
L 135.671688 94.60921 
L 151.131429 90.349714 
L 166.591169 83.960471 
L 182.050909 83.960471 
L 197.510649 83.960471 
L 212.97039 79.700975 
L 228.43013 83.960471 
L 243.88987 81.830723 
L 259.34961 75.441479 
L 274.809351 77.571227 
L 290.269091 71.181983 
L 305.728831 75.441479 
L 321.188571 71.181983 
L 336.648312 66.922487 
L 352.108052 66.922487 
L 367.567792 69.052235 
L 383.027532 83.960471 
L 398.487273 88.219966 
L 398.487273 83.960471 
L 398.487273 83.960471 
L 383.027532 75.441479 
L 367.567792 69.052235 
L 352.108052 66.922487 
L 336.648312 66.922487 
L 321.188571 71.181983 
L 305.728831 75.441479 
L 290.269091 71.181983 
L 274.809351 77.571227 
L 259.34961 75.441479 
L 243.88987 81.830723 
L 228.43013 83.960471 
L 212.97039 79.700975 
L 197.510649 83.960471 
L 182.050909 83.960471 
L 166.591169 83.960471 
L 151.131429 90.349714 
L 135.671688 94.60921 
L 120.211948 94.60921 
L 104.752208 94.60921 
L 89.292468 94.60921 
L 73.832727 94.60921 
z
" style="fill:#bcbd22;"/>
   </g>
   <g id="PolyCollection_40">
    <path clip-path="url(#pa40a009b1b)" d="M 73.832727 94.60921 
L 73.832727 94.60921 
L 89.292468 94.60921 
L 104.752208 94.60921 
L 120.211948 94.60921 
L 135.671688 94.60921 
L 151.131429 90.349714 
L 166.591169 83.960471 
L 182.050909 83.960471 
L 197.510649 83.960471 
L 212.97039 79.700975 
L 228.43013 83.960471 
L 243.88987 81.830723 
L 259.34961 75.441479 
L 274.809351 77.571227 
L 290.269091 71.181983 
L 305.728831 75.441479 
L 321.188571 71.181983 
L 336.648312 66.922487 
L 352.108052 66.922487 
L 367.567792 69.052235 
L 383.027532 75.441479 
L 398.487273 83.960471 
L 398.487273 79.700975 
L 398.487273 79.700975 
L 383.027532 73.311731 
L 367.567792 69.052235 
L 352.108052 66.922487 
L 336.648312 66.922487 
L 321.188571 71.181983 
L 305.728831 75.441479 
L 290.269091 71.181983 
L 274.809351 77.571227 
L 259.34961 75.441479 
L 243.88987 81.830723 
L 228.43013 83.960471 
L 212.97039 79.700975 
L 197.510649 83.960471 
L 182.050909 83.960471 
L 166.591169 83.960471 
L 151.131429 90.349714 
L 135.671688 94.60921 
L 120.211948 94.60921 
L 104.752208 94.60921 
L 89.292468 94.60921 
L 73.832727 94.60921 
z
" style="fill:#17becf;"/>
   </g>
   <g id="PolyCollection_41">
    <path clip-path="url(#pa40a009b1b)" d="M 73.832727 94.60921 
L 73.832727 94.60921 
L 89.292468 94.60921 
L 104.752208 94.60921 
L 120.211948 94.60921 
L 135.671688 94.60921 
L 151.131429 90.349714 
L 166.591169 83.960471 
L 182.050909 83.960471 
L 197.510649 83.960471 
L 212.97039 79.700975 
L 228.43013 83.960471 
L 243.88987 81.830723 
L 259.34961 75.441479 
L 274.809351 77.571227 
L 290.269091 71.181983 
L 305.728831 75.441479 
L 321.188571 71.181983 
L 336.648312 66.922487 
L 352.108052 66.922487 
L 367.567792 69.052235 
L 383.027532 73.311731 
L 398.487273 79.700975 
L 398.487273 56.273748 
L 398.487273 56.273748 
L 383.027532 58.403496 
L 367.567792 69.052235 
L 352.108052 66.922487 
L 336.648312 66.922487 
L 321.188571 71.181983 
L 305.728831 75.441479 
L 290.269091 71.181983 
L 274.809351 77.571227 
L 259.34961 75.441479 
L 243.88987 81.830723 
L 228.43013 83.960471 
L 212.97039 79.700975 
L 197.510649 83.960471 
L 182.050909 83.960471 
L 166.591169 83.960471 
L 151.131429 90.349714 
L 135.671688 94.60921 
L 120.211948 94.60921 
L 104.752208 94.60921 
L 89.292468 94.60921 
L 73.832727 94.60921 
z
" style="fill:#1f77b4;"/>
   </g>
   <g id="PolyCollection_42">
    <path clip-path="url(#pa40a009b1b)" d="M 73.832727 94.60921 
L 73.832727 94.60921 
L 89.292468 94.60921 
L 104.752208 94.60921 
L 120.211948 94.60921 
L 135.671688 94.60921 
L 151.131429 90.349714 
L 166.591169 83.960471 
L 182.050909 83.960471 
L 197.510649 83.960471 
L 212.97039 79.700975 
L 228.43013 83.960471 
L 243.88987 81.830723 
L 259.34961 75.441479 
L 274.809351 77.571227 
L 290.269091 71.181983 
L 305.728831 75.441479 
L 321.188571 71.181983 
L 336.648312 66.922487 
L 352.108052 66.922487 
L 367.567792 69.052235 
L 383.027532 58.403496 
L 398.487273 56.273748 
L 398.487273 54.144 
L 398.487273 54.144 
L 383.027532 58.403496 
L 367.567792 69.052235 
L 352.108052 66.922487 
L 336.648312 66.922487 
L 321.188571 71.181983 
L 305.728831 75.441479 
L 290.269091 71.181983 
L 274.809351 77.571227 
L 259.34961 75.441479 
L 243.88987 81.830723 
L 228.43013 83.960471 
L 212.97039 79.700975 
L 197.510649 83.960471 
L 182.050909 83.960471 
L 166.591169 83.960471 
L 151.131429 90.349714 
L 135.671688 94.60921 
L 120.211948 94.60921 
L 104.752208 94.60921 
L 89.292468 94.60921 
L 73.832727 94.60921 
z
" style="fill:#ff7f0e;"/>
   </g>
   <g id="matplotlib.axis_1">
    <g id="xtick_1">
     <g id="line2d_1">
      <defs>
       <path d="M 0 0 
L 0 3.5 
" id="m5f1b3a74d2" style="stroke:#000000;stroke-width:0.8;"/>
      </defs>
      <g>
       <use style="stroke:#000000;stroke-width:0.8;" x="73.832727" xlink:href="#m5f1b3a74d2" y="307.584"/>
      </g>
     </g>
     <g id="text_1">
      <!-- 0 -->
      <g transform="translate(70.651477 322.182437)scale(0.1 -0.1)">
       <defs>
        <path d="M 31.78125 66.40625 
Q 24.171875 66.40625 20.328125 58.90625 
Q 16.5 51.421875 16.5 36.375 
Q 16.5 21.390625 20.328125 13.890625 
Q 24.171875 6.390625 31.78125 6.390625 
Q 39.453125 6.390625 43.28125 13.890625 
Q 47.125 21.390625 47.125 36.375 
Q 47.125 51.421875 43.28125 58.90625 
Q 39.453125 66.40625 31.78125 66.40625 
z
M 31.78125 74.21875 
Q 44.046875 74.21875 50.515625 64.515625 
Q 56.984375 54.828125 56.984375 36.375 
Q 56.984375 17.96875 50.515625 8.265625 
Q 44.046875 -1.421875 31.78125 -1.421875 
Q 19.53125 -1.421875 13.0625 8.265625 
Q 6.59375 17.96875 6.59375 36.375 
Q 6.59375 54.828125 13.0625 64.515625 
Q 19.53125 74.21875 31.78125 74.21875 
z
" id="DejaVuSans-48"/>
       </defs>
       <use xlink:href="#DejaVuSans-48"/>
      </g>
     </g>
    </g>
    <g id="xtick_2">
     <g id="line2d_2">
      <g>
       <use style="stroke:#000000;stroke-width:0.8;" x="151.131429" xlink:href="#m5f1b3a74d2" y="307.584"/>
      </g>
     </g>
     <g id="text_2">
      <!-- 5 -->
      <g transform="translate(147.950179 322.182437)scale(0.1 -0.1)">
       <defs>
        <path d="M 10.796875 72.90625 
L 49.515625 72.90625 
L 49.515625 64.59375 
L 19.828125 64.59375 
L 19.828125 46.734375 
Q 21.96875 47.46875 24.109375 47.828125 
Q 26.265625 48.1875 28.421875 48.1875 
Q 40.625 48.1875 47.75 41.5 
Q 54.890625 34.8125 54.890625 23.390625 
Q 54.890625 11.625 47.5625 5.09375 
Q 40.234375 -1.421875 26.90625 -1.421875 
Q 22.3125 -1.421875 17.546875 -0.640625 
Q 12.796875 0.140625 7.71875 1.703125 
L 7.71875 11.625 
Q 12.109375 9.234375 16.796875 8.0625 
Q 21.484375 6.890625 26.703125 6.890625 
Q 35.15625 6.890625 40.078125 11.328125 
Q 45.015625 15.765625 45.015625 23.390625 
Q 45.015625 31 40.078125 35.4375 
Q 35.15625 39.890625 26.703125 39.890625 
Q 22.75 39.890625 18.8125 39.015625 
Q 14.890625 38.140625 10.796875 36.28125 
z
" id="DejaVuSans-53"/>
       </defs>
       <use xlink:href="#DejaVuSans-53"/>
      </g>
     </g>
    </g>
    <g id="xtick_3">
     <g id="line2d_3">
      <g>
       <use style="stroke:#000000;stroke-width:0.8;" x="228.43013" xlink:href="#m5f1b3a74d2" y="307.584"/>
      </g>
     </g>
     <g id="text_3">
      <!-- 10 -->
      <g transform="translate(222.06763 322.182437)scale(0.1 -0.1)">
       <defs>
        <path d="M 12.40625 8.296875 
L 28.515625 8.296875 
L 28.515625 63.921875 
L 10.984375 60.40625 
L 10.984375 69.390625 
L 28.421875 72.90625 
L 38.28125 72.90625 
L 38.28125 8.296875 
L 54.390625 8.296875 
L 54.390625 0 
L 12.40625 0 
z
" id="DejaVuSans-49"/>
       </defs>
       <use xlink:href="#DejaVuSans-49"/>
       <use x="63.623047" xlink:href="#DejaVuSans-48"/>
      </g>
     </g>
    </g>
    <g id="xtick_4">
     <g id="line2d_4">
      <g>
       <use style="stroke:#000000;stroke-width:0.8;" x="305.728831" xlink:href="#m5f1b3a74d2" y="307.584"/>
      </g>
     </g>
     <g id="text_4">
      <!-- 15 -->
      <g transform="translate(299.366331 322.182437)scale(0.1 -0.1)">
       <use xlink:href="#DejaVuSans-49"/>
       <use x="63.623047" xlink:href="#DejaVuSans-53"/>
      </g>
     </g>
    </g>
    <g id="xtick_5">
     <g id="line2d_5">
      <g>
       <use style="stroke:#000000;stroke-width:0.8;" x="383.027532" xlink:href="#m5f1b3a74d2" y="307.584"/>
      </g>
     </g>
     <g id="text_5">
      <!-- 20 -->
      <g transform="translate(376.665032 322.182437)scale(0.1 -0.1)">
       <defs>
        <path d="M 19.1875 8.296875 
L 53.609375 8.296875 
L 53.609375 0 
L 7.328125 0 
L 7.328125 8.296875 
Q 12.9375 14.109375 22.625 23.890625 
Q 32.328125 33.6875 34.8125 36.53125 
Q 39.546875 41.84375 41.421875 45.53125 
Q 43.3125 49.21875 43.3125 52.78125 
Q 43.3125 58.59375 39.234375 62.25 
Q 35.15625 65.921875 28.609375 65.921875 
Q 23.96875 65.921875 18.8125 64.3125 
Q 13.671875 62.703125 7.8125 59.421875 
L 7.8125 69.390625 
Q 13.765625 71.78125 18.9375 73 
Q 24.125 74.21875 28.421875 74.21875 
Q 39.75 74.21875 46.484375 68.546875 
Q 53.21875 62.890625 53.21875 53.421875 
Q 53.21875 48.921875 51.53125 44.890625 
Q 49.859375 40.875 45.40625 35.40625 
Q 44.1875 33.984375 37.640625 27.21875 
Q 31.109375 20.453125 19.1875 8.296875 
z
" id="DejaVuSans-50"/>
       </defs>
       <use xlink:href="#DejaVuSans-50"/>
       <use x="63.623047" xlink:href="#DejaVuSans-48"/>
      </g>
     </g>
    </g>
    <g id="text_6">
     <!-- Generations -->
     <g transform="translate(205.662344 335.860562)scale(0.1 -0.1)">
      <defs>
       <path d="M 59.515625 10.40625 
L 59.515625 29.984375 
L 43.40625 29.984375 
L 43.40625 38.09375 
L 69.28125 38.09375 
L 69.28125 6.78125 
Q 63.578125 2.734375 56.6875 0.65625 
Q 49.8125 -1.421875 42 -1.421875 
Q 24.90625 -1.421875 15.25 8.5625 
Q 5.609375 18.5625 5.609375 36.375 
Q 5.609375 54.25 15.25 64.234375 
Q 24.90625 74.21875 42 74.21875 
Q 49.125 74.21875 55.546875 72.453125 
Q 61.96875 70.703125 67.390625 67.28125 
L 67.390625 56.78125 
Q 61.921875 61.421875 55.765625 63.765625 
Q 49.609375 66.109375 42.828125 66.109375 
Q 29.4375 66.109375 22.71875 58.640625 
Q 16.015625 51.171875 16.015625 36.375 
Q 16.015625 21.625 22.71875 14.15625 
Q 29.4375 6.6875 42.828125 6.6875 
Q 48.046875 6.6875 52.140625 7.59375 
Q 56.25 8.5 59.515625 10.40625 
z
" id="DejaVuSans-71"/>
       <path d="M 56.203125 29.59375 
L 56.203125 25.203125 
L 14.890625 25.203125 
Q 15.484375 15.921875 20.484375 11.0625 
Q 25.484375 6.203125 34.421875 6.203125 
Q 39.59375 6.203125 44.453125 7.46875 
Q 49.3125 8.734375 54.109375 11.28125 
L 54.109375 2.78125 
Q 49.265625 0.734375 44.1875 -0.34375 
Q 39.109375 -1.421875 33.890625 -1.421875 
Q 20.796875 -1.421875 13.15625 6.1875 
Q 5.515625 13.8125 5.515625 26.8125 
Q 5.515625 40.234375 12.765625 48.109375 
Q 20.015625 56 32.328125 56 
Q 43.359375 56 49.78125 48.890625 
Q 56.203125 41.796875 56.203125 29.59375 
z
M 47.21875 32.234375 
Q 47.125 39.59375 43.09375 43.984375 
Q 39.0625 48.390625 32.421875 48.390625 
Q 24.90625 48.390625 20.390625 44.140625 
Q 15.875 39.890625 15.1875 32.171875 
z
" id="DejaVuSans-101"/>
       <path d="M 54.890625 33.015625 
L 54.890625 0 
L 45.90625 0 
L 45.90625 32.71875 
Q 45.90625 40.484375 42.875 44.328125 
Q 39.84375 48.1875 33.796875 48.1875 
Q 26.515625 48.1875 22.3125 43.546875 
Q 18.109375 38.921875 18.109375 30.90625 
L 18.109375 0 
L 9.078125 0 
L 9.078125 54.6875 
L 18.109375 54.6875 
L 18.109375 46.1875 
Q 21.34375 51.125 25.703125 53.5625 
Q 30.078125 56 35.796875 56 
Q 45.21875 56 50.046875 50.171875 
Q 54.890625 44.34375 54.890625 33.015625 
z
" id="DejaVuSans-110"/>
       <path d="M 41.109375 46.296875 
Q 39.59375 47.171875 37.8125 47.578125 
Q 36.03125 48 33.890625 48 
Q 26.265625 48 22.1875 43.046875 
Q 18.109375 38.09375 18.109375 28.8125 
L 18.109375 0 
L 9.078125 0 
L 9.078125 54.6875 
L 18.109375 54.6875 
L 18.109375 46.1875 
Q 20.953125 51.171875 25.484375 53.578125 
Q 30.03125 56 36.53125 56 
Q 37.453125 56 38.578125 55.875 
Q 39.703125 55.765625 41.0625 55.515625 
z
" id="DejaVuSans-114"/>
       <path d="M 34.28125 27.484375 
Q 23.390625 27.484375 19.1875 25 
Q 14.984375 22.515625 14.984375 16.5 
Q 14.984375 11.71875 18.140625 8.90625 
Q 21.296875 6.109375 26.703125 6.109375 
Q 34.1875 6.109375 38.703125 11.40625 
Q 43.21875 16.703125 43.21875 25.484375 
L 43.21875 27.484375 
z
M 52.203125 31.203125 
L 52.203125 0 
L 43.21875 0 
L 43.21875 8.296875 
Q 40.140625 3.328125 35.546875 0.953125 
Q 30.953125 -1.421875 24.3125 -1.421875 
Q 15.921875 -1.421875 10.953125 3.296875 
Q 6 8.015625 6 15.921875 
Q 6 25.140625 12.171875 29.828125 
Q 18.359375 34.515625 30.609375 34.515625 
L 43.21875 34.515625 
L 43.21875 35.40625 
Q 43.21875 41.609375 39.140625 45 
Q 35.0625 48.390625 27.6875 48.390625 
Q 23 48.390625 18.546875 47.265625 
Q 14.109375 46.140625 10.015625 43.890625 
L 10.015625 52.203125 
Q 14.9375 54.109375 19.578125 55.046875 
Q 24.21875 56 28.609375 56 
Q 40.484375 56 46.34375 49.84375 
Q 52.203125 43.703125 52.203125 31.203125 
z
" id="DejaVuSans-97"/>
       <path d="M 18.3125 70.21875 
L 18.3125 54.6875 
L 36.8125 54.6875 
L 36.8125 47.703125 
L 18.3125 47.703125 
L 18.3125 18.015625 
Q 18.3125 11.328125 20.140625 9.421875 
Q 21.96875 7.515625 27.59375 7.515625 
L 36.8125 7.515625 
L 36.8125 0 
L 27.59375 0 
Q 17.1875 0 13.234375 3.875 
Q 9.28125 7.765625 9.28125 18.015625 
L 9.28125 47.703125 
L 2.6875 47.703125 
L 2.6875 54.6875 
L 9.28125 54.6875 
L 9.28125 70.21875 
z
" id="DejaVuSans-116"/>
       <path d="M 9.421875 54.6875 
L 18.40625 54.6875 
L 18.40625 0 
L 9.421875 0 
z
M 9.421875 75.984375 
L 18.40625 75.984375 
L 18.40625 64.59375 
L 9.421875 64.59375 
z
" id="DejaVuSans-105"/>
       <path d="M 30.609375 48.390625 
Q 23.390625 48.390625 19.1875 42.75 
Q 14.984375 37.109375 14.984375 27.296875 
Q 14.984375 17.484375 19.15625 11.84375 
Q 23.34375 6.203125 30.609375 6.203125 
Q 37.796875 6.203125 41.984375 11.859375 
Q 46.1875 17.53125 46.1875 27.296875 
Q 46.1875 37.015625 41.984375 42.703125 
Q 37.796875 48.390625 30.609375 48.390625 
z
M 30.609375 56 
Q 42.328125 56 49.015625 48.375 
Q 55.71875 40.765625 55.71875 27.296875 
Q 55.71875 13.875 49.015625 6.21875 
Q 42.328125 -1.421875 30.609375 -1.421875 
Q 18.84375 -1.421875 12.171875 6.21875 
Q 5.515625 13.875 5.515625 27.296875 
Q 5.515625 40.765625 12.171875 48.375 
Q 18.84375 56 30.609375 56 
z
" id="DejaVuSans-111"/>
       <path d="M 44.28125 53.078125 
L 44.28125 44.578125 
Q 40.484375 46.53125 36.375 47.5 
Q 32.28125 48.484375 27.875 48.484375 
Q 21.1875 48.484375 17.84375 46.4375 
Q 14.5 44.390625 14.5 40.28125 
Q 14.5 37.15625 16.890625 35.375 
Q 19.28125 33.59375 26.515625 31.984375 
L 29.59375 31.296875 
Q 39.15625 29.25 43.1875 25.515625 
Q 47.21875 21.78125 47.21875 15.09375 
Q 47.21875 7.46875 41.1875 3.015625 
Q 35.15625 -1.421875 24.609375 -1.421875 
Q 20.21875 -1.421875 15.453125 -0.5625 
Q 10.6875 0.296875 5.421875 2 
L 5.421875 11.28125 
Q 10.40625 8.6875 15.234375 7.390625 
Q 20.0625 6.109375 24.8125 6.109375 
Q 31.15625 6.109375 34.5625 8.28125 
Q 37.984375 10.453125 37.984375 14.40625 
Q 37.984375 18.0625 35.515625 20.015625 
Q 33.0625 21.96875 24.703125 23.78125 
L 21.578125 24.515625 
Q 13.234375 26.265625 9.515625 29.90625 
Q 5.8125 33.546875 5.8125 39.890625 
Q 5.8125 47.609375 11.28125 51.796875 
Q 16.75 56 26.8125 56 
Q 31.78125 56 36.171875 55.265625 
Q 40.578125 54.546875 44.28125 53.078125 
z
" id="DejaVuSans-115"/>
      </defs>
      <use xlink:href="#DejaVuSans-71"/>
      <use x="77.490234" xlink:href="#DejaVuSans-101"/>
      <use x="139.013672" xlink:href="#DejaVuSans-110"/>
      <use x="202.392578" xlink:href="#DejaVuSans-101"/>
      <use x="263.916016" xlink:href="#DejaVuSans-114"/>
      <use x="305.029297" xlink:href="#DejaVuSans-97"/>
      <use x="366.308594" xlink:href="#DejaVuSans-116"/>
      <use x="405.517578" xlink:href="#DejaVuSans-105"/>
      <use x="433.300781" xlink:href="#DejaVuSans-111"/>
      <use x="494.482422" xlink:href="#DejaVuSans-110"/>
      <use x="557.861328" xlink:href="#DejaVuSans-115"/>
     </g>
    </g>
   </g>
   <g id="matplotlib.axis_2">
    <g id="ytick_1">
     <g id="line2d_6">
      <defs>
       <path d="M 0 0 
L -3.5 0 
" id="m79cbe33bca" style="stroke:#000000;stroke-width:0.8;"/>
      </defs>
      <g>
       <use style="stroke:#000000;stroke-width:0.8;" x="57.6" xlink:href="#m79cbe33bca" y="307.584"/>
      </g>
     </g>
     <g id="text_7">
      <!-- 0 -->
      <g transform="translate(44.2375 311.383219)scale(0.1 -0.1)">
       <use xlink:href="#DejaVuSans-48"/>
      </g>
     </g>
    </g>
    <g id="ytick_2">
     <g id="line2d_7">
      <g>
       <use style="stroke:#000000;stroke-width:0.8;" x="57.6" xlink:href="#m79cbe33bca" y="264.989042"/>
      </g>
     </g>
     <g id="text_8">
      <!-- 20 -->
      <g transform="translate(37.875 268.788261)scale(0.1 -0.1)">
       <use xlink:href="#DejaVuSans-50"/>
       <use x="63.623047" xlink:href="#DejaVuSans-48"/>
      </g>
     </g>
    </g>
    <g id="ytick_3">
     <g id="line2d_8">
      <g>
       <use style="stroke:#000000;stroke-width:0.8;" x="57.6" xlink:href="#m79cbe33bca" y="222.394084"/>
      </g>
     </g>
     <g id="text_9">
      <!-- 40 -->
      <g transform="translate(37.875 226.193303)scale(0.1 -0.1)">
       <defs>
        <path d="M 37.796875 64.3125 
L 12.890625 25.390625 
L 37.796875 25.390625 
z
M 35.203125 72.90625 
L 47.609375 72.90625 
L 47.609375 25.390625 
L 58.015625 25.390625 
L 58.015625 17.1875 
L 47.609375 17.1875 
L 47.609375 0 
L 37.796875 0 
L 37.796875 17.1875 
L 4.890625 17.1875 
L 4.890625 26.703125 
z
" id="DejaVuSans-52"/>
       </defs>
       <use xlink:href="#DejaVuSans-52"/>
       <use x="63.623047" xlink:href="#DejaVuSans-48"/>
      </g>
     </g>
    </g>
    <g id="ytick_4">
     <g id="line2d_9">
      <g>
       <use style="stroke:#000000;stroke-width:0.8;" x="57.6" xlink:href="#m79cbe33bca" y="179.799126"/>
      </g>
     </g>
     <g id="text_10">
      <!-- 60 -->
      <g transform="translate(37.875 183.598345)scale(0.1 -0.1)">
       <defs>
        <path d="M 33.015625 40.375 
Q 26.375 40.375 22.484375 35.828125 
Q 18.609375 31.296875 18.609375 23.390625 
Q 18.609375 15.53125 22.484375 10.953125 
Q 26.375 6.390625 33.015625 6.390625 
Q 39.65625 6.390625 43.53125 10.953125 
Q 47.40625 15.53125 47.40625 23.390625 
Q 47.40625 31.296875 43.53125 35.828125 
Q 39.65625 40.375 33.015625 40.375 
z
M 52.59375 71.296875 
L 52.59375 62.3125 
Q 48.875 64.0625 45.09375 64.984375 
Q 41.3125 65.921875 37.59375 65.921875 
Q 27.828125 65.921875 22.671875 59.328125 
Q 17.53125 52.734375 16.796875 39.40625 
Q 19.671875 43.65625 24.015625 45.921875 
Q 28.375 48.1875 33.59375 48.1875 
Q 44.578125 48.1875 50.953125 41.515625 
Q 57.328125 34.859375 57.328125 23.390625 
Q 57.328125 12.15625 50.6875 5.359375 
Q 44.046875 -1.421875 33.015625 -1.421875 
Q 20.359375 -1.421875 13.671875 8.265625 
Q 6.984375 17.96875 6.984375 36.375 
Q 6.984375 53.65625 15.1875 63.9375 
Q 23.390625 74.21875 37.203125 74.21875 
Q 40.921875 74.21875 44.703125 73.484375 
Q 48.484375 72.75 52.59375 71.296875 
z
" id="DejaVuSans-54"/>
       </defs>
       <use xlink:href="#DejaVuSans-54"/>
       <use x="63.623047" xlink:href="#DejaVuSans-48"/>
      </g>
     </g>
    </g>
    <g id="ytick_5">
     <g id="line2d_10">
      <g>
       <use style="stroke:#000000;stroke-width:0.8;" x="57.6" xlink:href="#m79cbe33bca" y="137.204168"/>
      </g>
     </g>
     <g id="text_11">
      <!-- 80 -->
      <g transform="translate(37.875 141.003387)scale(0.1 -0.1)">
       <defs>
        <path d="M 31.78125 34.625 
Q 24.75 34.625 20.71875 30.859375 
Q 16.703125 27.09375 16.703125 20.515625 
Q 16.703125 13.921875 20.71875 10.15625 
Q 24.75 6.390625 31.78125 6.390625 
Q 38.8125 6.390625 42.859375 10.171875 
Q 46.921875 13.96875 46.921875 20.515625 
Q 46.921875 27.09375 42.890625 30.859375 
Q 38.875 34.625 31.78125 34.625 
z
M 21.921875 38.8125 
Q 15.578125 40.375 12.03125 44.71875 
Q 8.5 49.078125 8.5 55.328125 
Q 8.5 64.0625 14.71875 69.140625 
Q 20.953125 74.21875 31.78125 74.21875 
Q 42.671875 74.21875 48.875 69.140625 
Q 55.078125 64.0625 55.078125 55.328125 
Q 55.078125 49.078125 51.53125 44.71875 
Q 48 40.375 41.703125 38.8125 
Q 48.828125 37.15625 52.796875 32.3125 
Q 56.78125 27.484375 56.78125 20.515625 
Q 56.78125 9.90625 50.3125 4.234375 
Q 43.84375 -1.421875 31.78125 -1.421875 
Q 19.734375 -1.421875 13.25 4.234375 
Q 6.78125 9.90625 6.78125 20.515625 
Q 6.78125 27.484375 10.78125 32.3125 
Q 14.796875 37.15625 21.921875 38.8125 
z
M 18.3125 54.390625 
Q 18.3125 48.734375 21.84375 45.5625 
Q 25.390625 42.390625 31.78125 42.390625 
Q 38.140625 42.390625 41.71875 45.5625 
Q 45.3125 48.734375 45.3125 54.390625 
Q 45.3125 60.0625 41.71875 63.234375 
Q 38.140625 66.40625 31.78125 66.40625 
Q 25.390625 66.40625 21.84375 63.234375 
Q 18.3125 60.0625 18.3125 54.390625 
z
" id="DejaVuSans-56"/>
       </defs>
       <use xlink:href="#DejaVuSans-56"/>
       <use x="63.623047" xlink:href="#DejaVuSans-48"/>
      </g>
     </g>
    </g>
    <g id="ytick_6">
     <g id="line2d_11">
      <g>
       <use style="stroke:#000000;stroke-width:0.8;" x="57.6" xlink:href="#m79cbe33bca" y="94.60921"/>
      </g>
     </g>
     <g id="text_12">
      <!-- 100 -->
      <g transform="translate(31.5125 98.408429)scale(0.1 -0.1)">
       <use xlink:href="#DejaVuSans-49"/>
       <use x="63.623047" xlink:href="#DejaVuSans-48"/>
       <use x="127.246094" xlink:href="#DejaVuSans-48"/>
      </g>
     </g>
    </g>
    <g id="ytick_7">
     <g id="line2d_12">
      <g>
       <use style="stroke:#000000;stroke-width:0.8;" x="57.6" xlink:href="#m79cbe33bca" y="52.014252"/>
      </g>
     </g>
     <g id="text_13">
      <!-- 120 -->
      <g transform="translate(31.5125 55.813471)scale(0.1 -0.1)">
       <use xlink:href="#DejaVuSans-49"/>
       <use x="63.623047" xlink:href="#DejaVuSans-50"/>
       <use x="127.246094" xlink:href="#DejaVuSans-48"/>
      </g>
     </g>
    </g>
    <g id="text_14">
     <!-- Size per Species -->
     <g transform="translate(25.432812 215.520969)rotate(-90)scale(0.1 -0.1)">
      <defs>
       <path d="M 53.515625 70.515625 
L 53.515625 60.890625 
Q 47.90625 63.578125 42.921875 64.890625 
Q 37.9375 66.21875 33.296875 66.21875 
Q 25.25 66.21875 20.875 63.09375 
Q 16.5 59.96875 16.5 54.203125 
Q 16.5 49.359375 19.40625 46.890625 
Q 22.3125 44.4375 30.421875 42.921875 
L 36.375 41.703125 
Q 47.40625 39.59375 52.65625 34.296875 
Q 57.90625 29 57.90625 20.125 
Q 57.90625 9.515625 50.796875 4.046875 
Q 43.703125 -1.421875 29.984375 -1.421875 
Q 24.8125 -1.421875 18.96875 -0.25 
Q 13.140625 0.921875 6.890625 3.21875 
L 6.890625 13.375 
Q 12.890625 10.015625 18.65625 8.296875 
Q 24.421875 6.59375 29.984375 6.59375 
Q 38.421875 6.59375 43.015625 9.90625 
Q 47.609375 13.234375 47.609375 19.390625 
Q 47.609375 24.75 44.3125 27.78125 
Q 41.015625 30.8125 33.5 32.328125 
L 27.484375 33.5 
Q 16.453125 35.6875 11.515625 40.375 
Q 6.59375 45.0625 6.59375 53.421875 
Q 6.59375 63.09375 13.40625 68.65625 
Q 20.21875 74.21875 32.171875 74.21875 
Q 37.3125 74.21875 42.625 73.28125 
Q 47.953125 72.359375 53.515625 70.515625 
z
" id="DejaVuSans-83"/>
       <path d="M 5.515625 54.6875 
L 48.1875 54.6875 
L 48.1875 46.484375 
L 14.40625 7.171875 
L 48.1875 7.171875 
L 48.1875 0 
L 4.296875 0 
L 4.296875 8.203125 
L 38.09375 47.515625 
L 5.515625 47.515625 
z
" id="DejaVuSans-122"/>
       <path id="DejaVuSans-32"/>
       <path d="M 18.109375 8.203125 
L 18.109375 -20.796875 
L 9.078125 -20.796875 
L 9.078125 54.6875 
L 18.109375 54.6875 
L 18.109375 46.390625 
Q 20.953125 51.265625 25.265625 53.625 
Q 29.59375 56 35.59375 56 
Q 45.5625 56 51.78125 48.09375 
Q 58.015625 40.1875 58.015625 27.296875 
Q 58.015625 14.40625 51.78125 6.484375 
Q 45.5625 -1.421875 35.59375 -1.421875 
Q 29.59375 -1.421875 25.265625 0.953125 
Q 20.953125 3.328125 18.109375 8.203125 
z
M 48.6875 27.296875 
Q 48.6875 37.203125 44.609375 42.84375 
Q 40.53125 48.484375 33.40625 48.484375 
Q 26.265625 48.484375 22.1875 42.84375 
Q 18.109375 37.203125 18.109375 27.296875 
Q 18.109375 17.390625 22.1875 11.75 
Q 26.265625 6.109375 33.40625 6.109375 
Q 40.53125 6.109375 44.609375 11.75 
Q 48.6875 17.390625 48.6875 27.296875 
z
" id="DejaVuSans-112"/>
       <path d="M 48.78125 52.59375 
L 48.78125 44.1875 
Q 44.96875 46.296875 41.140625 47.34375 
Q 37.3125 48.390625 33.40625 48.390625 
Q 24.65625 48.390625 19.8125 42.84375 
Q 14.984375 37.3125 14.984375 27.296875 
Q 14.984375 17.28125 19.8125 11.734375 
Q 24.65625 6.203125 33.40625 6.203125 
Q 37.3125 6.203125 41.140625 7.25 
Q 44.96875 8.296875 48.78125 10.40625 
L 48.78125 2.09375 
Q 45.015625 0.34375 40.984375 -0.53125 
Q 36.96875 -1.421875 32.421875 -1.421875 
Q 20.0625 -1.421875 12.78125 6.34375 
Q 5.515625 14.109375 5.515625 27.296875 
Q 5.515625 40.671875 12.859375 48.328125 
Q 20.21875 56 33.015625 56 
Q 37.15625 56 41.109375 55.140625 
Q 45.0625 54.296875 48.78125 52.59375 
z
" id="DejaVuSans-99"/>
      </defs>
      <use xlink:href="#DejaVuSans-83"/>
      <use x="63.476562" xlink:href="#DejaVuSans-105"/>
      <use x="91.259766" xlink:href="#DejaVuSans-122"/>
      <use x="143.75" xlink:href="#DejaVuSans-101"/>
      <use x="205.273438" xlink:href="#DejaVuSans-32"/>
      <use x="237.060547" xlink:href="#DejaVuSans-112"/>
      <use x="300.537109" xlink:href="#DejaVuSans-101"/>
      <use x="362.060547" xlink:href="#DejaVuSans-114"/>
      <use x="403.173828" xlink:href="#DejaVuSans-32"/>
      <use x="434.960938" xlink:href="#DejaVuSans-83"/>
      <use x="498.4375" xlink:href="#DejaVuSans-112"/>
      <use x="561.914062" xlink:href="#DejaVuSans-101"/>
      <use x="623.4375" xlink:href="#DejaVuSans-99"/>
      <use x="678.417969" xlink:href="#DejaVuSans-105"/>
      <use x="706.201172" xlink:href="#DejaVuSans-101"/>
      <use x="767.724609" xlink:href="#DejaVuSans-115"/>
     </g>
    </g>
   </g>
   <g id="patch_3">
    <path d="M 57.6 307.584 
L 57.6 41.472 
" style="fill:none;stroke:#000000;stroke-linecap:square;stroke-linejoin:miter;stroke-width:0.8;"/>
   </g>
   <g id="patch_4">
    <path d="M 414.72 307.584 
L 414.72 41.472 
" style="fill:none;stroke:#000000;stroke-linecap:square;stroke-linejoin:miter;stroke-width:0.8;"/>
   </g>
   <g id="patch_5">
    <path d="M 57.6 307.584 
L 414.72 307.584 
" style="fill:none;stroke:#000000;stroke-linecap:square;stroke-linejoin:miter;stroke-width:0.8;"/>
   </g>
   <g id="patch_6">
    <path d="M 57.6 41.472 
L 414.72 41.472 
" style="fill:none;stroke:#000000;stroke-linecap:square;stroke-linejoin:miter;stroke-width:0.8;"/>
   </g>
   <g id="text_15">
    <!-- Speciation -->
    <g transform="translate(204.714375 35.472)scale(0.12 -0.12)">
     <use xlink:href="#DejaVuSans-83"/>
     <use x="63.476562" xlink:href="#DejaVuSans-112"/>
     <use x="126.953125" xlink:href="#DejaVuSans-101"/>
     <use x="188.476562" xlink:href="#DejaVuSans-99"/>
     <use x="243.457031" xlink:href="#DejaVuSans-105"/>
     <use x="271.240234" xlink:href="#DejaVuSans-97"/>
     <use x="332.519531" xlink:href="#DejaVuSans-116"/>
     <use x="371.728516" xlink:href="#DejaVuSans-105"/>
     <use x="399.511719" xlink:href="#DejaVuSans-111"/>
     <use x="460.693359" xlink:href="#DejaVuSans-110"/>
    </g>
   </g>
  </g>
 </g>
 <defs>
  <clipPath id="pa40a009b1b">
   <rect height="266.112" width="357.12" x="57.6" y="41.472"/>
  </clipPath>
 </defs>
</svg>
