<?xml version="1.0" encoding="utf-8" standalone="no"?>
<!DOCTYPE svg PUBLIC "-//W3C//DTD SVG 1.1//EN"
  "http://www.w3.org/Graphics/SVG/1.1/DTD/svg11.dtd">
<!-- Created with matplotlib (https://matplotlib.org/) -->
<svg height="345.6pt" version="1.1" viewBox="0 0 460.8 345.6" width="460.8pt" xmlns="http://www.w3.org/2000/svg" xmlns:xlink="http://www.w3.org/1999/xlink">
 <metadata>
  <rdf:RDF xmlns:cc="http://creativecommons.org/ns#" xmlns:dc="http://purl.org/dc/elements/1.1/" xmlns:rdf="http://www.w3.org/1999/02/22-rdf-syntax-ns#">
   <cc:Work>
    <dc:type rdf:resource="http://purl.org/dc/dcmitype/StillImage"/>
    <dc:date>2022-05-17T10:40:14.218142</dc:date>
    <dc:format>image/svg+xml</dc:format>
    <dc:creator>
     <cc:Agent>
      <dc:title>Matplotlib v3.3.2, https://matplotlib.org/</dc:title>
     </cc:Agent>
    </dc:creator>
   </cc:Work>
  </rdf:RDF>
 </metadata>
 <defs>
  <style type="text/css">*{stroke-linecap:butt;stroke-linejoin:round;}</style>
 </defs>
 <g id="figure_1">
  <g id="patch_1">
   <path d="M 0 345.6 
L 460.8 345.6 
L 460.8 0 
L 0 0 
z
" style="fill:#ffffff;"/>
  </g>
  <g id="axes_1">
   <g id="patch_2">
    <path d="M 57.6 307.584 
L 414.72 307.584 
L 414.72 41.472 
L 57.6 41.472 
z
" style="fill:#ffffff;"/>
   </g>
   <g id="PolyCollection_1">
    <path clip-path="url(#p430a567bc8)" d="M 73.832727 87.201391 
L 73.832727 307.584 
L 85.85697 307.584 
L 97.881212 307.584 
L 109.905455 307.584 
L 121.929697 307.584 
L 133.953939 307.584 
L 145.978182 307.584 
L 158.002424 307.584 
L 170.026667 307.584 
L 182.050909 307.584 
L 194.075152 307.584 
L 206.099394 307.584 
L 218.123636 307.584 
L 230.147879 307.584 
L 242.172121 307.584 
L 254.196364 307.584 
L 266.220606 307.584 
L 278.244848 307.584 
L 290.269091 307.584 
L 302.293333 307.584 
L 314.317576 307.584 
L 326.341818 307.584 
L 338.366061 307.584 
L 350.390303 307.584 
L 362.414545 307.584 
L 374.438788 307.584 
L 386.46303 307.584 
L 398.487273 307.584 
L 398.487273 303.176348 
L 398.487273 303.176348 
L 386.46303 303.176348 
L 374.438788 303.176348 
L 362.414545 303.176348 
L 350.390303 303.176348 
L 338.366061 303.176348 
L 326.341818 303.176348 
L 314.317576 296.56487 
L 302.293333 303.176348 
L 290.269091 303.176348 
L 278.244848 303.176348 
L 266.220606 303.176348 
L 254.196364 303.176348 
L 242.172121 303.176348 
L 230.147879 303.176348 
L 218.123636 303.176348 
L 206.099394 303.176348 
L 194.075152 300.972522 
L 182.050909 303.176348 
L 170.026667 303.176348 
L 158.002424 300.972522 
L 145.978182 298.768696 
L 133.953939 294.361043 
L 121.929697 248.080696 
L 109.905455 164.335304 
L 97.881212 111.443478 
L 85.85697 87.201391 
L 73.832727 87.201391 
z
" style="fill:#1f77b4;"/>
   </g>
   <g id="PolyCollection_2">
    <path clip-path="url(#p430a567bc8)" d="M 73.832727 87.201391 
L 73.832727 87.201391 
L 85.85697 87.201391 
L 97.881212 111.443478 
L 109.905455 164.335304 
L 121.929697 248.080696 
L 133.953939 294.361043 
L 145.978182 298.768696 
L 158.002424 300.972522 
L 170.026667 303.176348 
L 182.050909 303.176348 
L 194.075152 300.972522 
L 206.099394 303.176348 
L 218.123636 303.176348 
L 230.147879 303.176348 
L 242.172121 303.176348 
L 254.196364 303.176348 
L 266.220606 303.176348 
L 278.244848 303.176348 
L 290.269091 303.176348 
L 302.293333 303.176348 
L 314.317576 296.56487 
L 326.341818 303.176348 
L 338.366061 303.176348 
L 350.390303 303.176348 
L 362.414545 303.176348 
L 374.438788 303.176348 
L 386.46303 303.176348 
L 398.487273 303.176348 
L 398.487273 303.176348 
L 398.487273 303.176348 
L 386.46303 303.176348 
L 374.438788 303.176348 
L 362.414545 303.176348 
L 350.390303 298.768696 
L 338.366061 298.768696 
L 326.341818 298.768696 
L 314.317576 292.157217 
L 302.293333 298.768696 
L 290.269091 298.768696 
L 278.244848 298.768696 
L 266.220606 298.768696 
L 254.196364 298.768696 
L 242.172121 298.768696 
L 230.147879 298.768696 
L 218.123636 298.768696 
L 206.099394 298.768696 
L 194.075152 294.361043 
L 182.050909 294.361043 
L 170.026667 283.341913 
L 158.002424 294.361043 
L 145.978182 287.749565 
L 133.953939 267.91513 
L 121.929697 195.18887 
L 109.905455 153.316174 
L 97.881212 102.628174 
L 85.85697 87.201391 
L 73.832727 87.201391 
z
" style="fill:#ff7f0e;"/>
   </g>
   <g id="PolyCollection_3">
    <path clip-path="url(#p430a567bc8)" d="M 73.832727 87.201391 
L 73.832727 87.201391 
L 85.85697 87.201391 
L 97.881212 102.628174 
L 109.905455 153.316174 
L 121.929697 195.18887 
L 133.953939 267.91513 
L 145.978182 287.749565 
L 158.002424 294.361043 
L 170.026667 283.341913 
L 182.050909 294.361043 
L 194.075152 294.361043 
L 206.099394 298.768696 
L 218.123636 298.768696 
L 230.147879 298.768696 
L 242.172121 298.768696 
L 254.196364 298.768696 
L 266.220606 298.768696 
L 278.244848 298.768696 
L 290.269091 298.768696 
L 302.293333 298.768696 
L 314.317576 292.157217 
L 326.341818 298.768696 
L 338.366061 298.768696 
L 350.390303 298.768696 
L 362.414545 303.176348 
L 374.438788 303.176348 
L 386.46303 303.176348 
L 398.487273 303.176348 
L 398.487273 298.768696 
L 398.487273 298.768696 
L 386.46303 298.768696 
L 374.438788 298.768696 
L 362.414545 298.768696 
L 350.390303 294.361043 
L 338.366061 294.361043 
L 326.341818 294.361043 
L 314.317576 287.749565 
L 302.293333 294.361043 
L 290.269091 294.361043 
L 278.244848 294.361043 
L 266.220606 294.361043 
L 254.196364 294.361043 
L 242.172121 294.361043 
L 230.147879 294.361043 
L 218.123636 294.361043 
L 206.099394 294.361043 
L 194.075152 287.749565 
L 182.050909 285.545739 
L 170.026667 248.080696 
L 158.002424 287.749565 
L 145.978182 283.341913 
L 133.953939 261.303652 
L 121.929697 190.781217 
L 109.905455 146.704696 
L 97.881212 96.016696 
L 85.85697 87.201391 
L 73.832727 87.201391 
z
" style="fill:#2ca02c;"/>
   </g>
   <g id="PolyCollection_4">
    <path clip-path="url(#p430a567bc8)" d="M 73.832727 87.201391 
L 73.832727 87.201391 
L 85.85697 87.201391 
L 97.881212 96.016696 
L 109.905455 146.704696 
L 121.929697 190.781217 
L 133.953939 261.303652 
L 145.978182 283.341913 
L 158.002424 287.749565 
L 170.026667 248.080696 
L 182.050909 285.545739 
L 194.075152 287.749565 
L 206.099394 294.361043 
L 218.123636 294.361043 
L 230.147879 294.361043 
L 242.172121 294.361043 
L 254.196364 294.361043 
L 266.220606 294.361043 
L 278.244848 294.361043 
L 290.269091 294.361043 
L 302.293333 294.361043 
L 314.317576 287.749565 
L 326.341818 294.361043 
L 338.366061 294.361043 
L 350.390303 294.361043 
L 362.414545 298.768696 
L 374.438788 298.768696 
L 386.46303 298.768696 
L 398.487273 298.768696 
L 398.487273 294.361043 
L 398.487273 294.361043 
L 386.46303 294.361043 
L 374.438788 292.157217 
L 362.414545 285.545739 
L 350.390303 263.507478 
L 338.366061 289.953391 
L 326.341818 283.341913 
L 314.317576 265.711304 
L 302.293333 252.488348 
L 290.269091 289.953391 
L 278.244848 289.953391 
L 266.220606 289.953391 
L 254.196364 289.953391 
L 242.172121 289.953391 
L 230.147879 289.953391 
L 218.123636 289.953391 
L 206.099394 289.953391 
L 194.075152 283.341913 
L 182.050909 278.934261 
L 170.026667 241.469217 
L 158.002424 283.341913 
L 145.978182 278.934261 
L 133.953939 256.896 
L 121.929697 186.373565 
L 109.905455 142.297043 
L 97.881212 93.81287 
L 85.85697 87.201391 
L 73.832727 87.201391 
z
" style="fill:#d62728;"/>
   </g>
   <g id="PolyCollection_5">
    <path clip-path="url(#p430a567bc8)" d="M 73.832727 87.201391 
L 73.832727 87.201391 
L 85.85697 87.201391 
L 97.881212 93.81287 
L 109.905455 142.297043 
L 121.929697 186.373565 
L 133.953939 256.896 
L 145.978182 278.934261 
L 158.002424 283.341913 
L 170.026667 241.469217 
L 182.050909 278.934261 
L 194.075152 283.341913 
L 206.099394 289.953391 
L 218.123636 289.953391 
L 230.147879 289.953391 
L 242.172121 289.953391 
L 254.196364 289.953391 
L 266.220606 289.953391 
L 278.244848 289.953391 
L 290.269091 289.953391 
L 302.293333 252.488348 
L 314.317576 265.711304 
L 326.341818 283.341913 
L 338.366061 289.953391 
L 350.390303 263.507478 
L 362.414545 285.545739 
L 374.438788 292.157217 
L 386.46303 294.361043 
L 398.487273 294.361043 
L 398.487273 263.507478 
L 398.487273 263.507478 
L 386.46303 252.488348 
L 374.438788 287.749565 
L 362.414545 281.138087 
L 350.390303 259.099826 
L 338.366061 285.545739 
L 326.341818 278.934261 
L 314.317576 261.303652 
L 302.293333 248.080696 
L 290.269091 285.545739 
L 278.244848 285.545739 
L 266.220606 285.545739 
L 254.196364 285.545739 
L 242.172121 285.545739 
L 230.147879 281.138087 
L 218.123636 281.138087 
L 206.099394 274.526609 
L 194.075152 276.730435 
L 182.050909 265.711304 
L 170.026667 212.819478 
L 158.002424 276.730435 
L 145.978182 274.526609 
L 133.953939 239.265391 
L 121.929697 170.946783 
L 109.905455 133.481739 
L 97.881212 87.201391 
L 85.85697 87.201391 
L 73.832727 87.201391 
z
" style="fill:#9467bd;"/>
   </g>
   <g id="PolyCollection_6">
    <path clip-path="url(#p430a567bc8)" d="M 73.832727 87.201391 
L 73.832727 87.201391 
L 85.85697 87.201391 
L 97.881212 87.201391 
L 109.905455 133.481739 
L 121.929697 170.946783 
L 133.953939 239.265391 
L 145.978182 274.526609 
L 158.002424 276.730435 
L 170.026667 212.819478 
L 182.050909 265.711304 
L 194.075152 276.730435 
L 206.099394 274.526609 
L 218.123636 281.138087 
L 230.147879 281.138087 
L 242.172121 285.545739 
L 254.196364 285.545739 
L 266.220606 285.545739 
L 278.244848 285.545739 
L 290.269091 285.545739 
L 302.293333 248.080696 
L 314.317576 261.303652 
L 326.341818 278.934261 
L 338.366061 285.545739 
L 350.390303 259.099826 
L 362.414545 281.138087 
L 374.438788 287.749565 
L 386.46303 252.488348 
L 398.487273 263.507478 
L 398.487273 259.099826 
L 398.487273 259.099826 
L 386.46303 248.080696 
L 374.438788 283.341913 
L 362.414545 276.730435 
L 350.390303 254.692174 
L 338.366061 281.138087 
L 326.341818 274.526609 
L 314.317576 256.896 
L 302.293333 243.673043 
L 290.269091 281.138087 
L 278.244848 281.138087 
L 266.220606 276.730435 
L 254.196364 267.91513 
L 242.172121 239.265391 
L 230.147879 276.730435 
L 218.123636 276.730435 
L 206.099394 270.118957 
L 194.075152 272.322783 
L 182.050909 259.099826 
L 170.026667 204.004174 
L 158.002424 259.099826 
L 145.978182 270.118957 
L 133.953939 234.857739 
L 121.929697 166.53913 
L 109.905455 129.074087 
L 97.881212 87.201391 
L 85.85697 87.201391 
L 73.832727 87.201391 
z
" style="fill:#8c564b;"/>
   </g>
   <g id="PolyCollection_7">
    <path clip-path="url(#p430a567bc8)" d="M 73.832727 87.201391 
L 73.832727 87.201391 
L 85.85697 87.201391 
L 97.881212 87.201391 
L 109.905455 129.074087 
L 121.929697 166.53913 
L 133.953939 234.857739 
L 145.978182 270.118957 
L 158.002424 259.099826 
L 170.026667 204.004174 
L 182.050909 259.099826 
L 194.075152 272.322783 
L 206.099394 270.118957 
L 218.123636 276.730435 
L 230.147879 276.730435 
L 242.172121 239.265391 
L 254.196364 267.91513 
L 266.220606 276.730435 
L 278.244848 281.138087 
L 290.269091 281.138087 
L 302.293333 243.673043 
L 314.317576 256.896 
L 326.341818 274.526609 
L 338.366061 281.138087 
L 350.390303 254.692174 
L 362.414545 276.730435 
L 374.438788 283.341913 
L 386.46303 248.080696 
L 398.487273 259.099826 
L 398.487273 259.099826 
L 398.487273 259.099826 
L 386.46303 248.080696 
L 374.438788 283.341913 
L 362.414545 272.322783 
L 350.390303 250.284522 
L 338.366061 276.730435 
L 326.341818 270.118957 
L 314.317576 252.488348 
L 302.293333 239.265391 
L 290.269091 276.730435 
L 278.244848 276.730435 
L 266.220606 272.322783 
L 254.196364 263.507478 
L 242.172121 234.857739 
L 230.147879 272.322783 
L 218.123636 272.322783 
L 206.099394 265.711304 
L 194.075152 267.91513 
L 182.050909 254.692174 
L 170.026667 199.596522 
L 158.002424 254.692174 
L 145.978182 263.507478 
L 133.953939 221.634783 
L 121.929697 151.112348 
L 109.905455 115.85113 
L 97.881212 87.201391 
L 85.85697 87.201391 
L 73.832727 87.201391 
z
" style="fill:#e377c2;"/>
   </g>
   <g id="PolyCollection_8">
    <path clip-path="url(#p430a567bc8)" d="M 73.832727 87.201391 
L 73.832727 87.201391 
L 85.85697 87.201391 
L 97.881212 87.201391 
L 109.905455 115.85113 
L 121.929697 151.112348 
L 133.953939 221.634783 
L 145.978182 263.507478 
L 158.002424 254.692174 
L 170.026667 199.596522 
L 182.050909 254.692174 
L 194.075152 267.91513 
L 206.099394 265.711304 
L 218.123636 272.322783 
L 230.147879 272.322783 
L 242.172121 234.857739 
L 254.196364 263.507478 
L 266.220606 272.322783 
L 278.244848 276.730435 
L 290.269091 276.730435 
L 302.293333 239.265391 
L 314.317576 252.488348 
L 326.341818 270.118957 
L 338.366061 276.730435 
L 350.390303 250.284522 
L 362.414545 272.322783 
L 374.438788 283.341913 
L 386.46303 248.080696 
L 398.487273 259.099826 
L 398.487273 254.692174 
L 398.487273 254.692174 
L 386.46303 243.673043 
L 374.438788 278.934261 
L 362.414545 267.91513 
L 350.390303 241.469217 
L 338.366061 245.87687 
L 326.341818 265.711304 
L 314.317576 248.080696 
L 302.293333 234.857739 
L 290.269091 272.322783 
L 278.244848 272.322783 
L 266.220606 267.91513 
L 254.196364 259.099826 
L 242.172121 230.450087 
L 230.147879 267.91513 
L 218.123636 267.91513 
L 206.099394 261.303652 
L 194.075152 263.507478 
L 182.050909 250.284522 
L 170.026667 195.18887 
L 158.002424 248.080696 
L 145.978182 259.099826 
L 133.953939 217.22713 
L 121.929697 144.50087 
L 109.905455 104.832 
L 97.881212 87.201391 
L 85.85697 87.201391 
L 73.832727 87.201391 
z
" style="fill:#7f7f7f;"/>
   </g>
   <g id="PolyCollection_9">
    <path clip-path="url(#p430a567bc8)" d="M 73.832727 87.201391 
L 73.832727 87.201391 
L 85.85697 87.201391 
L 97.881212 87.201391 
L 109.905455 104.832 
L 121.929697 144.50087 
L 133.953939 217.22713 
L 145.978182 259.099826 
L 158.002424 248.080696 
L 170.026667 195.18887 
L 182.050909 250.284522 
L 194.075152 263.507478 
L 206.099394 261.303652 
L 218.123636 267.91513 
L 230.147879 267.91513 
L 242.172121 230.450087 
L 254.196364 259.099826 
L 266.220606 267.91513 
L 278.244848 272.322783 
L 290.269091 272.322783 
L 302.293333 234.857739 
L 314.317576 248.080696 
L 326.341818 265.711304 
L 338.366061 245.87687 
L 350.390303 241.469217 
L 362.414545 267.91513 
L 374.438788 278.934261 
L 386.46303 243.673043 
L 398.487273 254.692174 
L 398.487273 254.692174 
L 398.487273 254.692174 
L 386.46303 243.673043 
L 374.438788 274.526609 
L 362.414545 263.507478 
L 350.390303 237.061565 
L 338.366061 241.469217 
L 326.341818 261.303652 
L 314.317576 243.673043 
L 302.293333 230.450087 
L 290.269091 267.91513 
L 278.244848 267.91513 
L 266.220606 263.507478 
L 254.196364 254.692174 
L 242.172121 226.042435 
L 230.147879 259.099826 
L 218.123636 252.488348 
L 206.099394 256.896 
L 194.075152 259.099826 
L 182.050909 243.673043 
L 170.026667 186.373565 
L 158.002424 230.450087 
L 145.978182 241.469217 
L 133.953939 212.819478 
L 121.929697 140.093217 
L 109.905455 100.424348 
L 97.881212 87.201391 
L 85.85697 87.201391 
L 73.832727 87.201391 
z
" style="fill:#bcbd22;"/>
   </g>
   <g id="PolyCollection_10">
    <path clip-path="url(#p430a567bc8)" d="M 73.832727 87.201391 
L 73.832727 87.201391 
L 85.85697 87.201391 
L 97.881212 87.201391 
L 109.905455 100.424348 
L 121.929697 140.093217 
L 133.953939 212.819478 
L 145.978182 241.469217 
L 158.002424 230.450087 
L 170.026667 186.373565 
L 182.050909 243.673043 
L 194.075152 259.099826 
L 206.099394 256.896 
L 218.123636 252.488348 
L 230.147879 259.099826 
L 242.172121 226.042435 
L 254.196364 254.692174 
L 266.220606 263.507478 
L 278.244848 267.91513 
L 290.269091 267.91513 
L 302.293333 230.450087 
L 314.317576 243.673043 
L 326.341818 261.303652 
L 338.366061 241.469217 
L 350.390303 237.061565 
L 362.414545 263.507478 
L 374.438788 274.526609 
L 386.46303 243.673043 
L 398.487273 254.692174 
L 398.487273 254.692174 
L 398.487273 254.692174 
L 386.46303 243.673043 
L 374.438788 274.526609 
L 362.414545 263.507478 
L 350.390303 232.653913 
L 338.366061 237.061565 
L 326.341818 256.896 
L 314.317576 239.265391 
L 302.293333 226.042435 
L 290.269091 263.507478 
L 278.244848 263.507478 
L 266.220606 259.099826 
L 254.196364 250.284522 
L 242.172121 221.634783 
L 230.147879 254.692174 
L 218.123636 248.080696 
L 206.099394 252.488348 
L 194.075152 252.488348 
L 182.050909 239.265391 
L 170.026667 181.965913 
L 158.002424 226.042435 
L 145.978182 234.857739 
L 133.953939 204.004174 
L 121.929697 118.054957 
L 109.905455 93.81287 
L 97.881212 87.201391 
L 85.85697 87.201391 
L 73.832727 87.201391 
z
" style="fill:#17becf;"/>
   </g>
   <g id="PolyCollection_11">
    <path clip-path="url(#p430a567bc8)" d="M 73.832727 87.201391 
L 73.832727 87.201391 
L 85.85697 87.201391 
L 97.881212 87.201391 
L 109.905455 93.81287 
L 121.929697 118.054957 
L 133.953939 204.004174 
L 145.978182 234.857739 
L 158.002424 226.042435 
L 170.026667 181.965913 
L 182.050909 239.265391 
L 194.075152 252.488348 
L 206.099394 252.488348 
L 218.123636 248.080696 
L 230.147879 254.692174 
L 242.172121 221.634783 
L 254.196364 250.284522 
L 266.220606 259.099826 
L 278.244848 263.507478 
L 290.269091 263.507478 
L 302.293333 226.042435 
L 314.317576 239.265391 
L 326.341818 256.896 
L 338.366061 237.061565 
L 350.390303 232.653913 
L 362.414545 263.507478 
L 374.438788 274.526609 
L 386.46303 243.673043 
L 398.487273 254.692174 
L 398.487273 250.284522 
L 398.487273 250.284522 
L 386.46303 239.265391 
L 374.438788 270.118957 
L 362.414545 259.099826 
L 350.390303 228.246261 
L 338.366061 228.246261 
L 326.341818 241.469217 
L 314.317576 221.634783 
L 302.293333 195.18887 
L 290.269091 259.099826 
L 278.244848 254.692174 
L 266.220606 254.692174 
L 254.196364 245.87687 
L 242.172121 217.22713 
L 230.147879 250.284522 
L 218.123636 243.673043 
L 206.099394 248.080696 
L 194.075152 248.080696 
L 182.050909 234.857739 
L 170.026667 175.354435 
L 158.002424 219.430957 
L 145.978182 230.450087 
L 133.953939 199.596522 
L 121.929697 113.647304 
L 109.905455 91.609043 
L 97.881212 87.201391 
L 85.85697 87.201391 
L 73.832727 87.201391 
z
" style="fill:#1f77b4;"/>
   </g>
   <g id="PolyCollection_12">
    <path clip-path="url(#p430a567bc8)" d="M 73.832727 87.201391 
L 73.832727 87.201391 
L 85.85697 87.201391 
L 97.881212 87.201391 
L 109.905455 91.609043 
L 121.929697 113.647304 
L 133.953939 199.596522 
L 145.978182 230.450087 
L 158.002424 219.430957 
L 170.026667 175.354435 
L 182.050909 234.857739 
L 194.075152 248.080696 
L 206.099394 248.080696 
L 218.123636 243.673043 
L 230.147879 250.284522 
L 242.172121 217.22713 
L 254.196364 245.87687 
L 266.220606 254.692174 
L 278.244848 254.692174 
L 290.269091 259.099826 
L 302.293333 195.18887 
L 314.317576 221.634783 
L 326.341818 241.469217 
L 338.366061 228.246261 
L 350.390303 228.246261 
L 362.414545 259.099826 
L 374.438788 270.118957 
L 386.46303 239.265391 
L 398.487273 250.284522 
L 398.487273 245.87687 
L 398.487273 245.87687 
L 386.46303 234.857739 
L 374.438788 265.711304 
L 362.414545 254.692174 
L 350.390303 221.634783 
L 338.366061 215.023304 
L 326.341818 226.042435 
L 314.317576 215.023304 
L 302.293333 190.781217 
L 290.269091 254.692174 
L 278.244848 250.284522 
L 266.220606 250.284522 
L 254.196364 241.469217 
L 242.172121 212.819478 
L 230.147879 245.87687 
L 218.123636 239.265391 
L 206.099394 243.673043 
L 194.075152 243.673043 
L 182.050909 230.450087 
L 170.026667 170.946783 
L 158.002424 215.023304 
L 145.978182 226.042435 
L 133.953939 195.18887 
L 121.929697 109.239652 
L 109.905455 87.201391 
L 97.881212 87.201391 
L 85.85697 87.201391 
L 73.832727 87.201391 
z
" style="fill:#ff7f0e;"/>
   </g>
   <g id="PolyCollection_13">
    <path clip-path="url(#p430a567bc8)" d="M 73.832727 87.201391 
L 73.832727 87.201391 
L 85.85697 87.201391 
L 97.881212 87.201391 
L 109.905455 87.201391 
L 121.929697 109.239652 
L 133.953939 195.18887 
L 145.978182 226.042435 
L 158.002424 215.023304 
L 170.026667 170.946783 
L 182.050909 230.450087 
L 194.075152 243.673043 
L 206.099394 243.673043 
L 218.123636 239.265391 
L 230.147879 245.87687 
L 242.172121 212.819478 
L 254.196364 241.469217 
L 266.220606 250.284522 
L 278.244848 250.284522 
L 290.269091 254.692174 
L 302.293333 190.781217 
L 314.317576 215.023304 
L 326.341818 226.042435 
L 338.366061 215.023304 
L 350.390303 221.634783 
L 362.414545 254.692174 
L 374.438788 265.711304 
L 386.46303 234.857739 
L 398.487273 245.87687 
L 398.487273 241.469217 
L 398.487273 241.469217 
L 386.46303 230.450087 
L 374.438788 261.303652 
L 362.414545 250.284522 
L 350.390303 217.22713 
L 338.366061 210.615652 
L 326.341818 221.634783 
L 314.317576 210.615652 
L 302.293333 181.965913 
L 290.269091 228.246261 
L 278.244848 206.208 
L 266.220606 221.634783 
L 254.196364 226.042435 
L 242.172121 199.596522 
L 230.147879 241.469217 
L 218.123636 234.857739 
L 206.099394 239.265391 
L 194.075152 239.265391 
L 182.050909 226.042435 
L 170.026667 166.53913 
L 158.002424 208.411826 
L 145.978182 221.634783 
L 133.953939 190.781217 
L 121.929697 107.035826 
L 109.905455 87.201391 
L 97.881212 87.201391 
L 85.85697 87.201391 
L 73.832727 87.201391 
z
" style="fill:#2ca02c;"/>
   </g>
   <g id="PolyCollection_14">
    <path clip-path="url(#p430a567bc8)" d="M 73.832727 87.201391 
L 73.832727 87.201391 
L 85.85697 87.201391 
L 97.881212 87.201391 
L 109.905455 87.201391 
L 121.929697 107.035826 
L 133.953939 190.781217 
L 145.978182 221.634783 
L 158.002424 208.411826 
L 170.026667 166.53913 
L 182.050909 226.042435 
L 194.075152 239.265391 
L 206.099394 239.265391 
L 218.123636 234.857739 
L 230.147879 241.469217 
L 242.172121 199.596522 
L 254.196364 226.042435 
L 266.220606 221.634783 
L 278.244848 206.208 
L 290.269091 228.246261 
L 302.293333 181.965913 
L 314.317576 210.615652 
L 326.341818 221.634783 
L 338.366061 210.615652 
L 350.390303 217.22713 
L 362.414545 250.284522 
L 374.438788 261.303652 
L 386.46303 230.450087 
L 398.487273 241.469217 
L 398.487273 230.450087 
L 398.487273 230.450087 
L 386.46303 210.615652 
L 374.438788 219.430957 
L 362.414545 232.653913 
L 350.390303 212.819478 
L 338.366061 206.208 
L 326.341818 217.22713 
L 314.317576 206.208 
L 302.293333 177.558261 
L 290.269091 223.838609 
L 278.244848 201.800348 
L 266.220606 217.22713 
L 254.196364 221.634783 
L 242.172121 195.18887 
L 230.147879 237.061565 
L 218.123636 230.450087 
L 206.099394 234.857739 
L 194.075152 232.653913 
L 182.050909 221.634783 
L 170.026667 162.131478 
L 158.002424 204.004174 
L 145.978182 217.22713 
L 133.953939 186.373565 
L 121.929697 102.628174 
L 109.905455 87.201391 
L 97.881212 87.201391 
L 85.85697 87.201391 
L 73.832727 87.201391 
z
" style="fill:#d62728;"/>
   </g>
   <g id="PolyCollection_15">
    <path clip-path="url(#p430a567bc8)" d="M 73.832727 87.201391 
L 73.832727 87.201391 
L 85.85697 87.201391 
L 97.881212 87.201391 
L 109.905455 87.201391 
L 121.929697 102.628174 
L 133.953939 186.373565 
L 145.978182 217.22713 
L 158.002424 204.004174 
L 170.026667 162.131478 
L 182.050909 221.634783 
L 194.075152 232.653913 
L 206.099394 234.857739 
L 218.123636 230.450087 
L 230.147879 237.061565 
L 242.172121 195.18887 
L 254.196364 221.634783 
L 266.220606 217.22713 
L 278.244848 201.800348 
L 290.269091 223.838609 
L 302.293333 177.558261 
L 314.317576 206.208 
L 326.341818 217.22713 
L 338.366061 206.208 
L 350.390303 212.819478 
L 362.414545 232.653913 
L 374.438788 219.430957 
L 386.46303 210.615652 
L 398.487273 230.450087 
L 398.487273 226.042435 
L 398.487273 226.042435 
L 386.46303 206.208 
L 374.438788 215.023304 
L 362.414545 228.246261 
L 350.390303 208.411826 
L 338.366061 201.800348 
L 326.341818 212.819478 
L 314.317576 201.800348 
L 302.293333 173.150609 
L 290.269091 219.430957 
L 278.244848 190.781217 
L 266.220606 195.18887 
L 254.196364 188.577391 
L 242.172121 190.781217 
L 230.147879 232.653913 
L 218.123636 226.042435 
L 206.099394 230.450087 
L 194.075152 228.246261 
L 182.050909 217.22713 
L 170.026667 157.723826 
L 158.002424 197.392696 
L 145.978182 212.819478 
L 133.953939 179.762087 
L 121.929697 89.405217 
L 109.905455 87.201391 
L 97.881212 87.201391 
L 85.85697 87.201391 
L 73.832727 87.201391 
z
" style="fill:#9467bd;"/>
   </g>
   <g id="PolyCollection_16">
    <path clip-path="url(#p430a567bc8)" d="M 73.832727 87.201391 
L 73.832727 87.201391 
L 85.85697 87.201391 
L 97.881212 87.201391 
L 109.905455 87.201391 
L 121.929697 89.405217 
L 133.953939 179.762087 
L 145.978182 212.819478 
L 158.002424 197.392696 
L 170.026667 157.723826 
L 182.050909 217.22713 
L 194.075152 228.246261 
L 206.099394 230.450087 
L 218.123636 226.042435 
L 230.147879 232.653913 
L 242.172121 190.781217 
L 254.196364 188.577391 
L 266.220606 195.18887 
L 278.244848 190.781217 
L 290.269091 219.430957 
L 302.293333 173.150609 
L 314.317576 201.800348 
L 326.341818 212.819478 
L 338.366061 201.800348 
L 350.390303 208.411826 
L 362.414545 228.246261 
L 374.438788 215.023304 
L 386.46303 206.208 
L 398.487273 226.042435 
L 398.487273 221.634783 
L 398.487273 221.634783 
L 386.46303 201.800348 
L 374.438788 204.004174 
L 362.414545 223.838609 
L 350.390303 204.004174 
L 338.366061 197.392696 
L 326.341818 208.411826 
L 314.317576 197.392696 
L 302.293333 168.742957 
L 290.269091 215.023304 
L 278.244848 186.373565 
L 266.220606 190.781217 
L 254.196364 184.169739 
L 242.172121 186.373565 
L 230.147879 228.246261 
L 218.123636 221.634783 
L 206.099394 226.042435 
L 194.075152 223.838609 
L 182.050909 212.819478 
L 170.026667 153.316174 
L 158.002424 190.781217 
L 145.978182 208.411826 
L 133.953939 175.354435 
L 121.929697 87.201391 
L 109.905455 87.201391 
L 97.881212 87.201391 
L 85.85697 87.201391 
L 73.832727 87.201391 
z
" style="fill:#8c564b;"/>
   </g>
   <g id="PolyCollection_17">
    <path clip-path="url(#p430a567bc8)" d="M 73.832727 87.201391 
L 73.832727 87.201391 
L 85.85697 87.201391 
L 97.881212 87.201391 
L 109.905455 87.201391 
L 121.929697 87.201391 
L 133.953939 175.354435 
L 145.978182 208.411826 
L 158.002424 190.781217 
L 170.026667 153.316174 
L 182.050909 212.819478 
L 194.075152 223.838609 
L 206.099394 226.042435 
L 218.123636 221.634783 
L 230.147879 228.246261 
L 242.172121 186.373565 
L 254.196364 184.169739 
L 266.220606 190.781217 
L 278.244848 186.373565 
L 290.269091 215.023304 
L 302.293333 168.742957 
L 314.317576 197.392696 
L 326.341818 208.411826 
L 338.366061 197.392696 
L 350.390303 204.004174 
L 362.414545 223.838609 
L 374.438788 204.004174 
L 386.46303 201.800348 
L 398.487273 221.634783 
L 398.487273 217.22713 
L 398.487273 217.22713 
L 386.46303 197.392696 
L 374.438788 199.596522 
L 362.414545 219.430957 
L 350.390303 199.596522 
L 338.366061 192.985043 
L 326.341818 204.004174 
L 314.317576 192.985043 
L 302.293333 164.335304 
L 290.269091 210.615652 
L 278.244848 181.965913 
L 266.220606 186.373565 
L 254.196364 179.762087 
L 242.172121 181.965913 
L 230.147879 223.838609 
L 218.123636 217.22713 
L 206.099394 221.634783 
L 194.075152 219.430957 
L 182.050909 208.411826 
L 170.026667 148.908522 
L 158.002424 186.373565 
L 145.978182 204.004174 
L 133.953939 170.946783 
L 121.929697 87.201391 
L 109.905455 87.201391 
L 97.881212 87.201391 
L 85.85697 87.201391 
L 73.832727 87.201391 
z
" style="fill:#e377c2;"/>
   </g>
   <g id="PolyCollection_18">
    <path clip-path="url(#p430a567bc8)" d="M 73.832727 87.201391 
L 73.832727 87.201391 
L 85.85697 87.201391 
L 97.881212 87.201391 
L 109.905455 87.201391 
L 121.929697 87.201391 
L 133.953939 170.946783 
L 145.978182 204.004174 
L 158.002424 186.373565 
L 170.026667 148.908522 
L 182.050909 208.411826 
L 194.075152 219.430957 
L 206.099394 221.634783 
L 218.123636 217.22713 
L 230.147879 223.838609 
L 242.172121 181.965913 
L 254.196364 179.762087 
L 266.220606 186.373565 
L 278.244848 181.965913 
L 290.269091 210.615652 
L 302.293333 164.335304 
L 314.317576 192.985043 
L 326.341818 204.004174 
L 338.366061 192.985043 
L 350.390303 199.596522 
L 362.414545 219.430957 
L 374.438788 199.596522 
L 386.46303 197.392696 
L 398.487273 217.22713 
L 398.487273 212.819478 
L 398.487273 212.819478 
L 386.46303 192.985043 
L 374.438788 195.18887 
L 362.414545 215.023304 
L 350.390303 195.18887 
L 338.366061 188.577391 
L 326.341818 199.596522 
L 314.317576 181.965913 
L 302.293333 159.927652 
L 290.269091 206.208 
L 278.244848 177.558261 
L 266.220606 181.965913 
L 254.196364 175.354435 
L 242.172121 177.558261 
L 230.147879 219.430957 
L 218.123636 208.411826 
L 206.099394 201.800348 
L 194.075152 215.023304 
L 182.050909 204.004174 
L 170.026667 144.50087 
L 158.002424 181.965913 
L 145.978182 199.596522 
L 133.953939 164.335304 
L 121.929697 87.201391 
L 109.905455 87.201391 
L 97.881212 87.201391 
L 85.85697 87.201391 
L 73.832727 87.201391 
z
" style="fill:#7f7f7f;"/>
   </g>
   <g id="PolyCollection_19">
    <path clip-path="url(#p430a567bc8)" d="M 73.832727 87.201391 
L 73.832727 87.201391 
L 85.85697 87.201391 
L 97.881212 87.201391 
L 109.905455 87.201391 
L 121.929697 87.201391 
L 133.953939 164.335304 
L 145.978182 199.596522 
L 158.002424 181.965913 
L 170.026667 144.50087 
L 182.050909 204.004174 
L 194.075152 215.023304 
L 206.099394 201.800348 
L 218.123636 208.411826 
L 230.147879 219.430957 
L 242.172121 177.558261 
L 254.196364 175.354435 
L 266.220606 181.965913 
L 278.244848 177.558261 
L 290.269091 206.208 
L 302.293333 159.927652 
L 314.317576 181.965913 
L 326.341818 199.596522 
L 338.366061 188.577391 
L 350.390303 195.18887 
L 362.414545 215.023304 
L 374.438788 195.18887 
L 386.46303 192.985043 
L 398.487273 212.819478 
L 398.487273 208.411826 
L 398.487273 208.411826 
L 386.46303 188.577391 
L 374.438788 190.781217 
L 362.414545 210.615652 
L 350.390303 190.781217 
L 338.366061 184.169739 
L 326.341818 195.18887 
L 314.317576 177.558261 
L 302.293333 148.908522 
L 290.269091 181.965913 
L 278.244848 166.53913 
L 266.220606 177.558261 
L 254.196364 170.946783 
L 242.172121 173.150609 
L 230.147879 215.023304 
L 218.123636 204.004174 
L 206.099394 197.392696 
L 194.075152 210.615652 
L 182.050909 201.800348 
L 170.026667 137.889391 
L 158.002424 170.946783 
L 145.978182 184.169739 
L 133.953939 137.889391 
L 121.929697 87.201391 
L 109.905455 87.201391 
L 97.881212 87.201391 
L 85.85697 87.201391 
L 73.832727 87.201391 
z
" style="fill:#bcbd22;"/>
   </g>
   <g id="PolyCollection_20">
    <path clip-path="url(#p430a567bc8)" d="M 73.832727 87.201391 
L 73.832727 87.201391 
L 85.85697 87.201391 
L 97.881212 87.201391 
L 109.905455 87.201391 
L 121.929697 87.201391 
L 133.953939 137.889391 
L 145.978182 184.169739 
L 158.002424 170.946783 
L 170.026667 137.889391 
L 182.050909 201.800348 
L 194.075152 210.615652 
L 206.099394 197.392696 
L 218.123636 204.004174 
L 230.147879 215.023304 
L 242.172121 173.150609 
L 254.196364 170.946783 
L 266.220606 177.558261 
L 278.244848 166.53913 
L 290.269091 181.965913 
L 302.293333 148.908522 
L 314.317576 177.558261 
L 326.341818 195.18887 
L 338.366061 184.169739 
L 350.390303 190.781217 
L 362.414545 210.615652 
L 374.438788 190.781217 
L 386.46303 188.577391 
L 398.487273 208.411826 
L 398.487273 208.411826 
L 398.487273 208.411826 
L 386.46303 188.577391 
L 374.438788 186.373565 
L 362.414545 206.208 
L 350.390303 186.373565 
L 338.366061 179.762087 
L 326.341818 190.781217 
L 314.317576 173.150609 
L 302.293333 144.50087 
L 290.269091 177.558261 
L 278.244848 162.131478 
L 266.220606 173.150609 
L 254.196364 166.53913 
L 242.172121 168.742957 
L 230.147879 210.615652 
L 218.123636 199.596522 
L 206.099394 192.985043 
L 194.075152 206.208 
L 182.050909 197.392696 
L 170.026667 131.277913 
L 158.002424 157.723826 
L 145.978182 157.723826 
L 133.953939 104.832 
L 121.929697 87.201391 
L 109.905455 87.201391 
L 97.881212 87.201391 
L 85.85697 87.201391 
L 73.832727 87.201391 
z
" style="fill:#17becf;"/>
   </g>
   <g id="PolyCollection_21">
    <path clip-path="url(#p430a567bc8)" d="M 73.832727 87.201391 
L 73.832727 87.201391 
L 85.85697 87.201391 
L 97.881212 87.201391 
L 109.905455 87.201391 
L 121.929697 87.201391 
L 133.953939 104.832 
L 145.978182 157.723826 
L 158.002424 157.723826 
L 170.026667 131.277913 
L 182.050909 197.392696 
L 194.075152 206.208 
L 206.099394 192.985043 
L 218.123636 199.596522 
L 230.147879 210.615652 
L 242.172121 168.742957 
L 254.196364 166.53913 
L 266.220606 173.150609 
L 278.244848 162.131478 
L 290.269091 177.558261 
L 302.293333 144.50087 
L 314.317576 173.150609 
L 326.341818 190.781217 
L 338.366061 179.762087 
L 350.390303 186.373565 
L 362.414545 206.208 
L 374.438788 186.373565 
L 386.46303 188.577391 
L 398.487273 208.411826 
L 398.487273 204.004174 
L 398.487273 204.004174 
L 386.46303 184.169739 
L 374.438788 181.965913 
L 362.414545 201.800348 
L 350.390303 181.965913 
L 338.366061 175.354435 
L 326.341818 186.373565 
L 314.317576 168.742957 
L 302.293333 140.093217 
L 290.269091 173.150609 
L 278.244848 157.723826 
L 266.220606 168.742957 
L 254.196364 162.131478 
L 242.172121 164.335304 
L 230.147879 206.208 
L 218.123636 195.18887 
L 206.099394 188.577391 
L 194.075152 201.800348 
L 182.050909 192.985043 
L 170.026667 126.870261 
L 158.002424 153.316174 
L 145.978182 153.316174 
L 133.953939 102.628174 
L 121.929697 87.201391 
L 109.905455 87.201391 
L 97.881212 87.201391 
L 85.85697 87.201391 
L 73.832727 87.201391 
z
" style="fill:#1f77b4;"/>
   </g>
   <g id="PolyCollection_22">
    <path clip-path="url(#p430a567bc8)" d="M 73.832727 87.201391 
L 73.832727 87.201391 
L 85.85697 87.201391 
L 97.881212 87.201391 
L 109.905455 87.201391 
L 121.929697 87.201391 
L 133.953939 102.628174 
L 145.978182 153.316174 
L 158.002424 153.316174 
L 170.026667 126.870261 
L 182.050909 192.985043 
L 194.075152 201.800348 
L 206.099394 188.577391 
L 218.123636 195.18887 
L 230.147879 206.208 
L 242.172121 164.335304 
L 254.196364 162.131478 
L 266.220606 168.742957 
L 278.244848 157.723826 
L 290.269091 173.150609 
L 302.293333 140.093217 
L 314.317576 168.742957 
L 326.341818 186.373565 
L 338.366061 175.354435 
L 350.390303 181.965913 
L 362.414545 201.800348 
L 374.438788 181.965913 
L 386.46303 184.169739 
L 398.487273 204.004174 
L 398.487273 199.596522 
L 398.487273 199.596522 
L 386.46303 179.762087 
L 374.438788 177.558261 
L 362.414545 197.392696 
L 350.390303 177.558261 
L 338.366061 170.946783 
L 326.341818 181.965913 
L 314.317576 164.335304 
L 302.293333 135.685565 
L 290.269091 168.742957 
L 278.244848 153.316174 
L 266.220606 164.335304 
L 254.196364 157.723826 
L 242.172121 159.927652 
L 230.147879 201.800348 
L 218.123636 186.373565 
L 206.099394 173.150609 
L 194.075152 166.53913 
L 182.050909 188.577391 
L 170.026667 122.462609 
L 158.002424 148.908522 
L 145.978182 151.112348 
L 133.953939 91.609043 
L 121.929697 87.201391 
L 109.905455 87.201391 
L 97.881212 87.201391 
L 85.85697 87.201391 
L 73.832727 87.201391 
z
" style="fill:#ff7f0e;"/>
   </g>
   <g id="PolyCollection_23">
    <path clip-path="url(#p430a567bc8)" d="M 73.832727 87.201391 
L 73.832727 87.201391 
L 85.85697 87.201391 
L 97.881212 87.201391 
L 109.905455 87.201391 
L 121.929697 87.201391 
L 133.953939 91.609043 
L 145.978182 151.112348 
L 158.002424 148.908522 
L 170.026667 122.462609 
L 182.050909 188.577391 
L 194.075152 166.53913 
L 206.099394 173.150609 
L 218.123636 186.373565 
L 230.147879 201.800348 
L 242.172121 159.927652 
L 254.196364 157.723826 
L 266.220606 164.335304 
L 278.244848 153.316174 
L 290.269091 168.742957 
L 302.293333 135.685565 
L 314.317576 164.335304 
L 326.341818 181.965913 
L 338.366061 170.946783 
L 350.390303 177.558261 
L 362.414545 197.392696 
L 374.438788 177.558261 
L 386.46303 179.762087 
L 398.487273 199.596522 
L 398.487273 195.18887 
L 398.487273 195.18887 
L 386.46303 175.354435 
L 374.438788 173.150609 
L 362.414545 192.985043 
L 350.390303 173.150609 
L 338.366061 166.53913 
L 326.341818 177.558261 
L 314.317576 159.927652 
L 302.293333 131.277913 
L 290.269091 164.335304 
L 278.244848 148.908522 
L 266.220606 159.927652 
L 254.196364 146.704696 
L 242.172121 137.889391 
L 230.147879 186.373565 
L 218.123636 153.316174 
L 206.099394 168.742957 
L 194.075152 162.131478 
L 182.050909 184.169739 
L 170.026667 118.054957 
L 158.002424 142.297043 
L 145.978182 146.704696 
L 133.953939 82.793739 
L 121.929697 87.201391 
L 109.905455 87.201391 
L 97.881212 87.201391 
L 85.85697 87.201391 
L 73.832727 87.201391 
z
" style="fill:#2ca02c;"/>
   </g>
   <g id="PolyCollection_24">
    <path clip-path="url(#p430a567bc8)" d="M 73.832727 87.201391 
L 73.832727 87.201391 
L 85.85697 87.201391 
L 97.881212 87.201391 
L 109.905455 87.201391 
L 121.929697 87.201391 
L 133.953939 82.793739 
L 145.978182 146.704696 
L 158.002424 142.297043 
L 170.026667 118.054957 
L 182.050909 184.169739 
L 194.075152 162.131478 
L 206.099394 168.742957 
L 218.123636 153.316174 
L 230.147879 186.373565 
L 242.172121 137.889391 
L 254.196364 146.704696 
L 266.220606 159.927652 
L 278.244848 148.908522 
L 290.269091 164.335304 
L 302.293333 131.277913 
L 314.317576 159.927652 
L 326.341818 177.558261 
L 338.366061 166.53913 
L 350.390303 173.150609 
L 362.414545 192.985043 
L 374.438788 173.150609 
L 386.46303 175.354435 
L 398.487273 195.18887 
L 398.487273 177.558261 
L 398.487273 177.558261 
L 386.46303 170.946783 
L 374.438788 168.742957 
L 362.414545 188.577391 
L 350.390303 168.742957 
L 338.366061 162.131478 
L 326.341818 173.150609 
L 314.317576 155.52 
L 302.293333 126.870261 
L 290.269091 159.927652 
L 278.244848 144.50087 
L 266.220606 155.52 
L 254.196364 142.297043 
L 242.172121 133.481739 
L 230.147879 181.965913 
L 218.123636 148.908522 
L 206.099394 164.335304 
L 194.075152 157.723826 
L 182.050909 179.762087 
L 170.026667 113.647304 
L 158.002424 137.889391 
L 145.978182 142.297043 
L 133.953939 82.793739 
L 121.929697 87.201391 
L 109.905455 87.201391 
L 97.881212 87.201391 
L 85.85697 87.201391 
L 73.832727 87.201391 
z
" style="fill:#d62728;"/>
   </g>
   <g id="PolyCollection_25">
    <path clip-path="url(#p430a567bc8)" d="M 73.832727 87.201391 
L 73.832727 87.201391 
L 85.85697 87.201391 
L 97.881212 87.201391 
L 109.905455 87.201391 
L 121.929697 87.201391 
L 133.953939 82.793739 
L 145.978182 142.297043 
L 158.002424 137.889391 
L 170.026667 113.647304 
L 182.050909 179.762087 
L 194.075152 157.723826 
L 206.099394 164.335304 
L 218.123636 148.908522 
L 230.147879 181.965913 
L 242.172121 133.481739 
L 254.196364 142.297043 
L 266.220606 155.52 
L 278.244848 144.50087 
L 290.269091 159.927652 
L 302.293333 126.870261 
L 314.317576 155.52 
L 326.341818 173.150609 
L 338.366061 162.131478 
L 350.390303 168.742957 
L 362.414545 188.577391 
L 374.438788 168.742957 
L 386.46303 170.946783 
L 398.487273 177.558261 
L 398.487273 173.150609 
L 398.487273 173.150609 
L 386.46303 166.53913 
L 374.438788 164.335304 
L 362.414545 184.169739 
L 350.390303 164.335304 
L 338.366061 157.723826 
L 326.341818 168.742957 
L 314.317576 148.908522 
L 302.293333 122.462609 
L 290.269091 155.52 
L 278.244848 140.093217 
L 266.220606 151.112348 
L 254.196364 137.889391 
L 242.172121 129.074087 
L 230.147879 177.558261 
L 218.123636 144.50087 
L 206.099394 159.927652 
L 194.075152 151.112348 
L 182.050909 175.354435 
L 170.026667 109.239652 
L 158.002424 133.481739 
L 145.978182 140.093217 
L 133.953939 82.793739 
L 121.929697 87.201391 
L 109.905455 87.201391 
L 97.881212 87.201391 
L 85.85697 87.201391 
L 73.832727 87.201391 
z
" style="fill:#9467bd;"/>
   </g>
   <g id="PolyCollection_26">
    <path clip-path="url(#p430a567bc8)" d="M 73.832727 87.201391 
L 73.832727 87.201391 
L 85.85697 87.201391 
L 97.881212 87.201391 
L 109.905455 87.201391 
L 121.929697 87.201391 
L 133.953939 82.793739 
L 145.978182 140.093217 
L 158.002424 133.481739 
L 170.026667 109.239652 
L 182.050909 175.354435 
L 194.075152 151.112348 
L 206.099394 159.927652 
L 218.123636 144.50087 
L 230.147879 177.558261 
L 242.172121 129.074087 
L 254.196364 137.889391 
L 266.220606 151.112348 
L 278.244848 140.093217 
L 290.269091 155.52 
L 302.293333 122.462609 
L 314.317576 148.908522 
L 326.341818 168.742957 
L 338.366061 157.723826 
L 350.390303 164.335304 
L 362.414545 184.169739 
L 374.438788 164.335304 
L 386.46303 166.53913 
L 398.487273 173.150609 
L 398.487273 168.742957 
L 398.487273 168.742957 
L 386.46303 162.131478 
L 374.438788 159.927652 
L 362.414545 179.762087 
L 350.390303 159.927652 
L 338.366061 153.316174 
L 326.341818 164.335304 
L 314.317576 144.50087 
L 302.293333 118.054957 
L 290.269091 151.112348 
L 278.244848 135.685565 
L 266.220606 146.704696 
L 254.196364 133.481739 
L 242.172121 124.666435 
L 230.147879 173.150609 
L 218.123636 140.093217 
L 206.099394 155.52 
L 194.075152 146.704696 
L 182.050909 170.946783 
L 170.026667 104.832 
L 158.002424 129.074087 
L 145.978182 135.685565 
L 133.953939 82.793739 
L 121.929697 87.201391 
L 109.905455 87.201391 
L 97.881212 87.201391 
L 85.85697 87.201391 
L 73.832727 87.201391 
z
" style="fill:#8c564b;"/>
   </g>
   <g id="PolyCollection_27">
    <path clip-path="url(#p430a567bc8)" d="M 73.832727 87.201391 
L 73.832727 87.201391 
L 85.85697 87.201391 
L 97.881212 87.201391 
L 109.905455 87.201391 
L 121.929697 87.201391 
L 133.953939 82.793739 
L 145.978182 135.685565 
L 158.002424 129.074087 
L 170.026667 104.832 
L 182.050909 170.946783 
L 194.075152 146.704696 
L 206.099394 155.52 
L 218.123636 140.093217 
L 230.147879 173.150609 
L 242.172121 124.666435 
L 254.196364 133.481739 
L 266.220606 146.704696 
L 278.244848 135.685565 
L 290.269091 151.112348 
L 302.293333 118.054957 
L 314.317576 144.50087 
L 326.341818 164.335304 
L 338.366061 153.316174 
L 350.390303 159.927652 
L 362.414545 179.762087 
L 374.438788 159.927652 
L 386.46303 162.131478 
L 398.487273 168.742957 
L 398.487273 164.335304 
L 398.487273 164.335304 
L 386.46303 157.723826 
L 374.438788 155.52 
L 362.414545 175.354435 
L 350.390303 155.52 
L 338.366061 148.908522 
L 326.341818 159.927652 
L 314.317576 140.093217 
L 302.293333 115.85113 
L 290.269091 144.50087 
L 278.244848 115.85113 
L 266.220606 100.424348 
L 254.196364 100.424348 
L 242.172121 120.258783 
L 230.147879 168.742957 
L 218.123636 135.685565 
L 206.099394 151.112348 
L 194.075152 140.093217 
L 182.050909 166.53913 
L 170.026667 100.424348 
L 158.002424 124.666435 
L 145.978182 133.481739 
L 133.953939 82.793739 
L 121.929697 87.201391 
L 109.905455 87.201391 
L 97.881212 87.201391 
L 85.85697 87.201391 
L 73.832727 87.201391 
z
" style="fill:#e377c2;"/>
   </g>
   <g id="PolyCollection_28">
    <path clip-path="url(#p430a567bc8)" d="M 73.832727 87.201391 
L 73.832727 87.201391 
L 85.85697 87.201391 
L 97.881212 87.201391 
L 109.905455 87.201391 
L 121.929697 87.201391 
L 133.953939 82.793739 
L 145.978182 133.481739 
L 158.002424 124.666435 
L 170.026667 100.424348 
L 182.050909 166.53913 
L 194.075152 140.093217 
L 206.099394 151.112348 
L 218.123636 135.685565 
L 230.147879 168.742957 
L 242.172121 120.258783 
L 254.196364 100.424348 
L 266.220606 100.424348 
L 278.244848 115.85113 
L 290.269091 144.50087 
L 302.293333 115.85113 
L 314.317576 140.093217 
L 326.341818 159.927652 
L 338.366061 148.908522 
L 350.390303 155.52 
L 362.414545 175.354435 
L 374.438788 155.52 
L 386.46303 157.723826 
L 398.487273 164.335304 
L 398.487273 126.870261 
L 398.487273 126.870261 
L 386.46303 131.277913 
L 374.438788 135.685565 
L 362.414545 153.316174 
L 350.390303 122.462609 
L 338.366061 118.054957 
L 326.341818 155.52 
L 314.317576 135.685565 
L 302.293333 111.443478 
L 290.269091 140.093217 
L 278.244848 111.443478 
L 266.220606 96.016696 
L 254.196364 96.016696 
L 242.172121 115.85113 
L 230.147879 164.335304 
L 218.123636 129.074087 
L 206.099394 137.889391 
L 194.075152 133.481739 
L 182.050909 157.723826 
L 170.026667 84.997565 
L 158.002424 78.386087 
L 145.978182 78.386087 
L 133.953939 82.793739 
L 121.929697 87.201391 
L 109.905455 87.201391 
L 97.881212 87.201391 
L 85.85697 87.201391 
L 73.832727 87.201391 
z
" style="fill:#7f7f7f;"/>
   </g>
   <g id="PolyCollection_29">
    <path clip-path="url(#p430a567bc8)" d="M 73.832727 87.201391 
L 73.832727 87.201391 
L 85.85697 87.201391 
L 97.881212 87.201391 
L 109.905455 87.201391 
L 121.929697 87.201391 
L 133.953939 82.793739 
L 145.978182 78.386087 
L 158.002424 78.386087 
L 170.026667 84.997565 
L 182.050909 157.723826 
L 194.075152 133.481739 
L 206.099394 137.889391 
L 218.123636 129.074087 
L 230.147879 164.335304 
L 242.172121 115.85113 
L 254.196364 96.016696 
L 266.220606 96.016696 
L 278.244848 111.443478 
L 290.269091 140.093217 
L 302.293333 111.443478 
L 314.317576 135.685565 
L 326.341818 155.52 
L 338.366061 118.054957 
L 350.390303 122.462609 
L 362.414545 153.316174 
L 374.438788 135.685565 
L 386.46303 131.277913 
L 398.487273 126.870261 
L 398.487273 122.462609 
L 398.487273 122.462609 
L 386.46303 126.870261 
L 374.438788 131.277913 
L 362.414545 148.908522 
L 350.390303 118.054957 
L 338.366061 113.647304 
L 326.341818 151.112348 
L 314.317576 131.277913 
L 302.293333 107.035826 
L 290.269091 135.685565 
L 278.244848 107.035826 
L 266.220606 91.609043 
L 254.196364 91.609043 
L 242.172121 111.443478 
L 230.147879 155.52 
L 218.123636 115.85113 
L 206.099394 122.462609 
L 194.075152 100.424348 
L 182.050909 91.609043 
L 170.026667 80.589913 
L 158.002424 78.386087 
L 145.978182 78.386087 
L 133.953939 82.793739 
L 121.929697 87.201391 
L 109.905455 87.201391 
L 97.881212 87.201391 
L 85.85697 87.201391 
L 73.832727 87.201391 
z
" style="fill:#bcbd22;"/>
   </g>
   <g id="PolyCollection_30">
    <path clip-path="url(#p430a567bc8)" d="M 73.832727 87.201391 
L 73.832727 87.201391 
L 85.85697 87.201391 
L 97.881212 87.201391 
L 109.905455 87.201391 
L 121.929697 87.201391 
L 133.953939 82.793739 
L 145.978182 78.386087 
L 158.002424 78.386087 
L 170.026667 80.589913 
L 182.050909 91.609043 
L 194.075152 100.424348 
L 206.099394 122.462609 
L 218.123636 115.85113 
L 230.147879 155.52 
L 242.172121 111.443478 
L 254.196364 91.609043 
L 266.220606 91.609043 
L 278.244848 107.035826 
L 290.269091 135.685565 
L 302.293333 107.035826 
L 314.317576 131.277913 
L 326.341818 151.112348 
L 338.366061 113.647304 
L 350.390303 118.054957 
L 362.414545 148.908522 
L 374.438788 131.277913 
L 386.46303 126.870261 
L 398.487273 122.462609 
L 398.487273 107.035826 
L 398.487273 107.035826 
L 386.46303 100.424348 
L 374.438788 111.443478 
L 362.414545 107.035826 
L 350.390303 111.443478 
L 338.366061 102.628174 
L 326.341818 126.870261 
L 314.317576 126.870261 
L 302.293333 102.628174 
L 290.269091 131.277913 
L 278.244848 102.628174 
L 266.220606 87.201391 
L 254.196364 87.201391 
L 242.172121 107.035826 
L 230.147879 151.112348 
L 218.123636 111.443478 
L 206.099394 118.054957 
L 194.075152 93.81287 
L 182.050909 87.201391 
L 170.026667 78.386087 
L 158.002424 78.386087 
L 145.978182 78.386087 
L 133.953939 82.793739 
L 121.929697 87.201391 
L 109.905455 87.201391 
L 97.881212 87.201391 
L 85.85697 87.201391 
L 73.832727 87.201391 
z
" style="fill:#17becf;"/>
   </g>
   <g id="PolyCollection_31">
    <path clip-path="url(#p430a567bc8)" d="M 73.832727 87.201391 
L 73.832727 87.201391 
L 85.85697 87.201391 
L 97.881212 87.201391 
L 109.905455 87.201391 
L 121.929697 87.201391 
L 133.953939 82.793739 
L 145.978182 78.386087 
L 158.002424 78.386087 
L 170.026667 78.386087 
L 182.050909 87.201391 
L 194.075152 93.81287 
L 206.099394 118.054957 
L 218.123636 111.443478 
L 230.147879 151.112348 
L 242.172121 107.035826 
L 254.196364 87.201391 
L 266.220606 87.201391 
L 278.244848 102.628174 
L 290.269091 131.277913 
L 302.293333 102.628174 
L 314.317576 126.870261 
L 326.341818 126.870261 
L 338.366061 102.628174 
L 350.390303 111.443478 
L 362.414545 107.035826 
L 374.438788 111.443478 
L 386.46303 100.424348 
L 398.487273 107.035826 
L 398.487273 102.628174 
L 398.487273 102.628174 
L 386.46303 96.016696 
L 374.438788 104.832 
L 362.414545 93.81287 
L 350.390303 107.035826 
L 338.366061 98.220522 
L 326.341818 122.462609 
L 314.317576 122.462609 
L 302.293333 98.220522 
L 290.269091 126.870261 
L 278.244848 98.220522 
L 266.220606 82.793739 
L 254.196364 82.793739 
L 242.172121 102.628174 
L 230.147879 146.704696 
L 218.123636 107.035826 
L 206.099394 113.647304 
L 194.075152 89.405217 
L 182.050909 84.997565 
L 170.026667 78.386087 
L 158.002424 78.386087 
L 145.978182 78.386087 
L 133.953939 82.793739 
L 121.929697 87.201391 
L 109.905455 87.201391 
L 97.881212 87.201391 
L 85.85697 87.201391 
L 73.832727 87.201391 
z
" style="fill:#1f77b4;"/>
   </g>
   <g id="PolyCollection_32">
    <path clip-path="url(#p430a567bc8)" d="M 73.832727 87.201391 
L 73.832727 87.201391 
L 85.85697 87.201391 
L 97.881212 87.201391 
L 109.905455 87.201391 
L 121.929697 87.201391 
L 133.953939 82.793739 
L 145.978182 78.386087 
L 158.002424 78.386087 
L 170.026667 78.386087 
L 182.050909 84.997565 
L 194.075152 89.405217 
L 206.099394 113.647304 
L 218.123636 107.035826 
L 230.147879 146.704696 
L 242.172121 102.628174 
L 254.196364 82.793739 
L 266.220606 82.793739 
L 278.244848 98.220522 
L 290.269091 126.870261 
L 302.293333 98.220522 
L 314.317576 122.462609 
L 326.341818 122.462609 
L 338.366061 98.220522 
L 350.390303 107.035826 
L 362.414545 93.81287 
L 374.438788 104.832 
L 386.46303 96.016696 
L 398.487273 102.628174 
L 398.487273 98.220522 
L 398.487273 98.220522 
L 386.46303 91.609043 
L 374.438788 100.424348 
L 362.414545 84.997565 
L 350.390303 91.609043 
L 338.366061 84.997565 
L 326.341818 91.609043 
L 314.317576 118.054957 
L 302.293333 93.81287 
L 290.269091 122.462609 
L 278.244848 93.81287 
L 266.220606 78.386087 
L 254.196364 78.386087 
L 242.172121 93.81287 
L 230.147879 131.277913 
L 218.123636 102.628174 
L 206.099394 109.239652 
L 194.075152 82.793739 
L 182.050909 71.774609 
L 170.026667 78.386087 
L 158.002424 78.386087 
L 145.978182 78.386087 
L 133.953939 82.793739 
L 121.929697 87.201391 
L 109.905455 87.201391 
L 97.881212 87.201391 
L 85.85697 87.201391 
L 73.832727 87.201391 
z
" style="fill:#ff7f0e;"/>
   </g>
   <g id="PolyCollection_33">
    <path clip-path="url(#p430a567bc8)" d="M 73.832727 87.201391 
L 73.832727 87.201391 
L 85.85697 87.201391 
L 97.881212 87.201391 
L 109.905455 87.201391 
L 121.929697 87.201391 
L 133.953939 82.793739 
L 145.978182 78.386087 
L 158.002424 78.386087 
L 170.026667 78.386087 
L 182.050909 71.774609 
L 194.075152 82.793739 
L 206.099394 109.239652 
L 218.123636 102.628174 
L 230.147879 131.277913 
L 242.172121 93.81287 
L 254.196364 78.386087 
L 266.220606 78.386087 
L 278.244848 93.81287 
L 290.269091 122.462609 
L 302.293333 93.81287 
L 314.317576 118.054957 
L 326.341818 91.609043 
L 338.366061 84.997565 
L 350.390303 91.609043 
L 362.414545 84.997565 
L 374.438788 100.424348 
L 386.46303 91.609043 
L 398.487273 98.220522 
L 398.487273 93.81287 
L 398.487273 93.81287 
L 386.46303 87.201391 
L 374.438788 96.016696 
L 362.414545 80.589913 
L 350.390303 87.201391 
L 338.366061 80.589913 
L 326.341818 87.201391 
L 314.317576 113.647304 
L 302.293333 89.405217 
L 290.269091 118.054957 
L 278.244848 89.405217 
L 266.220606 73.978435 
L 254.196364 69.570783 
L 242.172121 73.978435 
L 230.147879 96.016696 
L 218.123636 80.589913 
L 206.099394 69.570783 
L 194.075152 80.589913 
L 182.050909 71.774609 
L 170.026667 78.386087 
L 158.002424 78.386087 
L 145.978182 78.386087 
L 133.953939 82.793739 
L 121.929697 87.201391 
L 109.905455 87.201391 
L 97.881212 87.201391 
L 85.85697 87.201391 
L 73.832727 87.201391 
z
" style="fill:#2ca02c;"/>
   </g>
   <g id="PolyCollection_34">
    <path clip-path="url(#p430a567bc8)" d="M 73.832727 87.201391 
L 73.832727 87.201391 
L 85.85697 87.201391 
L 97.881212 87.201391 
L 109.905455 87.201391 
L 121.929697 87.201391 
L 133.953939 82.793739 
L 145.978182 78.386087 
L 158.002424 78.386087 
L 170.026667 78.386087 
L 182.050909 71.774609 
L 194.075152 80.589913 
L 206.099394 69.570783 
L 218.123636 80.589913 
L 230.147879 96.016696 
L 242.172121 73.978435 
L 254.196364 69.570783 
L 266.220606 73.978435 
L 278.244848 89.405217 
L 290.269091 118.054957 
L 302.293333 89.405217 
L 314.317576 113.647304 
L 326.341818 87.201391 
L 338.366061 80.589913 
L 350.390303 87.201391 
L 362.414545 80.589913 
L 374.438788 96.016696 
L 386.46303 87.201391 
L 398.487273 93.81287 
L 398.487273 89.405217 
L 398.487273 89.405217 
L 386.46303 82.793739 
L 374.438788 91.609043 
L 362.414545 76.182261 
L 350.390303 80.589913 
L 338.366061 69.570783 
L 326.341818 71.774609 
L 314.317576 89.405217 
L 302.293333 80.589913 
L 290.269091 96.016696 
L 278.244848 76.182261 
L 266.220606 69.570783 
L 254.196364 65.16313 
L 242.172121 69.570783 
L 230.147879 91.609043 
L 218.123636 76.182261 
L 206.099394 65.16313 
L 194.075152 69.570783 
L 182.050909 71.774609 
L 170.026667 78.386087 
L 158.002424 78.386087 
L 145.978182 78.386087 
L 133.953939 82.793739 
L 121.929697 87.201391 
L 109.905455 87.201391 
L 97.881212 87.201391 
L 85.85697 87.201391 
L 73.832727 87.201391 
z
" style="fill:#d62728;"/>
   </g>
   <g id="PolyCollection_35">
    <path clip-path="url(#p430a567bc8)" d="M 73.832727 87.201391 
L 73.832727 87.201391 
L 85.85697 87.201391 
L 97.881212 87.201391 
L 109.905455 87.201391 
L 121.929697 87.201391 
L 133.953939 82.793739 
L 145.978182 78.386087 
L 158.002424 78.386087 
L 170.026667 78.386087 
L 182.050909 71.774609 
L 194.075152 69.570783 
L 206.099394 65.16313 
L 218.123636 76.182261 
L 230.147879 91.609043 
L 242.172121 69.570783 
L 254.196364 65.16313 
L 266.220606 69.570783 
L 278.244848 76.182261 
L 290.269091 96.016696 
L 302.293333 80.589913 
L 314.317576 89.405217 
L 326.341818 71.774609 
L 338.366061 69.570783 
L 350.390303 80.589913 
L 362.414545 76.182261 
L 374.438788 91.609043 
L 386.46303 82.793739 
L 398.487273 89.405217 
L 398.487273 84.997565 
L 398.487273 84.997565 
L 386.46303 78.386087 
L 374.438788 87.201391 
L 362.414545 71.774609 
L 350.390303 76.182261 
L 338.366061 65.16313 
L 326.341818 67.366957 
L 314.317576 84.997565 
L 302.293333 76.182261 
L 290.269091 91.609043 
L 278.244848 71.774609 
L 266.220606 65.16313 
L 254.196364 60.755478 
L 242.172121 65.16313 
L 230.147879 82.793739 
L 218.123636 58.551652 
L 206.099394 65.16313 
L 194.075152 69.570783 
L 182.050909 71.774609 
L 170.026667 78.386087 
L 158.002424 78.386087 
L 145.978182 78.386087 
L 133.953939 82.793739 
L 121.929697 87.201391 
L 109.905455 87.201391 
L 97.881212 87.201391 
L 85.85697 87.201391 
L 73.832727 87.201391 
z
" style="fill:#9467bd;"/>
   </g>
   <g id="PolyCollection_36">
    <path clip-path="url(#p430a567bc8)" d="M 73.832727 87.201391 
L 73.832727 87.201391 
L 85.85697 87.201391 
L 97.881212 87.201391 
L 109.905455 87.201391 
L 121.929697 87.201391 
L 133.953939 82.793739 
L 145.978182 78.386087 
L 158.002424 78.386087 
L 170.026667 78.386087 
L 182.050909 71.774609 
L 194.075152 69.570783 
L 206.099394 65.16313 
L 218.123636 58.551652 
L 230.147879 82.793739 
L 242.172121 65.16313 
L 254.196364 60.755478 
L 266.220606 65.16313 
L 278.244848 71.774609 
L 290.269091 91.609043 
L 302.293333 76.182261 
L 314.317576 84.997565 
L 326.341818 67.366957 
L 338.366061 65.16313 
L 350.390303 76.182261 
L 362.414545 71.774609 
L 374.438788 87.201391 
L 386.46303 78.386087 
L 398.487273 84.997565 
L 398.487273 80.589913 
L 398.487273 80.589913 
L 386.46303 73.978435 
L 374.438788 82.793739 
L 362.414545 67.366957 
L 350.390303 71.774609 
L 338.366061 60.755478 
L 326.341818 58.551652 
L 314.317576 67.366957 
L 302.293333 65.16313 
L 290.269091 76.182261 
L 278.244848 67.366957 
L 266.220606 65.16313 
L 254.196364 60.755478 
L 242.172121 65.16313 
L 230.147879 82.793739 
L 218.123636 58.551652 
L 206.099394 65.16313 
L 194.075152 69.570783 
L 182.050909 71.774609 
L 170.026667 78.386087 
L 158.002424 78.386087 
L 145.978182 78.386087 
L 133.953939 82.793739 
L 121.929697 87.201391 
L 109.905455 87.201391 
L 97.881212 87.201391 
L 85.85697 87.201391 
L 73.832727 87.201391 
z
" style="fill:#8c564b;"/>
   </g>
   <g id="PolyCollection_37">
    <path clip-path="url(#p430a567bc8)" d="M 73.832727 87.201391 
L 73.832727 87.201391 
L 85.85697 87.201391 
L 97.881212 87.201391 
L 109.905455 87.201391 
L 121.929697 87.201391 
L 133.953939 82.793739 
L 145.978182 78.386087 
L 158.002424 78.386087 
L 170.026667 78.386087 
L 182.050909 71.774609 
L 194.075152 69.570783 
L 206.099394 65.16313 
L 218.123636 58.551652 
L 230.147879 82.793739 
L 242.172121 65.16313 
L 254.196364 60.755478 
L 266.220606 65.16313 
L 278.244848 67.366957 
L 290.269091 76.182261 
L 302.293333 65.16313 
L 314.317576 67.366957 
L 326.341818 58.551652 
L 338.366061 60.755478 
L 350.390303 71.774609 
L 362.414545 67.366957 
L 374.438788 82.793739 
L 386.46303 73.978435 
L 398.487273 80.589913 
L 398.487273 76.182261 
L 398.487273 76.182261 
L 386.46303 69.570783 
L 374.438788 78.386087 
L 362.414545 62.959304 
L 350.390303 67.366957 
L 338.366061 56.347826 
L 326.341818 54.144 
L 314.317576 62.959304 
L 302.293333 56.347826 
L 290.269091 62.959304 
L 278.244848 67.366957 
L 266.220606 65.16313 
L 254.196364 60.755478 
L 242.172121 65.16313 
L 230.147879 82.793739 
L 218.123636 58.551652 
L 206.099394 65.16313 
L 194.075152 69.570783 
L 182.050909 71.774609 
L 170.026667 78.386087 
L 158.002424 78.386087 
L 145.978182 78.386087 
L 133.953939 82.793739 
L 121.929697 87.201391 
L 109.905455 87.201391 
L 97.881212 87.201391 
L 85.85697 87.201391 
L 73.832727 87.201391 
z
" style="fill:#e377c2;"/>
   </g>
   <g id="PolyCollection_38">
    <path clip-path="url(#p430a567bc8)" d="M 73.832727 87.201391 
L 73.832727 87.201391 
L 85.85697 87.201391 
L 97.881212 87.201391 
L 109.905455 87.201391 
L 121.929697 87.201391 
L 133.953939 82.793739 
L 145.978182 78.386087 
L 158.002424 78.386087 
L 170.026667 78.386087 
L 182.050909 71.774609 
L 194.075152 69.570783 
L 206.099394 65.16313 
L 218.123636 58.551652 
L 230.147879 82.793739 
L 242.172121 65.16313 
L 254.196364 60.755478 
L 266.220606 65.16313 
L 278.244848 67.366957 
L 290.269091 62.959304 
L 302.293333 56.347826 
L 314.317576 62.959304 
L 326.341818 54.144 
L 338.366061 56.347826 
L 350.390303 67.366957 
L 362.414545 62.959304 
L 374.438788 78.386087 
L 386.46303 69.570783 
L 398.487273 76.182261 
L 398.487273 71.774609 
L 398.487273 71.774609 
L 386.46303 65.16313 
L 374.438788 73.978435 
L 362.414545 58.551652 
L 350.390303 58.551652 
L 338.366061 56.347826 
L 326.341818 54.144 
L 314.317576 62.959304 
L 302.293333 56.347826 
L 290.269091 62.959304 
L 278.244848 67.366957 
L 266.220606 65.16313 
L 254.196364 60.755478 
L 242.172121 65.16313 
L 230.147879 82.793739 
L 218.123636 58.551652 
L 206.099394 65.16313 
L 194.075152 69.570783 
L 182.050909 71.774609 
L 170.026667 78.386087 
L 158.002424 78.386087 
L 145.978182 78.386087 
L 133.953939 82.793739 
L 121.929697 87.201391 
L 109.905455 87.201391 
L 97.881212 87.201391 
L 85.85697 87.201391 
L 73.832727 87.201391 
z
" style="fill:#7f7f7f;"/>
   </g>
   <g id="matplotlib.axis_1">
    <g id="xtick_1">
     <g id="line2d_1">
      <defs>
       <path d="M 0 0 
L 0 3.5 
" id="me068b09bcb" style="stroke:#000000;stroke-width:0.8;"/>
      </defs>
      <g>
       <use style="stroke:#000000;stroke-width:0.8;" x="73.832727" xlink:href="#me068b09bcb" y="307.584"/>
      </g>
     </g>
     <g id="text_1">
      <!-- 0 -->
      <g transform="translate(70.651477 322.182437)scale(0.1 -0.1)">
       <defs>
        <path d="M 31.78125 66.40625 
Q 24.171875 66.40625 20.328125 58.90625 
Q 16.5 51.421875 16.5 36.375 
Q 16.5 21.390625 20.328125 13.890625 
Q 24.171875 6.390625 31.78125 6.390625 
Q 39.453125 6.390625 43.28125 13.890625 
Q 47.125 21.390625 47.125 36.375 
Q 47.125 51.421875 43.28125 58.90625 
Q 39.453125 66.40625 31.78125 66.40625 
z
M 31.78125 74.21875 
Q 44.046875 74.21875 50.515625 64.515625 
Q 56.984375 54.828125 56.984375 36.375 
Q 56.984375 17.96875 50.515625 8.265625 
Q 44.046875 -1.421875 31.78125 -1.421875 
Q 19.53125 -1.421875 13.0625 8.265625 
Q 6.59375 17.96875 6.59375 36.375 
Q 6.59375 54.828125 13.0625 64.515625 
Q 19.53125 74.21875 31.78125 74.21875 
z
" id="DejaVuSans-48"/>
       </defs>
       <use xlink:href="#DejaVuSans-48"/>
      </g>
     </g>
    </g>
    <g id="xtick_2">
     <g id="line2d_2">
      <g>
       <use style="stroke:#000000;stroke-width:0.8;" x="133.953939" xlink:href="#me068b09bcb" y="307.584"/>
      </g>
     </g>
     <g id="text_2">
      <!-- 5 -->
      <g transform="translate(130.772689 322.182437)scale(0.1 -0.1)">
       <defs>
        <path d="M 10.796875 72.90625 
L 49.515625 72.90625 
L 49.515625 64.59375 
L 19.828125 64.59375 
L 19.828125 46.734375 
Q 21.96875 47.46875 24.109375 47.828125 
Q 26.265625 48.1875 28.421875 48.1875 
Q 40.625 48.1875 47.75 41.5 
Q 54.890625 34.8125 54.890625 23.390625 
Q 54.890625 11.625 47.5625 5.09375 
Q 40.234375 -1.421875 26.90625 -1.421875 
Q 22.3125 -1.421875 17.546875 -0.640625 
Q 12.796875 0.140625 7.71875 1.703125 
L 7.71875 11.625 
Q 12.109375 9.234375 16.796875 8.0625 
Q 21.484375 6.890625 26.703125 6.890625 
Q 35.15625 6.890625 40.078125 11.328125 
Q 45.015625 15.765625 45.015625 23.390625 
Q 45.015625 31 40.078125 35.4375 
Q 35.15625 39.890625 26.703125 39.890625 
Q 22.75 39.890625 18.8125 39.015625 
Q 14.890625 38.140625 10.796875 36.28125 
z
" id="DejaVuSans-53"/>
       </defs>
       <use xlink:href="#DejaVuSans-53"/>
      </g>
     </g>
    </g>
    <g id="xtick_3">
     <g id="line2d_3">
      <g>
       <use style="stroke:#000000;stroke-width:0.8;" x="194.075152" xlink:href="#me068b09bcb" y="307.584"/>
      </g>
     </g>
     <g id="text_3">
      <!-- 10 -->
      <g transform="translate(187.712652 322.182437)scale(0.1 -0.1)">
       <defs>
        <path d="M 12.40625 8.296875 
L 28.515625 8.296875 
L 28.515625 63.921875 
L 10.984375 60.40625 
L 10.984375 69.390625 
L 28.421875 72.90625 
L 38.28125 72.90625 
L 38.28125 8.296875 
L 54.390625 8.296875 
L 54.390625 0 
L 12.40625 0 
z
" id="DejaVuSans-49"/>
       </defs>
       <use xlink:href="#DejaVuSans-49"/>
       <use x="63.623047" xlink:href="#DejaVuSans-48"/>
      </g>
     </g>
    </g>
    <g id="xtick_4">
     <g id="line2d_4">
      <g>
       <use style="stroke:#000000;stroke-width:0.8;" x="254.196364" xlink:href="#me068b09bcb" y="307.584"/>
      </g>
     </g>
     <g id="text_4">
      <!-- 15 -->
      <g transform="translate(247.833864 322.182437)scale(0.1 -0.1)">
       <use xlink:href="#DejaVuSans-49"/>
       <use x="63.623047" xlink:href="#DejaVuSans-53"/>
      </g>
     </g>
    </g>
    <g id="xtick_5">
     <g id="line2d_5">
      <g>
       <use style="stroke:#000000;stroke-width:0.8;" x="314.317576" xlink:href="#me068b09bcb" y="307.584"/>
      </g>
     </g>
     <g id="text_5">
      <!-- 20 -->
      <g transform="translate(307.955076 322.182437)scale(0.1 -0.1)">
       <defs>
        <path d="M 19.1875 8.296875 
L 53.609375 8.296875 
L 53.609375 0 
L 7.328125 0 
L 7.328125 8.296875 
Q 12.9375 14.109375 22.625 23.890625 
Q 32.328125 33.6875 34.8125 36.53125 
Q 39.546875 41.84375 41.421875 45.53125 
Q 43.3125 49.21875 43.3125 52.78125 
Q 43.3125 58.59375 39.234375 62.25 
Q 35.15625 65.921875 28.609375 65.921875 
Q 23.96875 65.921875 18.8125 64.3125 
Q 13.671875 62.703125 7.8125 59.421875 
L 7.8125 69.390625 
Q 13.765625 71.78125 18.9375 73 
Q 24.125 74.21875 28.421875 74.21875 
Q 39.75 74.21875 46.484375 68.546875 
Q 53.21875 62.890625 53.21875 53.421875 
Q 53.21875 48.921875 51.53125 44.890625 
Q 49.859375 40.875 45.40625 35.40625 
Q 44.1875 33.984375 37.640625 27.21875 
Q 31.109375 20.453125 19.1875 8.296875 
z
" id="DejaVuSans-50"/>
       </defs>
       <use xlink:href="#DejaVuSans-50"/>
       <use x="63.623047" xlink:href="#DejaVuSans-48"/>
      </g>
     </g>
    </g>
    <g id="xtick_6">
     <g id="line2d_6">
      <g>
       <use style="stroke:#000000;stroke-width:0.8;" x="374.438788" xlink:href="#me068b09bcb" y="307.584"/>
      </g>
     </g>
     <g id="text_6">
      <!-- 25 -->
      <g transform="translate(368.076288 322.182437)scale(0.1 -0.1)">
       <use xlink:href="#DejaVuSans-50"/>
       <use x="63.623047" xlink:href="#DejaVuSans-53"/>
      </g>
     </g>
    </g>
    <g id="text_7">
     <!-- Generations -->
     <g transform="translate(205.662344 335.860562)scale(0.1 -0.1)">
      <defs>
       <path d="M 59.515625 10.40625 
L 59.515625 29.984375 
L 43.40625 29.984375 
L 43.40625 38.09375 
L 69.28125 38.09375 
L 69.28125 6.78125 
Q 63.578125 2.734375 56.6875 0.65625 
Q 49.8125 -1.421875 42 -1.421875 
Q 24.90625 -1.421875 15.25 8.5625 
Q 5.609375 18.5625 5.609375 36.375 
Q 5.609375 54.25 15.25 64.234375 
Q 24.90625 74.21875 42 74.21875 
Q 49.125 74.21875 55.546875 72.453125 
Q 61.96875 70.703125 67.390625 67.28125 
L 67.390625 56.78125 
Q 61.921875 61.421875 55.765625 63.765625 
Q 49.609375 66.109375 42.828125 66.109375 
Q 29.4375 66.109375 22.71875 58.640625 
Q 16.015625 51.171875 16.015625 36.375 
Q 16.015625 21.625 22.71875 14.15625 
Q 29.4375 6.6875 42.828125 6.6875 
Q 48.046875 6.6875 52.140625 7.59375 
Q 56.25 8.5 59.515625 10.40625 
z
" id="DejaVuSans-71"/>
       <path d="M 56.203125 29.59375 
L 56.203125 25.203125 
L 14.890625 25.203125 
Q 15.484375 15.921875 20.484375 11.0625 
Q 25.484375 6.203125 34.421875 6.203125 
Q 39.59375 6.203125 44.453125 7.46875 
Q 49.3125 8.734375 54.109375 11.28125 
L 54.109375 2.78125 
Q 49.265625 0.734375 44.1875 -0.34375 
Q 39.109375 -1.421875 33.890625 -1.421875 
Q 20.796875 -1.421875 13.15625 6.1875 
Q 5.515625 13.8125 5.515625 26.8125 
Q 5.515625 40.234375 12.765625 48.109375 
Q 20.015625 56 32.328125 56 
Q 43.359375 56 49.78125 48.890625 
Q 56.203125 41.796875 56.203125 29.59375 
z
M 47.21875 32.234375 
Q 47.125 39.59375 43.09375 43.984375 
Q 39.0625 48.390625 32.421875 48.390625 
Q 24.90625 48.390625 20.390625 44.140625 
Q 15.875 39.890625 15.1875 32.171875 
z
" id="DejaVuSans-101"/>
       <path d="M 54.890625 33.015625 
L 54.890625 0 
L 45.90625 0 
L 45.90625 32.71875 
Q 45.90625 40.484375 42.875 44.328125 
Q 39.84375 48.1875 33.796875 48.1875 
Q 26.515625 48.1875 22.3125 43.546875 
Q 18.109375 38.921875 18.109375 30.90625 
L 18.109375 0 
L 9.078125 0 
L 9.078125 54.6875 
L 18.109375 54.6875 
L 18.109375 46.1875 
Q 21.34375 51.125 25.703125 53.5625 
Q 30.078125 56 35.796875 56 
Q 45.21875 56 50.046875 50.171875 
Q 54.890625 44.34375 54.890625 33.015625 
z
" id="DejaVuSans-110"/>
       <path d="M 41.109375 46.296875 
Q 39.59375 47.171875 37.8125 47.578125 
Q 36.03125 48 33.890625 48 
Q 26.265625 48 22.1875 43.046875 
Q 18.109375 38.09375 18.109375 28.8125 
L 18.109375 0 
L 9.078125 0 
L 9.078125 54.6875 
L 18.109375 54.6875 
L 18.109375 46.1875 
Q 20.953125 51.171875 25.484375 53.578125 
Q 30.03125 56 36.53125 56 
Q 37.453125 56 38.578125 55.875 
Q 39.703125 55.765625 41.0625 55.515625 
z
" id="DejaVuSans-114"/>
       <path d="M 34.28125 27.484375 
Q 23.390625 27.484375 19.1875 25 
Q 14.984375 22.515625 14.984375 16.5 
Q 14.984375 11.71875 18.140625 8.90625 
Q 21.296875 6.109375 26.703125 6.109375 
Q 34.1875 6.109375 38.703125 11.40625 
Q 43.21875 16.703125 43.21875 25.484375 
L 43.21875 27.484375 
z
M 52.203125 31.203125 
L 52.203125 0 
L 43.21875 0 
L 43.21875 8.296875 
Q 40.140625 3.328125 35.546875 0.953125 
Q 30.953125 -1.421875 24.3125 -1.421875 
Q 15.921875 -1.421875 10.953125 3.296875 
Q 6 8.015625 6 15.921875 
Q 6 25.140625 12.171875 29.828125 
Q 18.359375 34.515625 30.609375 34.515625 
L 43.21875 34.515625 
L 43.21875 35.40625 
Q 43.21875 41.609375 39.140625 45 
Q 35.0625 48.390625 27.6875 48.390625 
Q 23 48.390625 18.546875 47.265625 
Q 14.109375 46.140625 10.015625 43.890625 
L 10.015625 52.203125 
Q 14.9375 54.109375 19.578125 55.046875 
Q 24.21875 56 28.609375 56 
Q 40.484375 56 46.34375 49.84375 
Q 52.203125 43.703125 52.203125 31.203125 
z
" id="DejaVuSans-97"/>
       <path d="M 18.3125 70.21875 
L 18.3125 54.6875 
L 36.8125 54.6875 
L 36.8125 47.703125 
L 18.3125 47.703125 
L 18.3125 18.015625 
Q 18.3125 11.328125 20.140625 9.421875 
Q 21.96875 7.515625 27.59375 7.515625 
L 36.8125 7.515625 
L 36.8125 0 
L 27.59375 0 
Q 17.1875 0 13.234375 3.875 
Q 9.28125 7.765625 9.28125 18.015625 
L 9.28125 47.703125 
L 2.6875 47.703125 
L 2.6875 54.6875 
L 9.28125 54.6875 
L 9.28125 70.21875 
z
" id="DejaVuSans-116"/>
       <path d="M 9.421875 54.6875 
L 18.40625 54.6875 
L 18.40625 0 
L 9.421875 0 
z
M 9.421875 75.984375 
L 18.40625 75.984375 
L 18.40625 64.59375 
L 9.421875 64.59375 
z
" id="DejaVuSans-105"/>
       <path d="M 30.609375 48.390625 
Q 23.390625 48.390625 19.1875 42.75 
Q 14.984375 37.109375 14.984375 27.296875 
Q 14.984375 17.484375 19.15625 11.84375 
Q 23.34375 6.203125 30.609375 6.203125 
Q 37.796875 6.203125 41.984375 11.859375 
Q 46.1875 17.53125 46.1875 27.296875 
Q 46.1875 37.015625 41.984375 42.703125 
Q 37.796875 48.390625 30.609375 48.390625 
z
M 30.609375 56 
Q 42.328125 56 49.015625 48.375 
Q 55.71875 40.765625 55.71875 27.296875 
Q 55.71875 13.875 49.015625 6.21875 
Q 42.328125 -1.421875 30.609375 -1.421875 
Q 18.84375 -1.421875 12.171875 6.21875 
Q 5.515625 13.875 5.515625 27.296875 
Q 5.515625 40.765625 12.171875 48.375 
Q 18.84375 56 30.609375 56 
z
" id="DejaVuSans-111"/>
       <path d="M 44.28125 53.078125 
L 44.28125 44.578125 
Q 40.484375 46.53125 36.375 47.5 
Q 32.28125 48.484375 27.875 48.484375 
Q 21.1875 48.484375 17.84375 46.4375 
Q 14.5 44.390625 14.5 40.28125 
Q 14.5 37.15625 16.890625 35.375 
Q 19.28125 33.59375 26.515625 31.984375 
L 29.59375 31.296875 
Q 39.15625 29.25 43.1875 25.515625 
Q 47.21875 21.78125 47.21875 15.09375 
Q 47.21875 7.46875 41.1875 3.015625 
Q 35.15625 -1.421875 24.609375 -1.421875 
Q 20.21875 -1.421875 15.453125 -0.5625 
Q 10.6875 0.296875 5.421875 2 
L 5.421875 11.28125 
Q 10.40625 8.6875 15.234375 7.390625 
Q 20.0625 6.109375 24.8125 6.109375 
Q 31.15625 6.109375 34.5625 8.28125 
Q 37.984375 10.453125 37.984375 14.40625 
Q 37.984375 18.0625 35.515625 20.015625 
Q 33.0625 21.96875 24.703125 23.78125 
L 21.578125 24.515625 
Q 13.234375 26.265625 9.515625 29.90625 
Q 5.8125 33.546875 5.8125 39.890625 
Q 5.8125 47.609375 11.28125 51.796875 
Q 16.75 56 26.8125 56 
Q 31.78125 56 36.171875 55.265625 
Q 40.578125 54.546875 44.28125 53.078125 
z
" id="DejaVuSans-115"/>
      </defs>
      <use xlink:href="#DejaVuSans-71"/>
      <use x="77.490234" xlink:href="#DejaVuSans-101"/>
      <use x="139.013672" xlink:href="#DejaVuSans-110"/>
      <use x="202.392578" xlink:href="#DejaVuSans-101"/>
      <use x="263.916016" xlink:href="#DejaVuSans-114"/>
      <use x="305.029297" xlink:href="#DejaVuSans-97"/>
      <use x="366.308594" xlink:href="#DejaVuSans-116"/>
      <use x="405.517578" xlink:href="#DejaVuSans-105"/>
      <use x="433.300781" xlink:href="#DejaVuSans-111"/>
      <use x="494.482422" xlink:href="#DejaVuSans-110"/>
      <use x="557.861328" xlink:href="#DejaVuSans-115"/>
     </g>
    </g>
   </g>
   <g id="matplotlib.axis_2">
    <g id="ytick_1">
     <g id="line2d_7">
      <defs>
       <path d="M 0 0 
L -3.5 0 
" id="m0a452897f0" style="stroke:#000000;stroke-width:0.8;"/>
      </defs>
      <g>
       <use style="stroke:#000000;stroke-width:0.8;" x="57.6" xlink:href="#m0a452897f0" y="307.584"/>
      </g>
     </g>
     <g id="text_8">
      <!-- 0 -->
      <g transform="translate(44.2375 311.383219)scale(0.1 -0.1)">
       <use xlink:href="#DejaVuSans-48"/>
      </g>
     </g>
    </g>
    <g id="ytick_2">
     <g id="line2d_8">
      <g>
       <use style="stroke:#000000;stroke-width:0.8;" x="57.6" xlink:href="#m0a452897f0" y="263.507478"/>
      </g>
     </g>
     <g id="text_9">
      <!-- 20 -->
      <g transform="translate(37.875 267.306697)scale(0.1 -0.1)">
       <use xlink:href="#DejaVuSans-50"/>
       <use x="63.623047" xlink:href="#DejaVuSans-48"/>
      </g>
     </g>
    </g>
    <g id="ytick_3">
     <g id="line2d_9">
      <g>
       <use style="stroke:#000000;stroke-width:0.8;" x="57.6" xlink:href="#m0a452897f0" y="219.430957"/>
      </g>
     </g>
     <g id="text_10">
      <!-- 40 -->
      <g transform="translate(37.875 223.230175)scale(0.1 -0.1)">
       <defs>
        <path d="M 37.796875 64.3125 
L 12.890625 25.390625 
L 37.796875 25.390625 
z
M 35.203125 72.90625 
L 47.609375 72.90625 
L 47.609375 25.390625 
L 58.015625 25.390625 
L 58.015625 17.1875 
L 47.609375 17.1875 
L 47.609375 0 
L 37.796875 0 
L 37.796875 17.1875 
L 4.890625 17.1875 
L 4.890625 26.703125 
z
" id="DejaVuSans-52"/>
       </defs>
       <use xlink:href="#DejaVuSans-52"/>
       <use x="63.623047" xlink:href="#DejaVuSans-48"/>
      </g>
     </g>
    </g>
    <g id="ytick_4">
     <g id="line2d_10">
      <g>
       <use style="stroke:#000000;stroke-width:0.8;" x="57.6" xlink:href="#m0a452897f0" y="175.354435"/>
      </g>
     </g>
     <g id="text_11">
      <!-- 60 -->
      <g transform="translate(37.875 179.153654)scale(0.1 -0.1)">
       <defs>
        <path d="M 33.015625 40.375 
Q 26.375 40.375 22.484375 35.828125 
Q 18.609375 31.296875 18.609375 23.390625 
Q 18.609375 15.53125 22.484375 10.953125 
Q 26.375 6.390625 33.015625 6.390625 
Q 39.65625 6.390625 43.53125 10.953125 
Q 47.40625 15.53125 47.40625 23.390625 
Q 47.40625 31.296875 43.53125 35.828125 
Q 39.65625 40.375 33.015625 40.375 
z
M 52.59375 71.296875 
L 52.59375 62.3125 
Q 48.875 64.0625 45.09375 64.984375 
Q 41.3125 65.921875 37.59375 65.921875 
Q 27.828125 65.921875 22.671875 59.328125 
Q 17.53125 52.734375 16.796875 39.40625 
Q 19.671875 43.65625 24.015625 45.921875 
Q 28.375 48.1875 33.59375 48.1875 
Q 44.578125 48.1875 50.953125 41.515625 
Q 57.328125 34.859375 57.328125 23.390625 
Q 57.328125 12.15625 50.6875 5.359375 
Q 44.046875 -1.421875 33.015625 -1.421875 
Q 20.359375 -1.421875 13.671875 8.265625 
Q 6.984375 17.96875 6.984375 36.375 
Q 6.984375 53.65625 15.1875 63.9375 
Q 23.390625 74.21875 37.203125 74.21875 
Q 40.921875 74.21875 44.703125 73.484375 
Q 48.484375 72.75 52.59375 71.296875 
z
" id="DejaVuSans-54"/>
       </defs>
       <use xlink:href="#DejaVuSans-54"/>
       <use x="63.623047" xlink:href="#DejaVuSans-48"/>
      </g>
     </g>
    </g>
    <g id="ytick_5">
     <g id="line2d_11">
      <g>
       <use style="stroke:#000000;stroke-width:0.8;" x="57.6" xlink:href="#m0a452897f0" y="131.277913"/>
      </g>
     </g>
     <g id="text_12">
      <!-- 80 -->
      <g transform="translate(37.875 135.077132)scale(0.1 -0.1)">
       <defs>
        <path d="M 31.78125 34.625 
Q 24.75 34.625 20.71875 30.859375 
Q 16.703125 27.09375 16.703125 20.515625 
Q 16.703125 13.921875 20.71875 10.15625 
Q 24.75 6.390625 31.78125 6.390625 
Q 38.8125 6.390625 42.859375 10.171875 
Q 46.921875 13.96875 46.921875 20.515625 
Q 46.921875 27.09375 42.890625 30.859375 
Q 38.875 34.625 31.78125 34.625 
z
M 21.921875 38.8125 
Q 15.578125 40.375 12.03125 44.71875 
Q 8.5 49.078125 8.5 55.328125 
Q 8.5 64.0625 14.71875 69.140625 
Q 20.953125 74.21875 31.78125 74.21875 
Q 42.671875 74.21875 48.875 69.140625 
Q 55.078125 64.0625 55.078125 55.328125 
Q 55.078125 49.078125 51.53125 44.71875 
Q 48 40.375 41.703125 38.8125 
Q 48.828125 37.15625 52.796875 32.3125 
Q 56.78125 27.484375 56.78125 20.515625 
Q 56.78125 9.90625 50.3125 4.234375 
Q 43.84375 -1.421875 31.78125 -1.421875 
Q 19.734375 -1.421875 13.25 4.234375 
Q 6.78125 9.90625 6.78125 20.515625 
Q 6.78125 27.484375 10.78125 32.3125 
Q 14.796875 37.15625 21.921875 38.8125 
z
M 18.3125 54.390625 
Q 18.3125 48.734375 21.84375 45.5625 
Q 25.390625 42.390625 31.78125 42.390625 
Q 38.140625 42.390625 41.71875 45.5625 
Q 45.3125 48.734375 45.3125 54.390625 
Q 45.3125 60.0625 41.71875 63.234375 
Q 38.140625 66.40625 31.78125 66.40625 
Q 25.390625 66.40625 21.84375 63.234375 
Q 18.3125 60.0625 18.3125 54.390625 
z
" id="DejaVuSans-56"/>
       </defs>
       <use xlink:href="#DejaVuSans-56"/>
       <use x="63.623047" xlink:href="#DejaVuSans-48"/>
      </g>
     </g>
    </g>
    <g id="ytick_6">
     <g id="line2d_12">
      <g>
       <use style="stroke:#000000;stroke-width:0.8;" x="57.6" xlink:href="#m0a452897f0" y="87.201391"/>
      </g>
     </g>
     <g id="text_13">
      <!-- 100 -->
      <g transform="translate(31.5125 91.00061)scale(0.1 -0.1)">
       <use xlink:href="#DejaVuSans-49"/>
       <use x="63.623047" xlink:href="#DejaVuSans-48"/>
       <use x="127.246094" xlink:href="#DejaVuSans-48"/>
      </g>
     </g>
    </g>
    <g id="ytick_7">
     <g id="line2d_13">
      <g>
       <use style="stroke:#000000;stroke-width:0.8;" x="57.6" xlink:href="#m0a452897f0" y="43.12487"/>
      </g>
     </g>
     <g id="text_14">
      <!-- 120 -->
      <g transform="translate(31.5125 46.924088)scale(0.1 -0.1)">
       <use xlink:href="#DejaVuSans-49"/>
       <use x="63.623047" xlink:href="#DejaVuSans-50"/>
       <use x="127.246094" xlink:href="#DejaVuSans-48"/>
      </g>
     </g>
    </g>
    <g id="text_15">
     <!-- Size per Species -->
     <g transform="translate(25.432812 215.520969)rotate(-90)scale(0.1 -0.1)">
      <defs>
       <path d="M 53.515625 70.515625 
L 53.515625 60.890625 
Q 47.90625 63.578125 42.921875 64.890625 
Q 37.9375 66.21875 33.296875 66.21875 
Q 25.25 66.21875 20.875 63.09375 
Q 16.5 59.96875 16.5 54.203125 
Q 16.5 49.359375 19.40625 46.890625 
Q 22.3125 44.4375 30.421875 42.921875 
L 36.375 41.703125 
Q 47.40625 39.59375 52.65625 34.296875 
Q 57.90625 29 57.90625 20.125 
Q 57.90625 9.515625 50.796875 4.046875 
Q 43.703125 -1.421875 29.984375 -1.421875 
Q 24.8125 -1.421875 18.96875 -0.25 
Q 13.140625 0.921875 6.890625 3.21875 
L 6.890625 13.375 
Q 12.890625 10.015625 18.65625 8.296875 
Q 24.421875 6.59375 29.984375 6.59375 
Q 38.421875 6.59375 43.015625 9.90625 
Q 47.609375 13.234375 47.609375 19.390625 
Q 47.609375 24.75 44.3125 27.78125 
Q 41.015625 30.8125 33.5 32.328125 
L 27.484375 33.5 
Q 16.453125 35.6875 11.515625 40.375 
Q 6.59375 45.0625 6.59375 53.421875 
Q 6.59375 63.09375 13.40625 68.65625 
Q 20.21875 74.21875 32.171875 74.21875 
Q 37.3125 74.21875 42.625 73.28125 
Q 47.953125 72.359375 53.515625 70.515625 
z
" id="DejaVuSans-83"/>
       <path d="M 5.515625 54.6875 
L 48.1875 54.6875 
L 48.1875 46.484375 
L 14.40625 7.171875 
L 48.1875 7.171875 
L 48.1875 0 
L 4.296875 0 
L 4.296875 8.203125 
L 38.09375 47.515625 
L 5.515625 47.515625 
z
" id="DejaVuSans-122"/>
       <path id="DejaVuSans-32"/>
       <path d="M 18.109375 8.203125 
L 18.109375 -20.796875 
L 9.078125 -20.796875 
L 9.078125 54.6875 
L 18.109375 54.6875 
L 18.109375 46.390625 
Q 20.953125 51.265625 25.265625 53.625 
Q 29.59375 56 35.59375 56 
Q 45.5625 56 51.78125 48.09375 
Q 58.015625 40.1875 58.015625 27.296875 
Q 58.015625 14.40625 51.78125 6.484375 
Q 45.5625 -1.421875 35.59375 -1.421875 
Q 29.59375 -1.421875 25.265625 0.953125 
Q 20.953125 3.328125 18.109375 8.203125 
z
M 48.6875 27.296875 
Q 48.6875 37.203125 44.609375 42.84375 
Q 40.53125 48.484375 33.40625 48.484375 
Q 26.265625 48.484375 22.1875 42.84375 
Q 18.109375 37.203125 18.109375 27.296875 
Q 18.109375 17.390625 22.1875 11.75 
Q 26.265625 6.109375 33.40625 6.109375 
Q 40.53125 6.109375 44.609375 11.75 
Q 48.6875 17.390625 48.6875 27.296875 
z
" id="DejaVuSans-112"/>
       <path d="M 48.78125 52.59375 
L 48.78125 44.1875 
Q 44.96875 46.296875 41.140625 47.34375 
Q 37.3125 48.390625 33.40625 48.390625 
Q 24.65625 48.390625 19.8125 42.84375 
Q 14.984375 37.3125 14.984375 27.296875 
Q 14.984375 17.28125 19.8125 11.734375 
Q 24.65625 6.203125 33.40625 6.203125 
Q 37.3125 6.203125 41.140625 7.25 
Q 44.96875 8.296875 48.78125 10.40625 
L 48.78125 2.09375 
Q 45.015625 0.34375 40.984375 -0.53125 
Q 36.96875 -1.421875 32.421875 -1.421875 
Q 20.0625 -1.421875 12.78125 6.34375 
Q 5.515625 14.109375 5.515625 27.296875 
Q 5.515625 40.671875 12.859375 48.328125 
Q 20.21875 56 33.015625 56 
Q 37.15625 56 41.109375 55.140625 
Q 45.0625 54.296875 48.78125 52.59375 
z
" id="DejaVuSans-99"/>
      </defs>
      <use xlink:href="#DejaVuSans-83"/>
      <use x="63.476562" xlink:href="#DejaVuSans-105"/>
      <use x="91.259766" xlink:href="#DejaVuSans-122"/>
      <use x="143.75" xlink:href="#DejaVuSans-101"/>
      <use x="205.273438" xlink:href="#DejaVuSans-32"/>
      <use x="237.060547" xlink:href="#DejaVuSans-112"/>
      <use x="300.537109" xlink:href="#DejaVuSans-101"/>
      <use x="362.060547" xlink:href="#DejaVuSans-114"/>
      <use x="403.173828" xlink:href="#DejaVuSans-32"/>
      <use x="434.960938" xlink:href="#DejaVuSans-83"/>
      <use x="498.4375" xlink:href="#DejaVuSans-112"/>
      <use x="561.914062" xlink:href="#DejaVuSans-101"/>
      <use x="623.4375" xlink:href="#DejaVuSans-99"/>
      <use x="678.417969" xlink:href="#DejaVuSans-105"/>
      <use x="706.201172" xlink:href="#DejaVuSans-101"/>
      <use x="767.724609" xlink:href="#DejaVuSans-115"/>
     </g>
    </g>
   </g>
   <g id="patch_3">
    <path d="M 57.6 307.584 
L 57.6 41.472 
" style="fill:none;stroke:#000000;stroke-linecap:square;stroke-linejoin:miter;stroke-width:0.8;"/>
   </g>
   <g id="patch_4">
    <path d="M 414.72 307.584 
L 414.72 41.472 
" style="fill:none;stroke:#000000;stroke-linecap:square;stroke-linejoin:miter;stroke-width:0.8;"/>
   </g>
   <g id="patch_5">
    <path d="M 57.6 307.584 
L 414.72 307.584 
" style="fill:none;stroke:#000000;stroke-linecap:square;stroke-linejoin:miter;stroke-width:0.8;"/>
   </g>
   <g id="patch_6">
    <path d="M 57.6 41.472 
L 414.72 41.472 
" style="fill:none;stroke:#000000;stroke-linecap:square;stroke-linejoin:miter;stroke-width:0.8;"/>
   </g>
   <g id="text_16">
    <!-- Speciation -->
    <g transform="translate(204.714375 35.472)scale(0.12 -0.12)">
     <use xlink:href="#DejaVuSans-83"/>
     <use x="63.476562" xlink:href="#DejaVuSans-112"/>
     <use x="126.953125" xlink:href="#DejaVuSans-101"/>
     <use x="188.476562" xlink:href="#DejaVuSans-99"/>
     <use x="243.457031" xlink:href="#DejaVuSans-105"/>
     <use x="271.240234" xlink:href="#DejaVuSans-97"/>
     <use x="332.519531" xlink:href="#DejaVuSans-116"/>
     <use x="371.728516" xlink:href="#DejaVuSans-105"/>
     <use x="399.511719" xlink:href="#DejaVuSans-111"/>
     <use x="460.693359" xlink:href="#DejaVuSans-110"/>
    </g>
   </g>
  </g>
 </g>
 <defs>
  <clipPath id="p430a567bc8">
   <rect height="266.112" width="357.12" x="57.6" y="41.472"/>
  </clipPath>
 </defs>
</svg>
